"/artifact/datasets/gpuverify-cav14/pug/CUDA50/3_Imaging/dwtHaar1D/dwtHaar1D.c", line 86: warning: 
          function "kernel" was declared but never referenced
  __global__ void kernel (float* id, float* od, float* approx_final, int dlevels,int slength_step_half,int bdim) {
                  ^

>>>> start analysis ... 


-------------------------------------------------------
Invalid OVERFLOW_PROTECTION flag in config.txt!
Setting OVERFLOW_PROTECTION flag to on
-------------------------------------------------------

-------------------------------------------------------
Invalid NBITS value in config.txt!
Setting NBITS value to 10
-------------------------------------------------------

-------------------------------------------------------
Invalid USE_INCRSMT flag in config.txt!
Setting USE_INCRSMT flag to false
-------------------------------------------------------


-------------------------------------------------------
Invalid USE_LOOP_REFINEMENT flag in config.txt!
Setting USE_LOOP_REFINEMENT flag to true
-------------------------------------------------------


-------------------------------------------------------
Invalid SLICE_ARRAYS flag in config.txt!
Setting SLICE_ARRAYS flag to true
-------------------------------------------------------


-------------------------------------------------------
Invalid USE_ASSUMES flag in config.txt!
Setting USE_ASSUMES flag to true
-------------------------------------------------------


-------------------------------------------------------
Invalid CHK_BANK_CONFLICTS option in config.txt!
Setting CHK_BANK_CONFLICTS option to false
-------------------------------------------------------

Debug level (verbosity) set to 0


Processing function: kernel

FunctionCall: assume((slength_step_half == 2048))
Assuming slength_step_half0 == 2048

FunctionCall: assume((bdim == 512))
Assuming bdim0 == 512

FunctionCall: assume(((blockDim.x) ==(512)))
Assuming bdim.x == 512

FunctionCall: assume(((gridDim.x) ==(1)))
Assuming gdim.x == 1

Binary OP: shared[tid] =(id[idata])

Binary OP: shared[tid + bdim] =(id[idata +(bdim)])

FunctionCall: __syncthreads()
unsatisfiable

FunctionCall: __syncthreads()

Binary OP: od[tid_global + slength_step_half] =((data0 - data1) * 0.70710678118654752440f)

Binary OP: shared[atid] =((data0 + data1) * 0.70710678118654752440f)

FunctionCall: __syncthreads()
unsatisfiable
unsatisfiable
!!! the same decision: (dlevels0 > 1)
containBarrierFlag = 1
incrExpr = ++i
------------- Already normalized 
rangeExpr = ((!1^i0 >= 1) && (!1^i0 <= (dlevels0 - 1))); substExpr = 

Binary OP: od[g_wpos] =(((shared[c_idata0]) -(shared[c_idata1])) * 0.70710678118654752440f)

Binary OP: shared[c_idata0] =(((shared[c_idata0]) +(shared[c_idata1])) * 0.70710678118654752440f)

Binary OP: num_threads =(num_threads >> 1)

Binary OP: offset_neighbor <<= 1
Found loop carrying expression, try refinement!

Binary OP: idata0 =(idata0 << 1)

FunctionCall: __syncthreads()

Binary OP: approx_final[bid] =(shared[0])

Reaching the end of the kernel
unsatisfiable


#####################################################################

No races or synchronization errors were found.

Max instance solving time = 0.001197s
Total solving time = 0.002822s

#####################################################################

