"/artifact/datasets/gpuverify-cav14/pug/CUDA50/6_Advanced/reduction/reduce6.c", line 123: error: 
          identifier "false" is undefined
          if (nIsPow2 || i + blockSize < n)
              ^

"/artifact/datasets/gpuverify-cav14/pug/CUDA50/6_Advanced/reduction/reduce6.c", line 88: warning: 
          function "kernel" was declared but never referenced
  __global__ void kernel (T* g_idata, T* g_odata, unsigned int n) {
                  ^

terminate called after throwing an instance of 'rose_exception'
  what():  Errors in Processing: (frontend_failed)
/artifact/tools/pug-v0.2_x64/pug: line 3: 26102 Aborted                 (core dumped) LD_LIBRARY_PATH="$PREFIX/lib" "$PREFIX/bin/pug" "$@"
