"/artifact/datasets/gpuverify-cav14/pug/CUDA50/6_Advanced/reduction/reduce1.c", line 85: warning: 
          function "kernel" was declared but never referenced
  __global__ void kernel (T* g_idata, T* g_odata, unsigned int n) {
                  ^

>>>> start analysis ... 


-------------------------------------------------------
Invalid OVERFLOW_PROTECTION flag in config.txt!
Setting OVERFLOW_PROTECTION flag to on
-------------------------------------------------------

-------------------------------------------------------
Invalid NBITS value in config.txt!
Setting NBITS value to 10
-------------------------------------------------------

-------------------------------------------------------
Invalid USE_INCRSMT flag in config.txt!
Setting USE_INCRSMT flag to false
-------------------------------------------------------


-------------------------------------------------------
Invalid USE_LOOP_REFINEMENT flag in config.txt!
Setting USE_LOOP_REFINEMENT flag to true
-------------------------------------------------------


-------------------------------------------------------
Invalid SLICE_ARRAYS flag in config.txt!
Setting SLICE_ARRAYS flag to true
-------------------------------------------------------


-------------------------------------------------------
Invalid USE_ASSUMES flag in config.txt!
Setting USE_ASSUMES flag to true
-------------------------------------------------------


-------------------------------------------------------
Invalid CHK_BANK_CONFLICTS option in config.txt!
Setting CHK_BANK_CONFLICTS option to false
-------------------------------------------------------

Debug level (verbosity) set to 0


Processing function: kernel

FunctionCall: assume(((blockDim.x) ==(256)))
Assuming bdim.x == 256

FunctionCall: assume(((gridDim.x) ==(64)))
Assuming gdim.x == 64

Binary OP: sdata[tid] =((i < n)?(g_idata[i]) : 0)

FunctionCall: __syncthreads()
unsatisfiable
containBarrierFlag = 1
incrExpr = s *=(2)
------------- NON Linear incrExpr
rangeExpr = ((!1^s0 >= 1) && (!1^s0 <= (bdim.x - 1))); substExpr = 

Binary OP: sdata[index] +=(sdata[(index) + s])
Found loop carrying expression, skip!

FunctionCall: __syncthreads()
unsatisfiable

Binary OP: g_odata[blockIdx.x] =(sdata[0])

Reaching the end of the kernel
unsatisfiable


#####################################################################

No races or synchronization errors were found.

Max instance solving time = 0.000682s
Total solving time = 0.00151s

#####################################################################

