status,time,memory,filename,log,data_races
0,0.17,53.83984375,pug/real-world/transposeDiagonal.c,pug/real-world/transposeDiagonal-1.log,drf
0,0.17,54.078125,pug/real-world/transposeDiagonal-drf.c,pug/real-world/transposeDiagonal-drf-1.log,drf
0,0.07,50.140625,pug/synthetic/first-iter.c,pug/synthetic/first-iter-1.log,racy
0,0.48,50.53125,pug/synthetic/first-iter-drf.c,pug/synthetic/first-iter-drf-1.log,racy
0,0.07,50.39453125,pug/synthetic/last-iter.c,pug/synthetic/last-iter-1.log,racy
0,0.07,50.546875,pug/synthetic/last-iter-drf.c,pug/synthetic/last-iter-drf-1.log,drf
0,0.08,50.7890625,pug/synthetic/last-iter-first-iter.c,pug/synthetic/last-iter-first-iter-1.log,racy
0,0.08,50.86328125,pug/synthetic/last-iter-first-iter-drf.c,pug/synthetic/last-iter-first-iter-drf-1.log,racy
0,0.06,49.9375,pug/synthetic/read-index-racy.c,pug/synthetic/read-index-racy-1.log,racy
0,0.07,49.43359375,pug/synthetic/read-index.c,pug/synthetic/read-index-1.log,racy
