"/artifact/datasets/gpuverify-cav14/pug/CUDA50/5_Simulations/oceanFFT/generateSpectrumKernel.c", line 79: warning: 
          attribute "always_inline" ignored
  __device__ static __attribute__((always_inline)) float2 conjugate(float2 arg);
                                   ^

"/artifact/datasets/gpuverify-cav14/pug/CUDA50/5_Simulations/oceanFFT/generateSpectrumKernel.c", line 79: warning: 
          type qualifier on return type is meaningless
  __device__ static __attribute__((always_inline)) float2 conjugate(float2 arg);
                                                          ^

"/artifact/datasets/gpuverify-cav14/pug/CUDA50/5_Simulations/oceanFFT/generateSpectrumKernel.c", line 80: warning: 
          attribute "always_inline" ignored
  __device__ static __attribute__((always_inline)) float2 complex_exp(float arg);
                                   ^

"/artifact/datasets/gpuverify-cav14/pug/CUDA50/5_Simulations/oceanFFT/generateSpectrumKernel.c", line 80: warning: 
          type qualifier on return type is meaningless
  __device__ static __attribute__((always_inline)) float2 complex_exp(float arg);
                                                          ^

"/artifact/datasets/gpuverify-cav14/pug/CUDA50/5_Simulations/oceanFFT/generateSpectrumKernel.c", line 81: warning: 
          attribute "always_inline" ignored
  __device__ static __attribute__((always_inline)) float2 complex_add(float2 a, float2 b);
                                   ^

"/artifact/datasets/gpuverify-cav14/pug/CUDA50/5_Simulations/oceanFFT/generateSpectrumKernel.c", line 81: warning: 
          type qualifier on return type is meaningless
  __device__ static __attribute__((always_inline)) float2 complex_add(float2 a, float2 b);
                                                          ^

"/artifact/datasets/gpuverify-cav14/pug/CUDA50/5_Simulations/oceanFFT/generateSpectrumKernel.c", line 82: warning: 
          attribute "always_inline" ignored
  __device__ static __attribute__((always_inline)) float2 complex_mult(float2 ab, float2 cd);
                                   ^

"/artifact/datasets/gpuverify-cav14/pug/CUDA50/5_Simulations/oceanFFT/generateSpectrumKernel.c", line 82: warning: 
          type qualifier on return type is meaningless
  __device__ static __attribute__((always_inline)) float2 complex_mult(float2 ab, float2 cd);
                                                          ^

"/artifact/datasets/gpuverify-cav14/pug/CUDA50/5_Simulations/oceanFFT/generateSpectrumKernel.c", line 83: warning: 
          attribute "always_inline" ignored
  __device__ static __attribute__((always_inline))
                                   ^

"/artifact/datasets/gpuverify-cav14/pug/CUDA50/5_Simulations/oceanFFT/generateSpectrumKernel.c", line 84: warning: 
          type qualifier on return type is meaningless
  float2 conjugate(float2 arg)
         ^

"/artifact/datasets/gpuverify-cav14/pug/CUDA50/5_Simulations/oceanFFT/generateSpectrumKernel.c", line 86: error: 
          return value type does not match the function type
      return make_float2(arg.x, -arg.y);
             ^

"/artifact/datasets/gpuverify-cav14/pug/CUDA50/5_Simulations/oceanFFT/generateSpectrumKernel.c", line 88: warning: 
          attribute "always_inline" ignored
  __device__ static __attribute__((always_inline))
                                   ^

"/artifact/datasets/gpuverify-cav14/pug/CUDA50/5_Simulations/oceanFFT/generateSpectrumKernel.c", line 89: warning: 
          type qualifier on return type is meaningless
  float2 complex_exp(float arg)
         ^

"/artifact/datasets/gpuverify-cav14/pug/CUDA50/5_Simulations/oceanFFT/generateSpectrumKernel.c", line 91: error: 
          return value type does not match the function type
      return make_float2(cosf(arg), sinf(arg));
             ^

"/artifact/datasets/gpuverify-cav14/pug/CUDA50/5_Simulations/oceanFFT/generateSpectrumKernel.c", line 93: warning: 
          attribute "always_inline" ignored
  __device__ static __attribute__((always_inline))
                                   ^

"/artifact/datasets/gpuverify-cav14/pug/CUDA50/5_Simulations/oceanFFT/generateSpectrumKernel.c", line 94: warning: 
          type qualifier on return type is meaningless
  float2 complex_add(float2 a, float2 b)
         ^

"/artifact/datasets/gpuverify-cav14/pug/CUDA50/5_Simulations/oceanFFT/generateSpectrumKernel.c", line 96: error: 
          return value type does not match the function type
      return make_float2(a.x + b.x, a.y + b.y);
             ^

"/artifact/datasets/gpuverify-cav14/pug/CUDA50/5_Simulations/oceanFFT/generateSpectrumKernel.c", line 98: warning: 
          attribute "always_inline" ignored
  __device__ static __attribute__((always_inline))
                                   ^

"/artifact/datasets/gpuverify-cav14/pug/CUDA50/5_Simulations/oceanFFT/generateSpectrumKernel.c", line 99: warning: 
          type qualifier on return type is meaningless
  float2 complex_mult(float2 ab, float2 cd)
         ^

"/artifact/datasets/gpuverify-cav14/pug/CUDA50/5_Simulations/oceanFFT/generateSpectrumKernel.c", line 101: error: 
          return value type does not match the function type
      return make_float2(ab.x * cd.x - ab.y * cd.y, ab.x * cd.y + ab.y * cd.x);
             ^

"/artifact/datasets/gpuverify-cav14/pug/CUDA50/5_Simulations/oceanFFT/generateSpectrumKernel.c", line 149: error: 
          identifier "CUDART_PI_F" is undefined
      k.x = (-(int)out_width / 2.0f + x) * (2.0f * CUDART_PI_F / patchSize);
                                                   ^

"/artifact/datasets/gpuverify-cav14/pug/CUDA50/5_Simulations/oceanFFT/generateSpectrumKernel.c", line 108: warning: 
          function "kernel" was declared but never referenced
  __global__ void kernel (float2* h0, float2* ht, unsigned int in_width,unsigned int out_width,unsigned int out_height,float t,float patchSize) {
                  ^

terminate called after throwing an instance of 'rose_exception'
  what():  Errors in Processing: (frontend_failed)
/artifact/tools/pug-v0.2_x64/pug: line 3: 12041 Aborted                 (core dumped) LD_LIBRARY_PATH="$PREFIX/lib" "$PREFIX/bin/pug" "$@"
