d_simpleRecursive_rgba.opt.bc: warning: Assuming the arguments 'id', 'od' of 'kernel' on line 12 of d_simpleRecursive_rgba.cu to be non-aliased; please consider adding a restrict qualifier to these arguments

d_simpleRecursive_rgba.cu: error: possible write-read race on od[0]:

Read by thread 0 in thread block 0 (global id 0), d_simpleRecursive_rgba.cu:48:56:
  od[x + y * w] = rgbaFloatToInt((rgbaIntToFloat(od[x + y * w]) + yc)*0.5f);

Write by thread 1 in thread block 0 (global id 1), d_simpleRecursive_rgba.cu:48:23:
  od[x + y * w] = rgbaFloatToInt((rgbaIntToFloat(od[x + y * w]) + yc)*0.5f);

Bitwise values of parameters of 'kernel':
 w = 512
 h = 1073741825
 a = 0


d_simpleRecursive_rgba.cu: error: possible read-write race on od[0]:

Write by thread 0 in thread block 0 (global id 0), d_simpleRecursive_rgba.cu:48:23:
  od[x + y * w] = rgbaFloatToInt((rgbaIntToFloat(od[x + y * w]) + yc)*0.5f);

Read by thread 1 in thread block 0 (global id 1), d_simpleRecursive_rgba.cu:48:56:
  od[x + y * w] = rgbaFloatToInt((rgbaIntToFloat(od[x + y * w]) + yc)*0.5f);

Bitwise values of parameters of 'kernel':
 w = 512
 h = 1073741825
 a = 0

GPUVerify kernel analyser finished with 0 verified, 2 errors
