transposeCoarseGrained.opt.bc: warning: Assuming the arguments 'odata', 'idata' of 'kernel' on line 12 of transposeCoarseGrained.cu to be non-aliased; please consider adding a restrict qualifier to these arguments
GPUVerify kernel analyser finished with 1 verified, 0 errors
Verified: transposeCoarseGrained.cu
- no data races within thread blocks
- no barrier divergence
- no assertion failures
(but absolutely no warranty provided)
