transposeCoalesced.opt.bc: warning: Assuming the arguments 'odata', 'idata' of 'kernel' on line 12 of transposeCoalesced.cu to be non-aliased; please consider adding a restrict qualifier to these arguments

transposeCoalesced.cu: error: possible write-write race on odata[411116402]:

Write by thread (2, 0) in thread block (34, 5) (global id (546, 80)), transposeCoalesced.cu:43:43:
  odata[index_out+i*height] = tile[threadIdx.x][threadIdx.y+i]; /*threadIdx.x*TILE_DIM(16) + threadIdx.y + i*/

Write by thread (9, 1) in thread block (34, 5) (global id (553, 81)), transposeCoalesced.cu:43:43:
  odata[index_out+i*height] = tile[threadIdx.x][threadIdx.y+i]; /*threadIdx.x*TILE_DIM(16) + threadIdx.y + i*/

Bitwise values of parameters of 'kernel':
 width = 404404871
 height = 8650889
 nreps = 1


transposeCoalesced.cu: error: possible read-write race on tile[0][4]:

Write by thread (4, 0) in thread block (0, 0) (global id (4, 0)), transposeCoalesced.cu:36:50:
  tile[threadIdx.y+i][threadIdx.x] = idata[index_in+i*width];

Read by thread (0, 4) in thread block (0, 0) (global id (0, 4)), transposeCoalesced.cu:43:45:
  odata[index_out+i*height] = tile[threadIdx.x][threadIdx.y+i]; /*threadIdx.x*TILE_DIM(16) + threadIdx.y + i*/

Bitwise values of parameters of 'kernel':
 width = 1073743936
 height = 8192
 nreps = 4

GPUVerify kernel analyser finished with 0 verified, 2 errors
