updateHeightmapKernel.opt.bc: warning: Assuming the arguments 'heightMap', 'ht' of 'kernel' on line 11 of updateHeightmapKernel.cu to be non-aliased; please consider adding a restrict qualifier to these arguments
GPUVerify kernel analyser finished with 1 verified, 0 errors
Verified: updateHeightmapKernel.cu
- no data races within thread blocks
- no barrier divergence
- no assertion failures
(but absolutely no warranty provided)
