status,time,memory,filename,log
0,1.07,41.18359375,gklee/ifs-1.cu,logs/simulee-ifs-1.log
0,1.07,41.09375,gklee/ifs-1.cu,logs/simulee-ifs-2.log
0,1.07,41.23046875,gklee/ifs-2.cu,logs/simulee-ifs-3.log
0,1.06,41.2890625,gklee/ifs-2.cu,logs/simulee-ifs-4.log
0,1.08,41.18359375,gklee/ifs-3.cu,logs/simulee-ifs-5.log
0,1.08,41.1875,gklee/ifs-3.cu,logs/simulee-ifs-6.log
0,1.07,41.28515625,gklee/ifs-4.cu,logs/simulee-ifs-7.log
0,1.08,41.23828125,gklee/ifs-4.cu,logs/simulee-ifs-8.log
0,1.07,41.2734375,gklee/ifs-5.cu,logs/simulee-ifs-9.log
0,1.07,41.23046875,gklee/ifs-5.cu,logs/simulee-ifs-10.log
0,1.07,41.12109375,gklee/ifs-6.cu,logs/simulee-ifs-11.log
0,1.07,41.26171875,gklee/ifs-6.cu,logs/simulee-ifs-12.log
0,1.08,41.2578125,gklee/ifs-7.cu,logs/simulee-ifs-13.log
0,1.06,41.2578125,gklee/ifs-7.cu,logs/simulee-ifs-14.log
0,1.08,41.3046875,gklee/ifs-8.cu,logs/simulee-ifs-15.log
0,1.07,41.265625,gklee/ifs-8.cu,logs/simulee-ifs-16.log
0,1.07,41.21875,gklee/ifs-9.cu,logs/simulee-ifs-17.log
0,1.07,41.2578125,gklee/ifs-9.cu,logs/simulee-ifs-18.log
0,1.07,41.27734375,gklee/ifs-10.cu,logs/simulee-ifs-19.log
0,1.07,41.32421875,gklee/ifs-10.cu,logs/simulee-ifs-20.log
0,1.06,41.2890625,gklee/ifs-11.cu,logs/simulee-ifs-21.log
0,1.08,41.19921875,gklee/ifs-11.cu,logs/simulee-ifs-22.log
0,1.07,41.30859375,gklee/ifs-12.cu,logs/simulee-ifs-23.log
0,1.06,41.3046875,gklee/ifs-12.cu,logs/simulee-ifs-24.log
0,1.08,41.3203125,gklee/ifs-13.cu,logs/simulee-ifs-25.log
0,1.06,41.32421875,gklee/ifs-13.cu,logs/simulee-ifs-26.log
0,1.07,41.25,gklee/ifs-14.cu,logs/simulee-ifs-27.log
0,1.06,41.33203125,gklee/ifs-14.cu,logs/simulee-ifs-28.log
0,1.08,41.25390625,gklee/ifs-15.cu,logs/simulee-ifs-29.log
0,1.08,41.30859375,gklee/ifs-15.cu,logs/simulee-ifs-30.log
0,1.07,41.30078125,gklee/ifs-16.cu,logs/simulee-ifs-31.log
0,1.08,41.17578125,gklee/ifs-16.cu,logs/simulee-ifs-32.log
0,1.06,41.3203125,gklee/ifs-17.cu,logs/simulee-ifs-33.log
0,1.07,41.234375,gklee/ifs-17.cu,logs/simulee-ifs-34.log
0,1.07,41.3984375,gklee/ifs-18.cu,logs/simulee-ifs-35.log
0,1.06,41.29296875,gklee/ifs-18.cu,logs/simulee-ifs-36.log
0,1.07,41.21484375,gklee/ifs-19.cu,logs/simulee-ifs-37.log
0,1.07,41.20703125,gklee/ifs-19.cu,logs/simulee-ifs-38.log
0,1.07,41.37109375,gklee/ifs-20.cu,logs/simulee-ifs-39.log
0,1.08,41.2734375,gklee/ifs-20.cu,logs/simulee-ifs-40.log
0,1.07,41.3671875,gklee/ifs-21.cu,logs/simulee-ifs-41.log
0,1.08,41.390625,gklee/ifs-21.cu,logs/simulee-ifs-42.log
0,1.08,41.2265625,gklee/ifs-22.cu,logs/simulee-ifs-43.log
0,1.07,41.21875,gklee/ifs-22.cu,logs/simulee-ifs-44.log
0,1.09,41.4140625,gklee/ifs-23.cu,logs/simulee-ifs-45.log
0,1.08,41.34765625,gklee/ifs-23.cu,logs/simulee-ifs-46.log
0,1.07,41.37109375,gklee/ifs-24.cu,logs/simulee-ifs-47.log
0,1.07,41.31640625,gklee/ifs-24.cu,logs/simulee-ifs-48.log
0,1.07,41.35546875,gklee/ifs-25.cu,logs/simulee-ifs-49.log
0,1.08,41.2890625,gklee/ifs-25.cu,logs/simulee-ifs-50.log
0,1.07,41.29296875,gklee/ifs-26.cu,logs/simulee-ifs-51.log
0,1.06,41.23046875,gklee/ifs-26.cu,logs/simulee-ifs-52.log
0,1.07,41.3671875,gklee/ifs-27.cu,logs/simulee-ifs-53.log
0,1.07,41.359375,gklee/ifs-27.cu,logs/simulee-ifs-54.log
0,1.08,41.3828125,gklee/ifs-28.cu,logs/simulee-ifs-55.log
0,1.07,41.40234375,gklee/ifs-28.cu,logs/simulee-ifs-56.log
0,1.07,41.2734375,gklee/ifs-29.cu,logs/simulee-ifs-57.log
0,1.07,41.44140625,gklee/ifs-29.cu,logs/simulee-ifs-58.log
0,1.07,41.3125,gklee/ifs-30.cu,logs/simulee-ifs-59.log
0,1.07,41.41015625,gklee/ifs-30.cu,logs/simulee-ifs-60.log
0,1.06,41.38671875,gklee/ifs-31.cu,logs/simulee-ifs-61.log
0,1.07,41.32421875,gklee/ifs-31.cu,logs/simulee-ifs-62.log
0,1.08,41.421875,gklee/ifs-32.cu,logs/simulee-ifs-63.log
0,1.07,41.35546875,gklee/ifs-32.cu,logs/simulee-ifs-64.log
0,1.07,41.2734375,gklee/ifs-33.cu,logs/simulee-ifs-65.log
0,1.09,41.3984375,gklee/ifs-33.cu,logs/simulee-ifs-66.log
0,1.09,41.44140625,gklee/ifs-34.cu,logs/simulee-ifs-67.log
0,1.07,41.33984375,gklee/ifs-34.cu,logs/simulee-ifs-68.log
0,1.08,41.47265625,gklee/ifs-35.cu,logs/simulee-ifs-69.log
0,1.08,41.34375,gklee/ifs-35.cu,logs/simulee-ifs-70.log
0,1.08,41.2890625,gklee/ifs-36.cu,logs/simulee-ifs-71.log
0,1.08,41.4375,gklee/ifs-36.cu,logs/simulee-ifs-72.log
0,1.07,41.29296875,gklee/ifs-37.cu,logs/simulee-ifs-73.log
0,1.07,41.29296875,gklee/ifs-37.cu,logs/simulee-ifs-74.log
0,1.08,41.4453125,gklee/ifs-38.cu,logs/simulee-ifs-75.log
0,1.08,41.421875,gklee/ifs-38.cu,logs/simulee-ifs-76.log
0,1.07,41.296875,gklee/ifs-39.cu,logs/simulee-ifs-77.log
0,1.07,41.4375,gklee/ifs-39.cu,logs/simulee-ifs-78.log
0,1.08,41.44921875,gklee/ifs-40.cu,logs/simulee-ifs-79.log
0,1.08,41.46484375,gklee/ifs-40.cu,logs/simulee-ifs-80.log
0,1.09,41.484375,gklee/ifs-41.cu,logs/simulee-ifs-81.log
0,1.07,41.4453125,gklee/ifs-41.cu,logs/simulee-ifs-82.log
0,1.07,41.48828125,gklee/ifs-42.cu,logs/simulee-ifs-83.log
0,1.07,41.36328125,gklee/ifs-42.cu,logs/simulee-ifs-84.log
0,1.07,41.50390625,gklee/ifs-43.cu,logs/simulee-ifs-85.log
0,1.06,41.48046875,gklee/ifs-43.cu,logs/simulee-ifs-86.log
0,1.07,41.484375,gklee/ifs-44.cu,logs/simulee-ifs-87.log
0,1.08,41.36328125,gklee/ifs-44.cu,logs/simulee-ifs-88.log
0,1.07,41.4921875,gklee/ifs-45.cu,logs/simulee-ifs-89.log
0,1.08,41.51953125,gklee/ifs-45.cu,logs/simulee-ifs-90.log
0,1.06,41.390625,gklee/ifs-46.cu,logs/simulee-ifs-91.log
0,1.08,41.5,gklee/ifs-46.cu,logs/simulee-ifs-92.log
0,1.08,41.53515625,gklee/ifs-47.cu,logs/simulee-ifs-93.log
0,1.07,41.4375,gklee/ifs-47.cu,logs/simulee-ifs-94.log
0,1.08,41.5546875,gklee/ifs-48.cu,logs/simulee-ifs-95.log
0,1.08,41.4609375,gklee/ifs-48.cu,logs/simulee-ifs-96.log
0,1.08,41.53125,gklee/ifs-49.cu,logs/simulee-ifs-97.log
0,1.09,41.51953125,gklee/ifs-49.cu,logs/simulee-ifs-98.log
0,1.07,41.390625,gklee/ifs-50.cu,logs/simulee-ifs-99.log
0,1.08,41.54296875,gklee/ifs-50.cu,logs/simulee-ifs-100.log
