status,time,memory,filename,log
0,0.62,41.7890625,gklee/barriers-1.cu,logs/gklee-barriers-1.log
0,0.59,41.62890625,gklee/barriers-1.cu,logs/gklee-barriers-2.log
0,0.59,41.75,gklee/barriers-1.cu,logs/gklee-barriers-3.log
0,0.6,41.6875,gklee/barriers-1.cu,logs/gklee-barriers-4.log
0,0.65,41.7890625,gklee/barriers-1.cu,logs/gklee-barriers-5.log
0,0.61,41.70703125,gklee/barriers-2.cu,logs/gklee-barriers-6.log
0,0.61,41.8125,gklee/barriers-2.cu,logs/gklee-barriers-7.log
0,0.61,41.6953125,gklee/barriers-2.cu,logs/gklee-barriers-8.log
0,0.64,41.625,gklee/barriers-2.cu,logs/gklee-barriers-9.log
0,0.65,41.7890625,gklee/barriers-2.cu,logs/gklee-barriers-10.log
0,0.66,41.703125,gklee/barriers-3.cu,logs/gklee-barriers-11.log
0,0.64,41.76953125,gklee/barriers-3.cu,logs/gklee-barriers-12.log
0,0.66,41.6953125,gklee/barriers-3.cu,logs/gklee-barriers-13.log
0,0.62,41.6328125,gklee/barriers-3.cu,logs/gklee-barriers-14.log
0,0.66,41.796875,gklee/barriers-3.cu,logs/gklee-barriers-15.log
0,0.62,41.8046875,gklee/barriers-4.cu,logs/gklee-barriers-16.log
0,0.62,41.703125,gklee/barriers-4.cu,logs/gklee-barriers-17.log
0,0.66,41.7109375,gklee/barriers-4.cu,logs/gklee-barriers-18.log
0,0.66,41.7265625,gklee/barriers-4.cu,logs/gklee-barriers-19.log
0,0.65,41.8203125,gklee/barriers-4.cu,logs/gklee-barriers-20.log
0,0.67,41.72265625,gklee/barriers-5.cu,logs/gklee-barriers-21.log
0,0.67,41.703125,gklee/barriers-5.cu,logs/gklee-barriers-22.log
0,0.67,41.7109375,gklee/barriers-5.cu,logs/gklee-barriers-23.log
0,0.67,41.7734375,gklee/barriers-5.cu,logs/gklee-barriers-24.log
0,0.68,41.703125,gklee/barriers-5.cu,logs/gklee-barriers-25.log
0,0.67,41.7109375,gklee/barriers-6.cu,logs/gklee-barriers-26.log
0,0.67,41.78515625,gklee/barriers-6.cu,logs/gklee-barriers-27.log
0,0.65,41.83984375,gklee/barriers-6.cu,logs/gklee-barriers-28.log
0,0.66,41.7109375,gklee/barriers-6.cu,logs/gklee-barriers-29.log
0,0.65,41.8046875,gklee/barriers-6.cu,logs/gklee-barriers-30.log
0,0.64,41.6640625,gklee/barriers-7.cu,logs/gklee-barriers-31.log
0,0.65,41.83984375,gklee/barriers-7.cu,logs/gklee-barriers-32.log
0,0.67,41.66015625,gklee/barriers-7.cu,logs/gklee-barriers-33.log
0,0.69,41.81640625,gklee/barriers-7.cu,logs/gklee-barriers-34.log
0,0.65,41.6640625,gklee/barriers-7.cu,logs/gklee-barriers-35.log
0,0.66,41.84765625,gklee/barriers-8.cu,logs/gklee-barriers-36.log
0,0.66,41.796875,gklee/barriers-8.cu,logs/gklee-barriers-37.log
0,0.68,41.7421875,gklee/barriers-8.cu,logs/gklee-barriers-38.log
0,0.67,41.7421875,gklee/barriers-8.cu,logs/gklee-barriers-39.log
0,0.67,41.7421875,gklee/barriers-8.cu,logs/gklee-barriers-40.log
0,0.68,41.79296875,gklee/barriers-9.cu,logs/gklee-barriers-41.log
0,0.65,41.79296875,gklee/barriers-9.cu,logs/gklee-barriers-42.log
0,0.67,41.83984375,gklee/barriers-9.cu,logs/gklee-barriers-43.log
0,0.66,41.83203125,gklee/barriers-9.cu,logs/gklee-barriers-44.log
0,0.66,41.73828125,gklee/barriers-9.cu,logs/gklee-barriers-45.log
0,0.68,41.66796875,gklee/barriers-10.cu,logs/gklee-barriers-46.log
0,0.68,41.6796875,gklee/barriers-10.cu,logs/gklee-barriers-47.log
0,0.68,41.8359375,gklee/barriers-10.cu,logs/gklee-barriers-48.log
0,0.67,41.85546875,gklee/barriers-10.cu,logs/gklee-barriers-49.log
0,0.68,41.828125,gklee/barriers-10.cu,logs/gklee-barriers-50.log
0,0.7,41.83203125,gklee/barriers-11.cu,logs/gklee-barriers-51.log
0,0.69,41.68359375,gklee/barriers-11.cu,logs/gklee-barriers-52.log
0,0.7,41.8046875,gklee/barriers-11.cu,logs/gklee-barriers-53.log
0,0.69,41.84375,gklee/barriers-11.cu,logs/gklee-barriers-54.log
0,0.7,41.75390625,gklee/barriers-11.cu,logs/gklee-barriers-55.log
0,0.69,41.86328125,gklee/barriers-12.cu,logs/gklee-barriers-56.log
0,0.68,41.83984375,gklee/barriers-12.cu,logs/gklee-barriers-57.log
0,0.68,41.8125,gklee/barriers-12.cu,logs/gklee-barriers-58.log
0,0.69,41.67578125,gklee/barriers-12.cu,logs/gklee-barriers-59.log
0,0.71,41.8671875,gklee/barriers-12.cu,logs/gklee-barriers-60.log
0,0.69,41.87109375,gklee/barriers-13.cu,logs/gklee-barriers-61.log
0,0.74,41.8203125,gklee/barriers-13.cu,logs/gklee-barriers-62.log
0,0.72,41.86328125,gklee/barriers-13.cu,logs/gklee-barriers-63.log
0,0.71,41.85546875,gklee/barriers-13.cu,logs/gklee-barriers-64.log
0,0.71,41.80859375,gklee/barriers-13.cu,logs/gklee-barriers-65.log
0,0.72,41.6875,gklee/barriers-14.cu,logs/gklee-barriers-66.log
0,0.74,41.8203125,gklee/barriers-14.cu,logs/gklee-barriers-67.log
0,0.74,41.875,gklee/barriers-14.cu,logs/gklee-barriers-68.log
0,0.7,41.87890625,gklee/barriers-14.cu,logs/gklee-barriers-69.log
0,0.69,41.69140625,gklee/barriers-14.cu,logs/gklee-barriers-70.log
0,0.71,41.8203125,gklee/barriers-15.cu,logs/gklee-barriers-71.log
0,0.71,41.77734375,gklee/barriers-15.cu,logs/gklee-barriers-72.log
0,0.7,41.8828125,gklee/barriers-15.cu,logs/gklee-barriers-73.log
0,0.7,41.8828125,gklee/barriers-15.cu,logs/gklee-barriers-74.log
0,0.7,41.859375,gklee/barriers-15.cu,logs/gklee-barriers-75.log
0,0.71,41.859375,gklee/barriers-16.cu,logs/gklee-barriers-76.log
0,0.72,41.8515625,gklee/barriers-16.cu,logs/gklee-barriers-77.log
0,0.76,41.765625,gklee/barriers-16.cu,logs/gklee-barriers-78.log
0,0.71,41.7109375,gklee/barriers-16.cu,logs/gklee-barriers-79.log
0,0.72,41.7734375,gklee/barriers-16.cu,logs/gklee-barriers-80.log
0,0.72,41.82421875,gklee/barriers-17.cu,logs/gklee-barriers-81.log
0,0.73,41.77734375,gklee/barriers-17.cu,logs/gklee-barriers-82.log
0,0.76,41.78515625,gklee/barriers-17.cu,logs/gklee-barriers-83.log
0,0.72,41.796875,gklee/barriers-17.cu,logs/gklee-barriers-84.log
0,0.71,41.71484375,gklee/barriers-17.cu,logs/gklee-barriers-85.log
0,0.73,41.875,gklee/barriers-18.cu,logs/gklee-barriers-86.log
0,0.75,41.71875,gklee/barriers-18.cu,logs/gklee-barriers-87.log
0,0.77,41.85546875,gklee/barriers-18.cu,logs/gklee-barriers-88.log
0,0.77,41.8515625,gklee/barriers-18.cu,logs/gklee-barriers-89.log
0,0.72,41.72265625,gklee/barriers-18.cu,logs/gklee-barriers-90.log
0,0.78,41.80859375,gklee/barriers-19.cu,logs/gklee-barriers-91.log
0,0.77,41.890625,gklee/barriers-19.cu,logs/gklee-barriers-92.log
0,0.73,41.91015625,gklee/barriers-19.cu,logs/gklee-barriers-93.log
0,0.73,41.890625,gklee/barriers-19.cu,logs/gklee-barriers-94.log
0,0.78,41.8984375,gklee/barriers-19.cu,logs/gklee-barriers-95.log
0,0.73,41.79296875,gklee/barriers-20.cu,logs/gklee-barriers-96.log
0,0.73,41.89453125,gklee/barriers-20.cu,logs/gklee-barriers-97.log
0,0.78,41.7265625,gklee/barriers-20.cu,logs/gklee-barriers-98.log
0,0.74,41.8984375,gklee/barriers-20.cu,logs/gklee-barriers-99.log
0,0.78,41.84765625,gklee/barriers-20.cu,logs/gklee-barriers-100.log
0,0.74,41.6953125,gklee/barriers-21.cu,logs/gklee-barriers-101.log
0,0.74,41.85546875,gklee/barriers-21.cu,logs/gklee-barriers-102.log
0,0.74,41.8671875,gklee/barriers-21.cu,logs/gklee-barriers-103.log
0,0.79,41.921875,gklee/barriers-21.cu,logs/gklee-barriers-104.log
0,0.76,41.73046875,gklee/barriers-21.cu,logs/gklee-barriers-105.log
0,0.8,41.8671875,gklee/barriers-22.cu,logs/gklee-barriers-106.log
0,0.75,41.90625,gklee/barriers-22.cu,logs/gklee-barriers-107.log
0,0.76,41.9296875,gklee/barriers-22.cu,logs/gklee-barriers-108.log
0,0.8,41.92578125,gklee/barriers-22.cu,logs/gklee-barriers-109.log
0,0.74,41.90625,gklee/barriers-22.cu,logs/gklee-barriers-110.log
0,0.8,41.82421875,gklee/barriers-23.cu,logs/gklee-barriers-111.log
0,0.8,41.82421875,gklee/barriers-23.cu,logs/gklee-barriers-112.log
0,0.8,41.8046875,gklee/barriers-23.cu,logs/gklee-barriers-113.log
0,0.76,41.75390625,gklee/barriers-23.cu,logs/gklee-barriers-114.log
0,0.75,41.82421875,gklee/barriers-23.cu,logs/gklee-barriers-115.log
0,0.77,41.87890625,gklee/barriers-24.cu,logs/gklee-barriers-116.log
0,0.81,41.8984375,gklee/barriers-24.cu,logs/gklee-barriers-117.log
0,0.77,41.93359375,gklee/barriers-24.cu,logs/gklee-barriers-118.log
0,0.81,41.8984375,gklee/barriers-24.cu,logs/gklee-barriers-119.log
0,0.8,41.9296875,gklee/barriers-24.cu,logs/gklee-barriers-120.log
0,0.81,41.93359375,gklee/barriers-25.cu,logs/gklee-barriers-121.log
0,0.82,41.87109375,gklee/barriers-25.cu,logs/gklee-barriers-122.log
0,0.81,41.75,gklee/barriers-25.cu,logs/gklee-barriers-123.log
0,0.77,41.91796875,gklee/barriers-25.cu,logs/gklee-barriers-124.log
0,0.81,41.87890625,gklee/barriers-25.cu,logs/gklee-barriers-125.log
0,0.77,41.81640625,gklee/barriers-26.cu,logs/gklee-barriers-126.log
0,0.82,41.87890625,gklee/barriers-26.cu,logs/gklee-barriers-127.log
0,0.82,41.90625,gklee/barriers-26.cu,logs/gklee-barriers-128.log
0,0.79,41.75,gklee/barriers-26.cu,logs/gklee-barriers-129.log
0,0.8,41.90234375,gklee/barriers-26.cu,logs/gklee-barriers-130.log
0,0.81,41.87890625,gklee/barriers-27.cu,logs/gklee-barriers-131.log
0,0.83,41.765625,gklee/barriers-27.cu,logs/gklee-barriers-132.log
0,0.8,41.91796875,gklee/barriers-27.cu,logs/gklee-barriers-133.log
0,0.83,41.8828125,gklee/barriers-27.cu,logs/gklee-barriers-134.log
0,0.85,41.96875,gklee/barriers-27.cu,logs/gklee-barriers-135.log
0,0.8,41.7578125,gklee/barriers-28.cu,logs/gklee-barriers-136.log
0,0.81,41.921875,gklee/barriers-28.cu,logs/gklee-barriers-137.log
0,0.82,41.9453125,gklee/barriers-28.cu,logs/gklee-barriers-138.log
0,0.81,41.9453125,gklee/barriers-28.cu,logs/gklee-barriers-139.log
0,0.81,41.76171875,gklee/barriers-28.cu,logs/gklee-barriers-140.log
0,0.83,41.83984375,gklee/barriers-29.cu,logs/gklee-barriers-141.log
0,0.82,41.9375,gklee/barriers-29.cu,logs/gklee-barriers-142.log
0,0.82,41.83984375,gklee/barriers-29.cu,logs/gklee-barriers-143.log
0,0.87,41.890625,gklee/barriers-29.cu,logs/gklee-barriers-144.log
0,0.82,41.9453125,gklee/barriers-29.cu,logs/gklee-barriers-145.log
0,0.84,41.76953125,gklee/barriers-30.cu,logs/gklee-barriers-146.log
0,0.8,41.7734375,gklee/barriers-30.cu,logs/gklee-barriers-147.log
0,0.84,41.9609375,gklee/barriers-30.cu,logs/gklee-barriers-148.log
0,0.8,41.84765625,gklee/barriers-30.cu,logs/gklee-barriers-149.log
0,0.85,41.89453125,gklee/barriers-30.cu,logs/gklee-barriers-150.log
0,0.81,41.9375,gklee/barriers-31.cu,logs/gklee-barriers-151.log
0,0.8,41.84375,gklee/barriers-31.cu,logs/gklee-barriers-152.log
0,0.86,41.96484375,gklee/barriers-31.cu,logs/gklee-barriers-153.log
0,0.82,41.85546875,gklee/barriers-31.cu,logs/gklee-barriers-154.log
0,0.81,41.90625,gklee/barriers-31.cu,logs/gklee-barriers-155.log
0,0.82,41.94921875,gklee/barriers-32.cu,logs/gklee-barriers-156.log
0,0.86,41.91015625,gklee/barriers-32.cu,logs/gklee-barriers-157.log
0,0.86,41.95703125,gklee/barriers-32.cu,logs/gklee-barriers-158.log
0,0.84,41.859375,gklee/barriers-32.cu,logs/gklee-barriers-159.log
0,0.82,41.96875,gklee/barriers-32.cu,logs/gklee-barriers-160.log
0,0.84,41.9296875,gklee/barriers-33.cu,logs/gklee-barriers-161.log
0,0.84,41.77734375,gklee/barriers-33.cu,logs/gklee-barriers-162.log
0,0.82,41.8359375,gklee/barriers-33.cu,logs/gklee-barriers-163.log
0,0.87,41.92578125,gklee/barriers-33.cu,logs/gklee-barriers-164.log
0,0.83,41.90625,gklee/barriers-33.cu,logs/gklee-barriers-165.log
0,0.82,41.95703125,gklee/barriers-34.cu,logs/gklee-barriers-166.log
0,0.88,41.78125,gklee/barriers-34.cu,logs/gklee-barriers-167.log
0,0.88,41.9140625,gklee/barriers-34.cu,logs/gklee-barriers-168.log
0,0.82,41.9140625,gklee/barriers-34.cu,logs/gklee-barriers-169.log
0,0.87,41.78515625,gklee/barriers-34.cu,logs/gklee-barriers-170.log
0,0.85,41.75,gklee/barriers-35.cu,logs/gklee-barriers-171.log
0,0.87,41.9765625,gklee/barriers-35.cu,logs/gklee-barriers-172.log
0,0.84,41.8671875,gklee/barriers-35.cu,logs/gklee-barriers-173.log
0,0.83,41.91796875,gklee/barriers-35.cu,logs/gklee-barriers-174.log
0,0.88,41.96484375,gklee/barriers-35.cu,logs/gklee-barriers-175.log
0,0.86,41.94140625,gklee/barriers-36.cu,logs/gklee-barriers-176.log
0,0.86,41.85546875,gklee/barriers-36.cu,logs/gklee-barriers-177.log
0,0.89,41.85546875,gklee/barriers-36.cu,logs/gklee-barriers-178.log
0,0.84,41.78515625,gklee/barriers-36.cu,logs/gklee-barriers-179.log
0,0.87,41.91796875,gklee/barriers-36.cu,logs/gklee-barriers-180.log
0,0.84,41.98046875,gklee/barriers-37.cu,logs/gklee-barriers-181.log
0,0.9,41.87109375,gklee/barriers-37.cu,logs/gklee-barriers-182.log
0,0.85,41.80078125,gklee/barriers-37.cu,logs/gklee-barriers-183.log
0,0.89,41.9453125,gklee/barriers-37.cu,logs/gklee-barriers-184.log
0,0.9,41.79296875,gklee/barriers-37.cu,logs/gklee-barriers-185.log
0,0.87,41.875,gklee/barriers-38.cu,logs/gklee-barriers-186.log
0,0.91,41.984375,gklee/barriers-38.cu,logs/gklee-barriers-187.log
0,0.87,41.94921875,gklee/barriers-38.cu,logs/gklee-barriers-188.log
0,0.91,41.94921875,gklee/barriers-38.cu,logs/gklee-barriers-189.log
0,0.9,41.85546875,gklee/barriers-38.cu,logs/gklee-barriers-190.log
0,0.91,41.8125,gklee/barriers-39.cu,logs/gklee-barriers-191.log
0,0.91,41.9296875,gklee/barriers-39.cu,logs/gklee-barriers-192.log
0,0.91,41.87890625,gklee/barriers-39.cu,logs/gklee-barriers-193.log
0,0.87,41.796875,gklee/barriers-39.cu,logs/gklee-barriers-194.log
0,0.9,41.80078125,gklee/barriers-39.cu,logs/gklee-barriers-195.log
0,0.92,41.9609375,gklee/barriers-40.cu,logs/gklee-barriers-196.log
0,0.86,42.0,gklee/barriers-40.cu,logs/gklee-barriers-197.log
0,0.92,41.984375,gklee/barriers-40.cu,logs/gklee-barriers-198.log
0,0.87,41.8359375,gklee/barriers-40.cu,logs/gklee-barriers-199.log
0,0.89,41.953125,gklee/barriers-40.cu,logs/gklee-barriers-200.log
0,0.93,41.9921875,gklee/barriers-41.cu,logs/gklee-barriers-201.log
0,0.89,41.83984375,gklee/barriers-41.cu,logs/gklee-barriers-202.log
0,0.9,41.9921875,gklee/barriers-41.cu,logs/gklee-barriers-203.log
0,0.92,42.00390625,gklee/barriers-41.cu,logs/gklee-barriers-204.log
0,0.93,41.984375,gklee/barriers-41.cu,logs/gklee-barriers-205.log
0,0.9,41.99609375,gklee/barriers-42.cu,logs/gklee-barriers-206.log
0,0.94,41.91015625,gklee/barriers-42.cu,logs/gklee-barriers-207.log
0,0.93,41.84765625,gklee/barriers-42.cu,logs/gklee-barriers-208.log
0,0.9,41.97265625,gklee/barriers-42.cu,logs/gklee-barriers-209.log
0,0.91,42.03125,gklee/barriers-42.cu,logs/gklee-barriers-210.log
0,0.94,41.96875,gklee/barriers-43.cu,logs/gklee-barriers-211.log
0,0.94,42.0078125,gklee/barriers-43.cu,logs/gklee-barriers-212.log
0,0.94,41.8828125,gklee/barriers-43.cu,logs/gklee-barriers-213.log
0,0.91,41.84765625,gklee/barriers-43.cu,logs/gklee-barriers-214.log
0,0.93,41.96875,gklee/barriers-43.cu,logs/gklee-barriers-215.log
0,0.94,41.91015625,gklee/barriers-44.cu,logs/gklee-barriers-216.log
0,0.91,41.8515625,gklee/barriers-44.cu,logs/gklee-barriers-217.log
0,0.92,41.8515625,gklee/barriers-44.cu,logs/gklee-barriers-218.log
0,0.91,41.83984375,gklee/barriers-44.cu,logs/gklee-barriers-219.log
0,0.9,41.921875,gklee/barriers-44.cu,logs/gklee-barriers-220.log
0,0.9,42.03125,gklee/barriers-45.cu,logs/gklee-barriers-221.log
0,0.93,41.9765625,gklee/barriers-45.cu,logs/gklee-barriers-222.log
0,0.93,42.01171875,gklee/barriers-45.cu,logs/gklee-barriers-223.log
0,0.91,42.04296875,gklee/barriers-45.cu,logs/gklee-barriers-224.log
0,0.94,42.04296875,gklee/barriers-45.cu,logs/gklee-barriers-225.log
0,0.92,42.0390625,gklee/barriers-46.cu,logs/gklee-barriers-226.log
0,0.96,42.01171875,gklee/barriers-46.cu,logs/gklee-barriers-227.log
0,0.96,41.8515625,gklee/barriers-46.cu,logs/gklee-barriers-228.log
0,0.94,41.859375,gklee/barriers-46.cu,logs/gklee-barriers-229.log
0,0.96,41.8515625,gklee/barriers-46.cu,logs/gklee-barriers-230.log
0,0.97,41.890625,gklee/barriers-47.cu,logs/gklee-barriers-231.log
0,0.95,42.01171875,gklee/barriers-47.cu,logs/gklee-barriers-232.log
0,0.96,42.0703125,gklee/barriers-47.cu,logs/gklee-barriers-233.log
0,0.92,42.04296875,gklee/barriers-47.cu,logs/gklee-barriers-234.log
0,0.92,42.0390625,gklee/barriers-47.cu,logs/gklee-barriers-235.log
0,0.93,42.03515625,gklee/barriers-48.cu,logs/gklee-barriers-236.log
0,0.97,41.94140625,gklee/barriers-48.cu,logs/gklee-barriers-237.log
0,0.92,42.03515625,gklee/barriers-48.cu,logs/gklee-barriers-238.log
0,0.97,42.0703125,gklee/barriers-48.cu,logs/gklee-barriers-239.log
0,0.98,42.05078125,gklee/barriers-48.cu,logs/gklee-barriers-240.log
0,0.93,41.94921875,gklee/barriers-49.cu,logs/gklee-barriers-241.log
0,0.95,41.94921875,gklee/barriers-49.cu,logs/gklee-barriers-242.log
0,0.93,42.078125,gklee/barriers-49.cu,logs/gklee-barriers-243.log
0,0.93,41.95703125,gklee/barriers-49.cu,logs/gklee-barriers-244.log
0,0.98,41.95703125,gklee/barriers-49.cu,logs/gklee-barriers-245.log
0,0.99,41.97265625,gklee/barriers-50.cu,logs/gklee-barriers-246.log
0,0.99,41.90234375,gklee/barriers-50.cu,logs/gklee-barriers-247.log
0,0.95,42.0234375,gklee/barriers-50.cu,logs/gklee-barriers-248.log
0,0.99,42.0546875,gklee/barriers-50.cu,logs/gklee-barriers-249.log
0,0.99,42.0234375,gklee/barriers-50.cu,logs/gklee-barriers-250.log
