status,time,memory,filename,log
0,1.24,37.84375,gpuverify/nested-loops-1.cu,logs/gpuverify-nested-loops-1.log
0,1.24,38.265625,gpuverify/nested-loops-1.cu,logs/gpuverify-nested-loops-2.log
0,1.28,38.04296875,gpuverify/nested-loops-1.cu,logs/gpuverify-nested-loops-3.log
0,1.2,37.9765625,gpuverify/nested-loops-1.cu,logs/gpuverify-nested-loops-4.log
0,1.2,38.08984375,gpuverify/nested-loops-1.cu,logs/gpuverify-nested-loops-5.log
0,1.4,38.1484375,gpuverify/nested-loops-2.cu,logs/gpuverify-nested-loops-6.log
0,1.37,37.9609375,gpuverify/nested-loops-2.cu,logs/gpuverify-nested-loops-7.log
0,1.32,37.95703125,gpuverify/nested-loops-2.cu,logs/gpuverify-nested-loops-8.log
0,1.41,37.9765625,gpuverify/nested-loops-2.cu,logs/gpuverify-nested-loops-9.log
0,1.3,38.0078125,gpuverify/nested-loops-2.cu,logs/gpuverify-nested-loops-10.log
0,1.4,39.171875,gpuverify/nested-loops-3.cu,logs/gpuverify-nested-loops-11.log
0,1.42,39.3828125,gpuverify/nested-loops-3.cu,logs/gpuverify-nested-loops-12.log
0,1.41,39.26953125,gpuverify/nested-loops-3.cu,logs/gpuverify-nested-loops-13.log
0,1.58,39.37109375,gpuverify/nested-loops-3.cu,logs/gpuverify-nested-loops-14.log
0,1.41,38.82421875,gpuverify/nested-loops-3.cu,logs/gpuverify-nested-loops-15.log
0,1.6,40.15625,gpuverify/nested-loops-4.cu,logs/gpuverify-nested-loops-16.log
0,1.53,40.27734375,gpuverify/nested-loops-4.cu,logs/gpuverify-nested-loops-17.log
0,1.48,39.46484375,gpuverify/nested-loops-4.cu,logs/gpuverify-nested-loops-18.log
0,1.49,39.86328125,gpuverify/nested-loops-4.cu,logs/gpuverify-nested-loops-19.log
0,1.49,39.7265625,gpuverify/nested-loops-4.cu,logs/gpuverify-nested-loops-20.log
0,1.61,41.46875,gpuverify/nested-loops-5.cu,logs/gpuverify-nested-loops-21.log
0,1.57,42.140625,gpuverify/nested-loops-5.cu,logs/gpuverify-nested-loops-22.log
0,1.61,41.640625,gpuverify/nested-loops-5.cu,logs/gpuverify-nested-loops-23.log
0,1.6,41.984375,gpuverify/nested-loops-5.cu,logs/gpuverify-nested-loops-24.log
0,1.69,41.8203125,gpuverify/nested-loops-5.cu,logs/gpuverify-nested-loops-25.log
0,1.68,43.09765625,gpuverify/nested-loops-6.cu,logs/gpuverify-nested-loops-26.log
0,1.72,43.05078125,gpuverify/nested-loops-6.cu,logs/gpuverify-nested-loops-27.log
0,1.68,43.13671875,gpuverify/nested-loops-6.cu,logs/gpuverify-nested-loops-28.log
0,1.76,43.1015625,gpuverify/nested-loops-6.cu,logs/gpuverify-nested-loops-29.log
0,1.64,43.453125,gpuverify/nested-loops-6.cu,logs/gpuverify-nested-loops-30.log
0,2.03,44.9453125,gpuverify/nested-loops-7.cu,logs/gpuverify-nested-loops-31.log
0,1.92,44.81640625,gpuverify/nested-loops-7.cu,logs/gpuverify-nested-loops-32.log
0,1.92,45.12109375,gpuverify/nested-loops-7.cu,logs/gpuverify-nested-loops-33.log
0,2.05,45.01953125,gpuverify/nested-loops-7.cu,logs/gpuverify-nested-loops-34.log
0,1.92,45.12109375,gpuverify/nested-loops-7.cu,logs/gpuverify-nested-loops-35.log
0,2.26,46.1875,gpuverify/nested-loops-8.cu,logs/gpuverify-nested-loops-36.log
0,2.16,45.828125,gpuverify/nested-loops-8.cu,logs/gpuverify-nested-loops-37.log
0,2.16,46.06640625,gpuverify/nested-loops-8.cu,logs/gpuverify-nested-loops-38.log
0,2.21,46.16015625,gpuverify/nested-loops-8.cu,logs/gpuverify-nested-loops-39.log
0,2.64,46.12890625,gpuverify/nested-loops-8.cu,logs/gpuverify-nested-loops-40.log
0,2.64,47.5703125,gpuverify/nested-loops-9.cu,logs/gpuverify-nested-loops-41.log
0,2.48,47.66015625,gpuverify/nested-loops-9.cu,logs/gpuverify-nested-loops-42.log
0,2.48,47.1015625,gpuverify/nested-loops-9.cu,logs/gpuverify-nested-loops-43.log
0,2.44,47.83984375,gpuverify/nested-loops-9.cu,logs/gpuverify-nested-loops-44.log
0,2.73,47.453125,gpuverify/nested-loops-9.cu,logs/gpuverify-nested-loops-45.log
0,3.02,49.77734375,gpuverify/nested-loops-10.cu,logs/gpuverify-nested-loops-46.log
0,2.92,49.828125,gpuverify/nested-loops-10.cu,logs/gpuverify-nested-loops-47.log
0,2.88,50.1484375,gpuverify/nested-loops-10.cu,logs/gpuverify-nested-loops-48.log
0,2.88,49.41015625,gpuverify/nested-loops-10.cu,logs/gpuverify-nested-loops-49.log
0,2.88,49.66015625,gpuverify/nested-loops-10.cu,logs/gpuverify-nested-loops-50.log
0,3.44,52.94921875,gpuverify/nested-loops-11.cu,logs/gpuverify-nested-loops-51.log
0,3.44,52.43359375,gpuverify/nested-loops-11.cu,logs/gpuverify-nested-loops-52.log
0,3.41,52.1796875,gpuverify/nested-loops-11.cu,logs/gpuverify-nested-loops-53.log
0,3.4,52.91796875,gpuverify/nested-loops-11.cu,logs/gpuverify-nested-loops-54.log
0,3.61,52.75,gpuverify/nested-loops-11.cu,logs/gpuverify-nested-loops-55.log
0,3.76,54.0703125,gpuverify/nested-loops-12.cu,logs/gpuverify-nested-loops-56.log
0,3.61,54.05078125,gpuverify/nested-loops-12.cu,logs/gpuverify-nested-loops-57.log
0,3.68,54.28515625,gpuverify/nested-loops-12.cu,logs/gpuverify-nested-loops-58.log
0,3.61,54.2578125,gpuverify/nested-loops-12.cu,logs/gpuverify-nested-loops-59.log
0,3.66,54.03125,gpuverify/nested-loops-12.cu,logs/gpuverify-nested-loops-60.log
0,4.4,52.87109375,gpuverify/nested-loops-13.cu,logs/gpuverify-nested-loops-61.log
0,4.38,52.84375,gpuverify/nested-loops-13.cu,logs/gpuverify-nested-loops-62.log
0,4.48,52.61328125,gpuverify/nested-loops-13.cu,logs/gpuverify-nested-loops-63.log
0,4.38,52.640625,gpuverify/nested-loops-13.cu,logs/gpuverify-nested-loops-64.log
0,4.44,52.515625,gpuverify/nested-loops-13.cu,logs/gpuverify-nested-loops-65.log
0,4.86,52.68359375,gpuverify/nested-loops-14.cu,logs/gpuverify-nested-loops-66.log
0,4.82,52.6171875,gpuverify/nested-loops-14.cu,logs/gpuverify-nested-loops-67.log
0,4.7,52.8203125,gpuverify/nested-loops-14.cu,logs/gpuverify-nested-loops-68.log
0,5.02,52.53515625,gpuverify/nested-loops-14.cu,logs/gpuverify-nested-loops-69.log
0,4.77,52.33984375,gpuverify/nested-loops-14.cu,logs/gpuverify-nested-loops-70.log
0,5.58,54.4921875,gpuverify/nested-loops-15.cu,logs/gpuverify-nested-loops-71.log
0,5.66,53.65625,gpuverify/nested-loops-15.cu,logs/gpuverify-nested-loops-72.log
0,5.5,53.921875,gpuverify/nested-loops-15.cu,logs/gpuverify-nested-loops-73.log
0,5.55,54.22265625,gpuverify/nested-loops-15.cu,logs/gpuverify-nested-loops-74.log
0,5.7,54.1953125,gpuverify/nested-loops-15.cu,logs/gpuverify-nested-loops-75.log
0,6.83,57.39453125,gpuverify/nested-loops-16.cu,logs/gpuverify-nested-loops-76.log
0,6.63,57.5546875,gpuverify/nested-loops-16.cu,logs/gpuverify-nested-loops-77.log
0,6.6,57.16015625,gpuverify/nested-loops-16.cu,logs/gpuverify-nested-loops-78.log
0,6.62,57.31640625,gpuverify/nested-loops-16.cu,logs/gpuverify-nested-loops-79.log
0,6.5,57.4140625,gpuverify/nested-loops-16.cu,logs/gpuverify-nested-loops-80.log
0,7.39,60.44140625,gpuverify/nested-loops-17.cu,logs/gpuverify-nested-loops-81.log
0,7.6,60.453125,gpuverify/nested-loops-17.cu,logs/gpuverify-nested-loops-82.log
0,7.35,60.48046875,gpuverify/nested-loops-17.cu,logs/gpuverify-nested-loops-83.log
0,7.43,60.18359375,gpuverify/nested-loops-17.cu,logs/gpuverify-nested-loops-84.log
0,7.32,60.37890625,gpuverify/nested-loops-17.cu,logs/gpuverify-nested-loops-85.log
0,8.71,63.703125,gpuverify/nested-loops-18.cu,logs/gpuverify-nested-loops-86.log
0,9.26,64.171875,gpuverify/nested-loops-18.cu,logs/gpuverify-nested-loops-87.log
0,8.58,63.03125,gpuverify/nested-loops-18.cu,logs/gpuverify-nested-loops-88.log
0,8.63,62.23046875,gpuverify/nested-loops-18.cu,logs/gpuverify-nested-loops-89.log
0,8.47,63.9375,gpuverify/nested-loops-18.cu,logs/gpuverify-nested-loops-90.log
0,10.28,62.4375,gpuverify/nested-loops-19.cu,logs/gpuverify-nested-loops-91.log
0,10.19,62.76953125,gpuverify/nested-loops-19.cu,logs/gpuverify-nested-loops-92.log
0,10.36,62.41796875,gpuverify/nested-loops-19.cu,logs/gpuverify-nested-loops-93.log
0,10.4,62.49609375,gpuverify/nested-loops-19.cu,logs/gpuverify-nested-loops-94.log
0,10.24,62.75390625,gpuverify/nested-loops-19.cu,logs/gpuverify-nested-loops-95.log
0,12.35,64.7109375,gpuverify/nested-loops-20.cu,logs/gpuverify-nested-loops-96.log
0,12.52,65.05078125,gpuverify/nested-loops-20.cu,logs/gpuverify-nested-loops-97.log
0,12.47,65.03515625,gpuverify/nested-loops-20.cu,logs/gpuverify-nested-loops-98.log
0,12.44,64.51953125,gpuverify/nested-loops-20.cu,logs/gpuverify-nested-loops-99.log
0,12.4,64.53125,gpuverify/nested-loops-20.cu,logs/gpuverify-nested-loops-100.log
0,13.27,64.80859375,gpuverify/nested-loops-21.cu,logs/gpuverify-nested-loops-101.log
0,13.12,64.80859375,gpuverify/nested-loops-21.cu,logs/gpuverify-nested-loops-102.log
0,13.41,65.0859375,gpuverify/nested-loops-21.cu,logs/gpuverify-nested-loops-103.log
0,13.35,65.078125,gpuverify/nested-loops-21.cu,logs/gpuverify-nested-loops-104.log
0,13.25,65.08203125,gpuverify/nested-loops-21.cu,logs/gpuverify-nested-loops-105.log
0,15.66,67.31640625,gpuverify/nested-loops-22.cu,logs/gpuverify-nested-loops-106.log
0,15.39,68.171875,gpuverify/nested-loops-22.cu,logs/gpuverify-nested-loops-107.log
0,15.35,67.33203125,gpuverify/nested-loops-22.cu,logs/gpuverify-nested-loops-108.log
0,15.3,67.73828125,gpuverify/nested-loops-22.cu,logs/gpuverify-nested-loops-109.log
0,15.34,67.28125,gpuverify/nested-loops-22.cu,logs/gpuverify-nested-loops-110.log
0,21.95,68.40625,gpuverify/nested-loops-23.cu,logs/gpuverify-nested-loops-111.log
0,21.91,68.09765625,gpuverify/nested-loops-23.cu,logs/gpuverify-nested-loops-112.log
0,22.07,68.98046875,gpuverify/nested-loops-23.cu,logs/gpuverify-nested-loops-113.log
0,21.92,68.0859375,gpuverify/nested-loops-23.cu,logs/gpuverify-nested-loops-114.log
0,21.8,68.69140625,gpuverify/nested-loops-23.cu,logs/gpuverify-nested-loops-115.log
0,18.62,68.59375,gpuverify/nested-loops-24.cu,logs/gpuverify-nested-loops-116.log
0,18.71,68.77734375,gpuverify/nested-loops-24.cu,logs/gpuverify-nested-loops-117.log
0,18.5,68.171875,gpuverify/nested-loops-24.cu,logs/gpuverify-nested-loops-118.log
0,18.66,68.203125,gpuverify/nested-loops-24.cu,logs/gpuverify-nested-loops-119.log
0,18.54,68.46484375,gpuverify/nested-loops-24.cu,logs/gpuverify-nested-loops-120.log
0,21.07,69.25390625,gpuverify/nested-loops-25.cu,logs/gpuverify-nested-loops-121.log
0,21.01,69.3203125,gpuverify/nested-loops-25.cu,logs/gpuverify-nested-loops-122.log
0,21.13,69.42578125,gpuverify/nested-loops-25.cu,logs/gpuverify-nested-loops-123.log
0,21.08,69.31640625,gpuverify/nested-loops-25.cu,logs/gpuverify-nested-loops-124.log
0,21.13,69.1875,gpuverify/nested-loops-25.cu,logs/gpuverify-nested-loops-125.log
11,14.6,68.1328125,gpuverify/nested-loops-26.cu,logs/gpuverify-nested-loops-126.log
0,22.68,71.546875,gpuverify/nested-loops-26.cu,logs/gpuverify-nested-loops-127.log
0,22.56,72.05078125,gpuverify/nested-loops-26.cu,logs/gpuverify-nested-loops-128.log
0,22.58,72.16015625,gpuverify/nested-loops-26.cu,logs/gpuverify-nested-loops-129.log
0,22.59,71.609375,gpuverify/nested-loops-26.cu,logs/gpuverify-nested-loops-130.log
0,25.24,70.3125,gpuverify/nested-loops-27.cu,logs/gpuverify-nested-loops-131.log
0,24.79,70.421875,gpuverify/nested-loops-27.cu,logs/gpuverify-nested-loops-132.log
0,24.84,70.62109375,gpuverify/nested-loops-27.cu,logs/gpuverify-nested-loops-133.log
0,24.88,70.33203125,gpuverify/nested-loops-27.cu,logs/gpuverify-nested-loops-134.log
0,24.93,70.890625,gpuverify/nested-loops-27.cu,logs/gpuverify-nested-loops-135.log
0,32.47,71.828125,gpuverify/nested-loops-28.cu,logs/gpuverify-nested-loops-136.log
0,32.62,71.625,gpuverify/nested-loops-28.cu,logs/gpuverify-nested-loops-137.log
0,32.46,71.859375,gpuverify/nested-loops-28.cu,logs/gpuverify-nested-loops-138.log
0,32.69,71.68359375,gpuverify/nested-loops-28.cu,logs/gpuverify-nested-loops-139.log
0,32.76,71.7265625,gpuverify/nested-loops-28.cu,logs/gpuverify-nested-loops-140.log
0,32.21,77.18359375,gpuverify/nested-loops-29.cu,logs/gpuverify-nested-loops-141.log
0,32.25,77.671875,gpuverify/nested-loops-29.cu,logs/gpuverify-nested-loops-142.log
0,32.3,76.9921875,gpuverify/nested-loops-29.cu,logs/gpuverify-nested-loops-143.log
0,32.23,77.19921875,gpuverify/nested-loops-29.cu,logs/gpuverify-nested-loops-144.log
0,32.34,78.67578125,gpuverify/nested-loops-29.cu,logs/gpuverify-nested-loops-145.log
0,34.34,76.5078125,gpuverify/nested-loops-30.cu,logs/gpuverify-nested-loops-146.log
0,34.15,76.609375,gpuverify/nested-loops-30.cu,logs/gpuverify-nested-loops-147.log
0,34.22,75.44140625,gpuverify/nested-loops-30.cu,logs/gpuverify-nested-loops-148.log
0,34.06,76.27734375,gpuverify/nested-loops-30.cu,logs/gpuverify-nested-loops-149.log
0,34.32,76.70703125,gpuverify/nested-loops-30.cu,logs/gpuverify-nested-loops-150.log
0,36.72,77.93359375,gpuverify/nested-loops-31.cu,logs/gpuverify-nested-loops-151.log
0,36.67,77.9453125,gpuverify/nested-loops-31.cu,logs/gpuverify-nested-loops-152.log
0,37.4,78.10546875,gpuverify/nested-loops-31.cu,logs/gpuverify-nested-loops-153.log
0,36.69,77.609375,gpuverify/nested-loops-31.cu,logs/gpuverify-nested-loops-154.log
0,36.84,77.85546875,gpuverify/nested-loops-31.cu,logs/gpuverify-nested-loops-155.log
0,53.32,81.1171875,gpuverify/nested-loops-32.cu,logs/gpuverify-nested-loops-156.log
0,53.25,81.734375,gpuverify/nested-loops-32.cu,logs/gpuverify-nested-loops-157.log
0,54.12,81.6875,gpuverify/nested-loops-32.cu,logs/gpuverify-nested-loops-158.log
0,53.2,81.63671875,gpuverify/nested-loops-32.cu,logs/gpuverify-nested-loops-159.log
0,53.54,81.66015625,gpuverify/nested-loops-32.cu,logs/gpuverify-nested-loops-160.log
0,59.91,80.8671875,gpuverify/nested-loops-33.cu,logs/gpuverify-nested-loops-161.log
0,60.18,80.37109375,gpuverify/nested-loops-33.cu,logs/gpuverify-nested-loops-162.log
0,59.73,80.54296875,gpuverify/nested-loops-33.cu,logs/gpuverify-nested-loops-163.log
0,60.11,81.2578125,gpuverify/nested-loops-33.cu,logs/gpuverify-nested-loops-164.log
0,59.92,80.61328125,gpuverify/nested-loops-33.cu,logs/gpuverify-nested-loops-165.log
0,53.76,82.39453125,gpuverify/nested-loops-34.cu,logs/gpuverify-nested-loops-166.log
0,53.84,82.4765625,gpuverify/nested-loops-34.cu,logs/gpuverify-nested-loops-167.log
0,54.27,82.41015625,gpuverify/nested-loops-34.cu,logs/gpuverify-nested-loops-168.log
0,54.18,82.4140625,gpuverify/nested-loops-34.cu,logs/gpuverify-nested-loops-169.log
0,54.21,82.11328125,gpuverify/nested-loops-34.cu,logs/gpuverify-nested-loops-170.log
0,65.53,84.68359375,gpuverify/nested-loops-35.cu,logs/gpuverify-nested-loops-171.log
0,65.33,85.1953125,gpuverify/nested-loops-35.cu,logs/gpuverify-nested-loops-172.log
0,65.49,84.5234375,gpuverify/nested-loops-35.cu,logs/gpuverify-nested-loops-173.log
0,65.36,85.265625,gpuverify/nested-loops-35.cu,logs/gpuverify-nested-loops-174.log
0,65.31,84.5703125,gpuverify/nested-loops-35.cu,logs/gpuverify-nested-loops-175.log
0,73.23,82.06640625,gpuverify/nested-loops-36.cu,logs/gpuverify-nested-loops-176.log
0,73.29,81.90234375,gpuverify/nested-loops-36.cu,logs/gpuverify-nested-loops-177.log
0,73.44,83.05859375,gpuverify/nested-loops-36.cu,logs/gpuverify-nested-loops-178.log
0,73.47,81.55078125,gpuverify/nested-loops-36.cu,logs/gpuverify-nested-loops-179.log
0,73.15,82.0546875,gpuverify/nested-loops-36.cu,logs/gpuverify-nested-loops-180.log
0,87.35,84.9453125,gpuverify/nested-loops-37.cu,logs/gpuverify-nested-loops-181.log
0,87.03,85.26171875,gpuverify/nested-loops-37.cu,logs/gpuverify-nested-loops-182.log
0,87.11,85.21484375,gpuverify/nested-loops-37.cu,logs/gpuverify-nested-loops-183.log
0,87.39,85.6328125,gpuverify/nested-loops-37.cu,logs/gpuverify-nested-loops-184.log
0,87.19,85.2265625,gpuverify/nested-loops-37.cu,logs/gpuverify-nested-loops-185.log
0,86.85,86.5390625,gpuverify/nested-loops-38.cu,logs/gpuverify-nested-loops-186.log
0,86.3,85.69140625,gpuverify/nested-loops-38.cu,logs/gpuverify-nested-loops-187.log
0,86.58,86.69921875,gpuverify/nested-loops-38.cu,logs/gpuverify-nested-loops-188.log
0,86.53,86.1171875,gpuverify/nested-loops-38.cu,logs/gpuverify-nested-loops-189.log
0,87.27,88.59765625,gpuverify/nested-loops-38.cu,logs/gpuverify-nested-loops-190.log
124,90.0,3.08984375,gpuverify/nested-loops-39.cu,logs/gpuverify-nested-loops-191.log
124,90.0,3.0234375,gpuverify/nested-loops-39.cu,logs/gpuverify-nested-loops-192.log
124,90.0,3.15234375,gpuverify/nested-loops-39.cu,logs/gpuverify-nested-loops-193.log
124,90.0,3.03125,gpuverify/nested-loops-39.cu,logs/gpuverify-nested-loops-194.log
124,90.0,3.09765625,gpuverify/nested-loops-39.cu,logs/gpuverify-nested-loops-195.log
124,90.0,3.11328125,gpuverify/nested-loops-40.cu,logs/gpuverify-nested-loops-196.log
124,90.0,2.96875,gpuverify/nested-loops-40.cu,logs/gpuverify-nested-loops-197.log
124,90.0,3.11328125,gpuverify/nested-loops-40.cu,logs/gpuverify-nested-loops-198.log
124,90.0,3.11328125,gpuverify/nested-loops-40.cu,logs/gpuverify-nested-loops-199.log
124,90.0,3.03125,gpuverify/nested-loops-40.cu,logs/gpuverify-nested-loops-200.log
124,90.0,3.04296875,gpuverify/nested-loops-41.cu,logs/gpuverify-nested-loops-201.log
124,90.0,3.10546875,gpuverify/nested-loops-41.cu,logs/gpuverify-nested-loops-202.log
124,90.0,3.140625,gpuverify/nested-loops-41.cu,logs/gpuverify-nested-loops-203.log
124,90.0,3.10546875,gpuverify/nested-loops-41.cu,logs/gpuverify-nested-loops-204.log
124,90.0,3.171875,gpuverify/nested-loops-41.cu,logs/gpuverify-nested-loops-205.log
124,90.0,3.078125,gpuverify/nested-loops-42.cu,logs/gpuverify-nested-loops-206.log
124,90.0,3.09765625,gpuverify/nested-loops-42.cu,logs/gpuverify-nested-loops-207.log
124,90.0,3.11328125,gpuverify/nested-loops-42.cu,logs/gpuverify-nested-loops-208.log
124,90.0,3.10546875,gpuverify/nested-loops-42.cu,logs/gpuverify-nested-loops-209.log
124,90.0,3.05078125,gpuverify/nested-loops-42.cu,logs/gpuverify-nested-loops-210.log
124,90.0,3.07421875,gpuverify/nested-loops-43.cu,logs/gpuverify-nested-loops-211.log
124,90.0,3.0625,gpuverify/nested-loops-43.cu,logs/gpuverify-nested-loops-212.log
124,90.0,3.0859375,gpuverify/nested-loops-43.cu,logs/gpuverify-nested-loops-213.log
124,90.0,3.09375,gpuverify/nested-loops-43.cu,logs/gpuverify-nested-loops-214.log
124,90.0,3.1171875,gpuverify/nested-loops-43.cu,logs/gpuverify-nested-loops-215.log
