WARNING: operator '&' unsupported; converting to '+'. Use bit-vector integers instead
WARNING: operator '&' unsupported; converting to '+'. Use bit-vector integers instead
WARNING: operator '&' unsupported; converting to '+'. Use bit-vector integers instead
WARNING: operator '&' unsupported; converting to '+'. Use bit-vector integers instead
WARNING: operator '&' unsupported; converting to '+'. Use bit-vector integers instead
WARNING: operator '&' unsupported; converting to '+'. Use bit-vector integers instead
WARNING: operator '&' unsupported; converting to '+'. Use bit-vector integers instead
WARNING: operator '&' unsupported; converting to '+'. Use bit-vector integers instead
WARNING: operator '&' unsupported; converting to '+'. Use bit-vector integers instead
WARNING: operator '&' unsupported; converting to '+'. Use bit-vector integers instead
WARNING: operator '&' unsupported; converting to '+'. Use bit-vector integers instead
WARNING: operator '&' unsupported; converting to '+'. Use bit-vector integers instead
WARNING: operator '&' unsupported; converting to '+'. Use bit-vector integers instead
WARNING: operator '&' unsupported; converting to '+'. Use bit-vector integers instead
WARNING: operator '&' unsupported; converting to '+'. Use bit-vector integers instead
WARNING: operator '&' unsupported; converting to '+'. Use bit-vector integers instead
WARNING: operator '&' unsupported; converting to '+'. Use bit-vector integers instead
WARNING: operator '&' unsupported; converting to '+'. Use bit-vector integers instead
WARNING: operator '&' unsupported; converting to '+'. Use bit-vector integers instead
WARNING: operator '&' unsupported; converting to '+'. Use bit-vector integers instead
WARNING: operator '&' unsupported; converting to '+'. Use bit-vector integers instead
WARNING: operator '&' unsupported; converting to '+'. Use bit-vector integers instead
Program is data-race free!
