"/artifact/datasets/gpuverify-cav14/pug/C++AMP/OceanCS/kernel.c", line 102: warning: 
          function "kernel" was declared but never referenced
  __global__ void kernel (const float2* input_h0, const float* input_omega, float2* output_ht, unsigned int immutable_actualdim,unsigned int immutable_inwidth,unsigned int immutable_outwidth,unsigned int immutable_outheight,unsigned int immutable_dddressoffset,unsigned int immutable_addressoffset,float perframe_time) {
                  ^

>>>> start analysis ... 


-------------------------------------------------------
Invalid OVERFLOW_PROTECTION flag in config.txt!
Setting OVERFLOW_PROTECTION flag to on
-------------------------------------------------------

-------------------------------------------------------
Invalid NBITS value in config.txt!
Setting NBITS value to 10
-------------------------------------------------------

-------------------------------------------------------
Invalid USE_INCRSMT flag in config.txt!
Setting USE_INCRSMT flag to false
-------------------------------------------------------


-------------------------------------------------------
Invalid USE_LOOP_REFINEMENT flag in config.txt!
Setting USE_LOOP_REFINEMENT flag to true
-------------------------------------------------------


-------------------------------------------------------
Invalid SLICE_ARRAYS flag in config.txt!
Setting SLICE_ARRAYS flag to true
-------------------------------------------------------


-------------------------------------------------------
Invalid USE_ASSUMES flag in config.txt!
Setting USE_ASSUMES flag to true
-------------------------------------------------------


-------------------------------------------------------
Invalid CHK_BANK_CONFLICTS option in config.txt!
Setting CHK_BANK_CONFLICTS option to false
-------------------------------------------------------

Debug level (verbosity) set to 0


Processing function: kernel

FunctionCall: assume((immutable_actualdim ==(512)))
Assuming immutable_actualdim0 == 512

FunctionCall: assume((immutable_inwidth ==(516)))
Assuming immutable_inwidth0 == 516

FunctionCall: assume((immutable_outwidth ==(512)))
Assuming immutable_outwidth0 == 512

FunctionCall: assume((immutable_outheight ==(512)))
Assuming immutable_outheight0 == 512

FunctionCall: assume((immutable_dddressoffset ==((512 * 512))))
Assuming immutable_dddressoffset0 == 262144

FunctionCall: assume((immutable_addressoffset ==(((512 * 512) * 2))))
Assuming immutable_addressoffset0 == 524288

FunctionCall: assume(((blockDim.x) ==(64)))
Assuming bdim.x == 64

FunctionCall: assume(((blockDim.y) ==(64)))
Assuming bdim.y == 64

FunctionCall: assume(((gridDim.x) ==(8)))
Assuming gdim.x == 8

FunctionCall: assume(((gridDim.y) ==(8)))
Assuming gdim.y == 8

Binary OP: sin_v =((sin((((input_omega[in_index]) * perframe_time)))))

Binary OP: cos_v =((cos((((input_omega[in_index]) * perframe_time)))))

Binary OP: ht.x =((((h0_k.x) +(h0_mk.x)) * cos_v) -(((h0_k.y) +(h0_mk.y)) * sin_v))

Binary OP: ht.y =((((h0_k.x) -(h0_mk.x)) * sin_v) +(((h0_k.y) -(h0_mk.y)) * cos_v))
array update 
(define #ht1@t1::bool (= ht1@t1 (update ht0@t1 (0b0000000000) (bv-sub (bv-mul (bv-add (h0_k1@t1 0b0000000000)                        (h0_mk1@t1 0b0000000000))                cos_v0@t1)        (bv-mul (bv-add (h0_k1@t1 0b0000000001)                        (h0_mk1@t1 0b0000000001))                sin_v0@t1)))))
array update 
(define #ht2@t1::bool (= ht2@t1 (update ht1@t1 (0b0000000001) (bv-add (bv-mul (bv-sub (h0_k1@t1 0b0000000000)                        (h0_mk1@t1 0b0000000000))                sin_v0@t1)        (bv-mul (bv-sub (h0_k1@t1 0b0000000001)                        (h0_mk1@t1 0b0000000001))                cos_v0@t1)))))
array update 
(define #ht1@t2::bool (= ht1@t2 (update ht0@t2 (0b0000000000) (bv-sub (bv-mul (bv-add (h0_k1@t2 0b0000000000)                        (h0_mk1@t2 0b0000000000))                cos_v0@t2)        (bv-mul (bv-add (h0_k1@t2 0b0000000001)                        (h0_mk1@t2 0b0000000001))                sin_v0@t2)))))
array update 
(define #ht2@t2::bool (= ht2@t2 (update ht1@t2 (0b0000000001) (bv-add (bv-mul (bv-sub (h0_k1@t2 0b0000000000)                        (h0_mk1@t2 0b0000000000))                sin_v0@t2)        (bv-mul (bv-sub (h0_k1@t2 0b0000000001)                        (h0_mk1@t2 0b0000000001))                cos_v0@t2)))))
terminate called after throwing an instance of 'yices::type_checker_exception'
  what():  invalid shift operation.
/artifact/tools/pug-v0.2_x64/pug: line 3:  5118 Aborted                 (core dumped) LD_LIBRARY_PATH="$PREFIX/lib" "$PREFIX/bin/pug" "$@"
