"/artifact/datasets/gpuverify-cav14/pug/C++AMP/BitonicSort/transpose_kernel/kernel.c", line 114: warning: 
          function "kernel" was declared but never referenced
  __global__ void kernel (_type* data_in, _type* data_out, int height) {
                  ^

>>>> start analysis ... 


-------------------------------------------------------
Invalid OVERFLOW_PROTECTION flag in config.txt!
Setting OVERFLOW_PROTECTION flag to on
-------------------------------------------------------

-------------------------------------------------------
Invalid NBITS value in config.txt!
Setting NBITS value to 10
-------------------------------------------------------

-------------------------------------------------------
Invalid USE_INCRSMT flag in config.txt!
Setting USE_INCRSMT flag to false
-------------------------------------------------------


-------------------------------------------------------
Invalid USE_LOOP_REFINEMENT flag in config.txt!
Setting USE_LOOP_REFINEMENT flag to true
-------------------------------------------------------


-------------------------------------------------------
Invalid SLICE_ARRAYS flag in config.txt!
Setting SLICE_ARRAYS flag to true
-------------------------------------------------------


-------------------------------------------------------
Invalid USE_ASSUMES flag in config.txt!
Setting USE_ASSUMES flag to true
-------------------------------------------------------


-------------------------------------------------------
Invalid CHK_BANK_CONFLICTS option in config.txt!
Setting CHK_BANK_CONFLICTS option to false
-------------------------------------------------------

Debug level (verbosity) set to 0


Processing function: kernel

FunctionCall: assume(((blockDim.x) ==(16)))
Assuming bdim.x == 16

FunctionCall: assume(((blockDim.y) ==(16)))
Assuming bdim.y == 16

FunctionCall: assume(((gridDim.x) ==(32)))
Assuming gdim.x == 32

Binary OP: (transpose_shared_data[threadIdx.y])[threadIdx.x] =(data_in[((((blockDim.y) *(blockIdx.y)) +(threadIdx.y)) * width) +(((blockDim.x) *(blockIdx.x)) +(threadIdx.x))])

FunctionCall: __syncthreads()
unsatisfiable

Binary OP: data_out[((((blockDim.x) *(blockIdx.x)) +(threadIdx.x)) * width) +(((blockDim.y) *(blockIdx.y)) +(threadIdx.y))] =((transpose_shared_data[threadIdx.y])[threadIdx.x])

Reaching the end of the kernel
unsatisfiable


#####################################################################

No races or synchronization errors were found.

Max instance solving time = 0.000356s
Total solving time = 0.000628s

#####################################################################

