"/artifact/datasets/gpuverify-cav14/pug/CUDA50/3_Imaging/histogram/histogram256.c", line 96: warning: 
          attribute "always_inline" ignored
  __device__ static __attribute__((always_inline)) void addByte(uint *s_WarpHist, uint data, uint threadTag)
                                   ^

"/artifact/datasets/gpuverify-cav14/pug/CUDA50/3_Imaging/histogram/histogram256.c", line 98: warning: 
          expression has no effect
      atomicAdd(s_WarpHist + data, 1);
      ^

"/artifact/datasets/gpuverify-cav14/pug/CUDA50/3_Imaging/histogram/histogram256.c", line 101: warning: 
          attribute "always_inline" ignored
  __device__ static __attribute__((always_inline)) void addWord(uint *s_WarpHist, uint data, uint tag)
                                   ^

"/artifact/datasets/gpuverify-cav14/pug/CUDA50/3_Imaging/histogram/histogram256.c", line 132: warning: 
          a value of type "volatile uint *" cannot be used to initialize an
          entity of type "uint *"
      uint *s_WarpHist= s_Hist + (threadIdx.x >> LOG2_WARP_SIZE) * HISTOGRAM256_BIN_COUNT;
                        ^

"/artifact/datasets/gpuverify-cav14/pug/CUDA50/3_Imaging/histogram/histogram256.c", line 113: warning: 
          function "kernel" was declared but never referenced
  __global__ void kernel (uint* d_PartialHistograms, uint* d_Data, uint dataCount) {
                  ^

>>>> start analysis ... 


-------------------------------------------------------
Invalid OVERFLOW_PROTECTION flag in config.txt!
Setting OVERFLOW_PROTECTION flag to on
-------------------------------------------------------

-------------------------------------------------------
Invalid NBITS value in config.txt!
Setting NBITS value to 10
-------------------------------------------------------

-------------------------------------------------------
Invalid USE_INCRSMT flag in config.txt!
Setting USE_INCRSMT flag to false
-------------------------------------------------------


-------------------------------------------------------
Invalid USE_LOOP_REFINEMENT flag in config.txt!
Setting USE_LOOP_REFINEMENT flag to true
-------------------------------------------------------


-------------------------------------------------------
Invalid SLICE_ARRAYS flag in config.txt!
Setting SLICE_ARRAYS flag to true
-------------------------------------------------------


-------------------------------------------------------
Invalid USE_ASSUMES flag in config.txt!
Setting USE_ASSUMES flag to true
-------------------------------------------------------


-------------------------------------------------------
Invalid CHK_BANK_CONFLICTS option in config.txt!
Setting CHK_BANK_CONFLICTS option to false
-------------------------------------------------------

Debug level (verbosity) set to 0


Processing function: kernel

FunctionCall: assume(((blockDim.x) ==(192)))
Assuming bdim.x == 192

FunctionCall: assume(((gridDim.x) ==(240)))
Assuming gdim.x == 240
containBarrierFlag = 0
incrExpr = i++
------------- Already normalized 
rangeExpr = ((!1^i0 >= 0) && (!1^i0 <= (8 - 1))); substExpr = 

Binary OP: s_Hist[(threadIdx.x) +(i *((6) *(1U << 5U)))] =(0)

FunctionCall: __syncthreads()
terminate called after throwing an instance of 'yices::type_checker_exception'
  what():  invalid shift operation.
/artifact/tools/pug-v0.2_x64/pug: line 3: 42427 Aborted                 (core dumped) LD_LIBRARY_PATH="$PREFIX/lib" "$PREFIX/bin/pug" "$@"
