nested-loops-sync-18.cpp:95:31: error: indirection requires pointer operand ('unsigned long' invalid)
    cudaMalloc((void**)&out,  * sizeof(float));
                              ^ ~~~~~~~~~~~~~
nested-loops-sync-18.cpp:99:29: error: indirection requires pointer operand ('unsigned long' invalid)
    cudaMalloc((void**)&a,  * sizeof(float));
                            ^ ~~~~~~~~~~~~~
nested-loops-sync-18.cpp:103:29: error: indirection requires pointer operand ('unsigned long' invalid)
    cudaMalloc((void**)&b,  * sizeof(float));
                            ^ ~~~~~~~~~~~~~
3 errors generated.
Configuration: concurrency bug checking level is: 2
KLEE: ERROR: error loading program 'gklee/nested-loops-sync-18.bc': No such file or directory
RUN /opt/gklee/gklee-nvcc gklee/nested-loops-sync-18.cu -o gklee/nested-loops-sync-18.bc
RUN /opt/gklee/gklee --symbolic-config gklee/nested-loops-sync-18.bc
DEL /home/verify/datasets/micro-benchmarks/nested-loops-sync-18.cpp
DEL /home/verify/datasets/micro-benchmarks/nested-loops-sync-18.kernelSet.txt
DEL flowsGraph.dot
