nested-loops-sync-22.cpp:111:31: error: indirection requires pointer operand ('unsigned long' invalid)
    cudaMalloc((void**)&out,  * sizeof(float));
                              ^ ~~~~~~~~~~~~~
nested-loops-sync-22.cpp:115:29: error: indirection requires pointer operand ('unsigned long' invalid)
    cudaMalloc((void**)&a,  * sizeof(float));
                            ^ ~~~~~~~~~~~~~
nested-loops-sync-22.cpp:119:29: error: indirection requires pointer operand ('unsigned long' invalid)
    cudaMalloc((void**)&b,  * sizeof(float));
                            ^ ~~~~~~~~~~~~~
3 errors generated.
Configuration: concurrency bug checking level is: 2
KLEE: ERROR: error loading program 'gklee/nested-loops-sync-22.bc': No such file or directory
RUN /opt/gklee/gklee-nvcc gklee/nested-loops-sync-22.cu -o gklee/nested-loops-sync-22.bc
RUN /opt/gklee/gklee --symbolic-config gklee/nested-loops-sync-22.bc
DEL /home/verify/datasets/micro-benchmarks/nested-loops-sync-22.cpp
DEL /home/verify/datasets/micro-benchmarks/nested-loops-sync-22.kernelSet.txt
DEL flowsGraph.dot
