"/home/verify/datasets/micro-benchmarks/pug/nested-loops-49.c", line 80: warning: 
          function "kernel" was declared but never referenced
  __global__ void kernel (float* out, float* a, float* b, int count) {
                  ^

>>>> start analysis ... 


-------------------------------------------------------
Invalid OVERFLOW_PROTECTION flag in config.txt!
Setting OVERFLOW_PROTECTION flag to on
-------------------------------------------------------

-------------------------------------------------------
Invalid NBITS value in config.txt!
Setting NBITS value to 10
-------------------------------------------------------

-------------------------------------------------------
Invalid USE_INCRSMT flag in config.txt!
Setting USE_INCRSMT flag to false
-------------------------------------------------------


-------------------------------------------------------
Invalid USE_LOOP_REFINEMENT flag in config.txt!
Setting USE_LOOP_REFINEMENT flag to true
-------------------------------------------------------


-------------------------------------------------------
Invalid SLICE_ARRAYS flag in config.txt!
Setting SLICE_ARRAYS flag to true
-------------------------------------------------------


-------------------------------------------------------
Invalid USE_ASSUMES flag in config.txt!
Setting USE_ASSUMES flag to true
-------------------------------------------------------


-------------------------------------------------------
Invalid CHK_BANK_CONFLICTS option in config.txt!
Setting CHK_BANK_CONFLICTS option to false
-------------------------------------------------------

Debug level (verbosity) set to 0


Processing function: kernel
containBarrierFlag = 0
incrExpr = i0++
------------- Already normalized 
rangeExpr = ((!1^i00 >= 0) && (!1^i00 <= (count0 - 1))); substExpr = 

Binary OP: out[threadIdx.x] =((a[i0]) +(b[i0]))
containBarrierFlag = 0
incrExpr = i1++
------------- Already normalized 
rangeExpr = ((!2^i10 >= 0) && (!2^i10 <= (count0 - 1))); substExpr = 

Binary OP: out[threadIdx.x] =((a[i1]) +(b[i1]))
containBarrierFlag = 0
incrExpr = i2++
------------- Already normalized 
rangeExpr = ((!3^i20 >= 0) && (!3^i20 <= (count0 - 1))); substExpr = 

Binary OP: out[threadIdx.x] =((a[i2]) +(b[i2]))
containBarrierFlag = 0
incrExpr = i3++
------------- Already normalized 
rangeExpr = ((!4^i30 >= 0) && (!4^i30 <= (count0 - 1))); substExpr = 

Binary OP: out[threadIdx.x] =((a[i3]) +(b[i3]))
containBarrierFlag = 0
incrExpr = i4++
------------- Already normalized 
rangeExpr = ((!5^i40 >= 0) && (!5^i40 <= (count0 - 1))); substExpr = 

Binary OP: out[threadIdx.x] =((a[i4]) +(b[i4]))
containBarrierFlag = 0
incrExpr = i5++
------------- Already normalized 
rangeExpr = ((!6^i50 >= 0) && (!6^i50 <= (count0 - 1))); substExpr = 

Binary OP: out[threadIdx.x] =((a[i5]) +(b[i5]))
containBarrierFlag = 0
incrExpr = i6++
------------- Already normalized 
rangeExpr = ((!7^i60 >= 0) && (!7^i60 <= (count0 - 1))); substExpr = 

Binary OP: out[threadIdx.x] =((a[i6]) +(b[i6]))
containBarrierFlag = 0
incrExpr = i7++
------------- Already normalized 
rangeExpr = ((!8^i70 >= 0) && (!8^i70 <= (count0 - 1))); substExpr = 

Binary OP: out[threadIdx.x] =((a[i7]) +(b[i7]))
containBarrierFlag = 0
incrExpr = i8++
------------- Already normalized 
rangeExpr = ((!9^i80 >= 0) && (!9^i80 <= (count0 - 1))); substExpr = 

Binary OP: out[threadIdx.x] =((a[i8]) +(b[i8]))
containBarrierFlag = 0
incrExpr = i9++
------------- Already normalized 
rangeExpr = ((!10^i90 >= 0) && (!10^i90 <= (count0 - 1))); substExpr = 

Binary OP: out[threadIdx.x] =((a[i9]) +(b[i9]))
containBarrierFlag = 0
incrExpr = i10++
------------- Already normalized 
rangeExpr = ((!11^i100 >= 0) && (!11^i100 <= (count0 - 1))); substExpr = 

Binary OP: out[threadIdx.x] =((a[i10]) +(b[i10]))
containBarrierFlag = 0
incrExpr = i11++
------------- Already normalized 
rangeExpr = ((!12^i110 >= 0) && (!12^i110 <= (count0 - 1))); substExpr = 

Binary OP: out[threadIdx.x] =((a[i11]) +(b[i11]))
containBarrierFlag = 0
incrExpr = i12++
------------- Already normalized 
rangeExpr = ((!13^i120 >= 0) && (!13^i120 <= (count0 - 1))); substExpr = 

Binary OP: out[threadIdx.x] =((a[i12]) +(b[i12]))
containBarrierFlag = 0
incrExpr = i13++
------------- Already normalized 
rangeExpr = ((!14^i130 >= 0) && (!14^i130 <= (count0 - 1))); substExpr = 

Binary OP: out[threadIdx.x] =((a[i13]) +(b[i13]))
containBarrierFlag = 0
incrExpr = i14++
------------- Already normalized 
rangeExpr = ((!15^i140 >= 0) && (!15^i140 <= (count0 - 1))); substExpr = 

Binary OP: out[threadIdx.x] =((a[i14]) +(b[i14]))
containBarrierFlag = 0
incrExpr = i15++
------------- Already normalized 
rangeExpr = ((!16^i150 >= 0) && (!16^i150 <= (count0 - 1))); substExpr = 

Binary OP: out[threadIdx.x] =((a[i15]) +(b[i15]))
containBarrierFlag = 0
incrExpr = i16++
------------- Already normalized 
rangeExpr = ((!17^i160 >= 0) && (!17^i160 <= (count0 - 1))); substExpr = 

Binary OP: out[threadIdx.x] =((a[i16]) +(b[i16]))
containBarrierFlag = 0
incrExpr = i17++
------------- Already normalized 
rangeExpr = ((!18^i170 >= 0) && (!18^i170 <= (count0 - 1))); substExpr = 

Binary OP: out[threadIdx.x] =((a[i17]) +(b[i17]))
containBarrierFlag = 0
incrExpr = i18++
------------- Already normalized 
rangeExpr = ((!19^i180 >= 0) && (!19^i180 <= (count0 - 1))); substExpr = 

Binary OP: out[threadIdx.x] =((a[i18]) +(b[i18]))
containBarrierFlag = 0
incrExpr = i19++
------------- Already normalized 
rangeExpr = ((!20^i190 >= 0) && (!20^i190 <= (count0 - 1))); substExpr = 

Binary OP: out[threadIdx.x] =((a[i19]) +(b[i19]))
containBarrierFlag = 0
incrExpr = i20++
------------- Already normalized 
rangeExpr = ((!21^i200 >= 0) && (!21^i200 <= (count0 - 1))); substExpr = 

Binary OP: out[threadIdx.x] =((a[i20]) +(b[i20]))
containBarrierFlag = 0
incrExpr = i21++
------------- Already normalized 
rangeExpr = ((!22^i210 >= 0) && (!22^i210 <= (count0 - 1))); substExpr = 

Binary OP: out[threadIdx.x] =((a[i21]) +(b[i21]))
containBarrierFlag = 0
incrExpr = i22++
------------- Already normalized 
rangeExpr = ((!23^i220 >= 0) && (!23^i220 <= (count0 - 1))); substExpr = 

Binary OP: out[threadIdx.x] =((a[i22]) +(b[i22]))
containBarrierFlag = 0
incrExpr = i23++
------------- Already normalized 
rangeExpr = ((!24^i230 >= 0) && (!24^i230 <= (count0 - 1))); substExpr = 

Binary OP: out[threadIdx.x] =((a[i23]) +(b[i23]))
containBarrierFlag = 0
incrExpr = i24++
------------- Already normalized 
rangeExpr = ((!25^i240 >= 0) && (!25^i240 <= (count0 - 1))); substExpr = 

Binary OP: out[threadIdx.x] =((a[i24]) +(b[i24]))
containBarrierFlag = 0
incrExpr = i25++
------------- Already normalized 
rangeExpr = ((!26^i250 >= 0) && (!26^i250 <= (count0 - 1))); substExpr = 

Binary OP: out[threadIdx.x] =((a[i25]) +(b[i25]))
containBarrierFlag = 0
incrExpr = i26++
------------- Already normalized 
rangeExpr = ((!27^i260 >= 0) && (!27^i260 <= (count0 - 1))); substExpr = 

Binary OP: out[threadIdx.x] =((a[i26]) +(b[i26]))
containBarrierFlag = 0
incrExpr = i27++
------------- Already normalized 
rangeExpr = ((!28^i270 >= 0) && (!28^i270 <= (count0 - 1))); substExpr = 

Binary OP: out[threadIdx.x] =((a[i27]) +(b[i27]))
containBarrierFlag = 0
incrExpr = i28++
------------- Already normalized 
rangeExpr = ((!29^i280 >= 0) && (!29^i280 <= (count0 - 1))); substExpr = 

Binary OP: out[threadIdx.x] =((a[i28]) +(b[i28]))
containBarrierFlag = 0
incrExpr = i29++
------------- Already normalized 
rangeExpr = ((!30^i290 >= 0) && (!30^i290 <= (count0 - 1))); substExpr = 

Binary OP: out[threadIdx.x] =((a[i29]) +(b[i29]))
containBarrierFlag = 0
incrExpr = i30++
------------- Already normalized 
rangeExpr = ((!31^i300 >= 0) && (!31^i300 <= (count0 - 1))); substExpr = 

Binary OP: out[threadIdx.x] =((a[i30]) +(b[i30]))
containBarrierFlag = 0
incrExpr = i31++
------------- Already normalized 
rangeExpr = ((!32^i310 >= 0) && (!32^i310 <= (count0 - 1))); substExpr = 

Binary OP: out[threadIdx.x] =((a[i31]) +(b[i31]))
containBarrierFlag = 0
incrExpr = i32++
------------- Already normalized 
rangeExpr = ((!33^i320 >= 0) && (!33^i320 <= (count0 - 1))); substExpr = 

Binary OP: out[threadIdx.x] =((a[i32]) +(b[i32]))
containBarrierFlag = 0
incrExpr = i33++
------------- Already normalized 
rangeExpr = ((!34^i330 >= 0) && (!34^i330 <= (count0 - 1))); substExpr = 

Binary OP: out[threadIdx.x] =((a[i33]) +(b[i33]))
containBarrierFlag = 0
incrExpr = i34++
------------- Already normalized 
rangeExpr = ((!35^i340 >= 0) && (!35^i340 <= (count0 - 1))); substExpr = 

Binary OP: out[threadIdx.x] =((a[i34]) +(b[i34]))
containBarrierFlag = 0
incrExpr = i35++
------------- Already normalized 
rangeExpr = ((!36^i350 >= 0) && (!36^i350 <= (count0 - 1))); substExpr = 

Binary OP: out[threadIdx.x] =((a[i35]) +(b[i35]))
containBarrierFlag = 0
incrExpr = i36++
------------- Already normalized 
rangeExpr = ((!37^i360 >= 0) && (!37^i360 <= (count0 - 1))); substExpr = 

Binary OP: out[threadIdx.x] =((a[i36]) +(b[i36]))
containBarrierFlag = 0
incrExpr = i37++
------------- Already normalized 
rangeExpr = ((!38^i370 >= 0) && (!38^i370 <= (count0 - 1))); substExpr = 

Binary OP: out[threadIdx.x] =((a[i37]) +(b[i37]))
containBarrierFlag = 0
incrExpr = i38++
------------- Already normalized 
rangeExpr = ((!39^i380 >= 0) && (!39^i380 <= (count0 - 1))); substExpr = 

Binary OP: out[threadIdx.x] =((a[i38]) +(b[i38]))
containBarrierFlag = 0
incrExpr = i39++
------------- Already normalized 
rangeExpr = ((!40^i390 >= 0) && (!40^i390 <= (count0 - 1))); substExpr = 

Binary OP: out[threadIdx.x] =((a[i39]) +(b[i39]))
containBarrierFlag = 0
incrExpr = i40++
------------- Already normalized 
rangeExpr = ((!41^i400 >= 0) && (!41^i400 <= (count0 - 1))); substExpr = 

Binary OP: out[threadIdx.x] =((a[i40]) +(b[i40]))
containBarrierFlag = 0
incrExpr = i41++
------------- Already normalized 
rangeExpr = ((!42^i410 >= 0) && (!42^i410 <= (count0 - 1))); substExpr = 

Binary OP: out[threadIdx.x] =((a[i41]) +(b[i41]))
containBarrierFlag = 0
incrExpr = i42++
------------- Already normalized 
rangeExpr = ((!43^i420 >= 0) && (!43^i420 <= (count0 - 1))); substExpr = 

Binary OP: out[threadIdx.x] =((a[i42]) +(b[i42]))
containBarrierFlag = 0
incrExpr = i43++
------------- Already normalized 
rangeExpr = ((!44^i430 >= 0) && (!44^i430 <= (count0 - 1))); substExpr = 

Binary OP: out[threadIdx.x] =((a[i43]) +(b[i43]))
containBarrierFlag = 0
incrExpr = i44++
------------- Already normalized 
rangeExpr = ((!45^i440 >= 0) && (!45^i440 <= (count0 - 1))); substExpr = 

Binary OP: out[threadIdx.x] =((a[i44]) +(b[i44]))
containBarrierFlag = 0
incrExpr = i45++
------------- Already normalized 
rangeExpr = ((!46^i450 >= 0) && (!46^i450 <= (count0 - 1))); substExpr = 

Binary OP: out[threadIdx.x] =((a[i45]) +(b[i45]))
containBarrierFlag = 0
incrExpr = i46++
------------- Already normalized 
rangeExpr = ((!47^i460 >= 0) && (!47^i460 <= (count0 - 1))); substExpr = 

Binary OP: out[threadIdx.x] =((a[i46]) +(b[i46]))
containBarrierFlag = 0
incrExpr = i47++
------------- Already normalized 
rangeExpr = ((!48^i470 >= 0) && (!48^i470 <= (count0 - 1))); substExpr = 

Binary OP: out[threadIdx.x] =((a[i47]) +(b[i47]))
containBarrierFlag = 0
incrExpr = i48++
------------- Already normalized 
rangeExpr = ((!49^i480 >= 0) && (!49^i480 <= (count0 - 1))); substExpr = 

Binary OP: out[threadIdx.x] =((a[i48]) +(b[i48]))

Reaching the end of the kernel
unsatisfiable


#####################################################################

No races or synchronization errors were found.

Max instance solving time = 0.009484s
Total solving time = 0.009484s

#####################################################################

