"/home/verify/datasets/micro-benchmarks/pug/nested-loops-3.c", line 83: warning: 
          function "kernel" was declared but never referenced
  __global__ void kernel (float* out, float* a, float* b, int ub) {
                  ^

>>>> start analysis ... 


-------------------------------------------------------
Invalid OVERFLOW_PROTECTION flag in config.txt!
Setting OVERFLOW_PROTECTION flag to on
-------------------------------------------------------

-------------------------------------------------------
Invalid NBITS value in config.txt!
Setting NBITS value to 10
-------------------------------------------------------

-------------------------------------------------------
Invalid USE_INCRSMT flag in config.txt!
Setting USE_INCRSMT flag to false
-------------------------------------------------------


-------------------------------------------------------
Invalid USE_LOOP_REFINEMENT flag in config.txt!
Setting USE_LOOP_REFINEMENT flag to true
-------------------------------------------------------


-------------------------------------------------------
Invalid SLICE_ARRAYS flag in config.txt!
Setting SLICE_ARRAYS flag to true
-------------------------------------------------------


-------------------------------------------------------
Invalid USE_ASSUMES flag in config.txt!
Setting USE_ASSUMES flag to true
-------------------------------------------------------


-------------------------------------------------------
Invalid CHK_BANK_CONFLICTS option in config.txt!
Setting CHK_BANK_CONFLICTS option to false
-------------------------------------------------------

Debug level (verbosity) set to 0


Processing function: kernel
containBarrierFlag = 0
incrExpr = i0++
------------- Already normalized 
rangeExpr = ((!1^i00 >= 0) && (!1^i00 <= (ub0 - 1))); substExpr = 

Binary OP: out[threadIdx.x] =((a[i0]) +(b[i0]))
containBarrierFlag = 0
incrExpr = i1++
------------- Already normalized 
rangeExpr = ((!2^i10 >= 0) && (!2^i10 <= (ub0 - 1))); substExpr = 

Binary OP: out[threadIdx.x] =((a[i1]) +(b[i1]))
containBarrierFlag = 0
incrExpr = i2++
------------- Already normalized 
rangeExpr = ((!3^i20 >= 0) && (!3^i20 <= (ub0 - 1))); substExpr = 

Binary OP: out[threadIdx.x] =((a[i2]) +(b[i2]))

Reaching the end of the kernel
unsatisfiable


#####################################################################

No races or synchronization errors were found.

Max instance solving time = 0.00046s
Total solving time = 0.00046s

#####################################################################

