"/home/verify/datasets/micro-benchmarks/pug/ifs-30.c", line 84: warning: 
          function "kernel" was declared but never referenced
  __global__ void kernel (float* out, float* a, float* b) {
                  ^

>>>> start analysis ... 


-------------------------------------------------------
Invalid OVERFLOW_PROTECTION flag in config.txt!
Setting OVERFLOW_PROTECTION flag to on
-------------------------------------------------------

-------------------------------------------------------
Invalid NBITS value in config.txt!
Setting NBITS value to 10
-------------------------------------------------------

-------------------------------------------------------
Invalid USE_INCRSMT flag in config.txt!
Setting USE_INCRSMT flag to false
-------------------------------------------------------


-------------------------------------------------------
Invalid USE_LOOP_REFINEMENT flag in config.txt!
Setting USE_LOOP_REFINEMENT flag to true
-------------------------------------------------------


-------------------------------------------------------
Invalid SLICE_ARRAYS flag in config.txt!
Setting SLICE_ARRAYS flag to true
-------------------------------------------------------


-------------------------------------------------------
Invalid USE_ASSUMES flag in config.txt!
Setting USE_ASSUMES flag to true
-------------------------------------------------------


-------------------------------------------------------
Invalid CHK_BANK_CONFLICTS option in config.txt!
Setting CHK_BANK_CONFLICTS option to false
-------------------------------------------------------

Debug level (verbosity) set to 0


Processing function: kernel

FunctionCall: assume(((blockDim.x) ==(64)))
Assuming bdim.x == 64

FunctionCall: assume(((gridDim.x) ==(1)))
Assuming gdim.x == 1

Binary OP: out[threadIdx.x] =((a[0]) +(b[0]))

Binary OP: out[threadIdx.x] =((a[1]) +(b[1]))

Binary OP: out[threadIdx.x] =((a[2]) +(b[2]))

Binary OP: out[threadIdx.x] =((a[3]) +(b[3]))

Binary OP: out[threadIdx.x] =((a[4]) +(b[4]))

Binary OP: out[threadIdx.x] =((a[5]) +(b[5]))

Binary OP: out[threadIdx.x] =((a[6]) +(b[6]))

Binary OP: out[threadIdx.x] =((a[7]) +(b[7]))

Binary OP: out[threadIdx.x] =((a[8]) +(b[8]))

Binary OP: out[threadIdx.x] =((a[9]) +(b[9]))

Binary OP: out[threadIdx.x] =((a[10]) +(b[10]))

Binary OP: out[threadIdx.x] =((a[11]) +(b[11]))

Binary OP: out[threadIdx.x] =((a[12]) +(b[12]))

Binary OP: out[threadIdx.x] =((a[13]) +(b[13]))

Binary OP: out[threadIdx.x] =((a[14]) +(b[14]))

Binary OP: out[threadIdx.x] =((a[15]) +(b[15]))

Binary OP: out[threadIdx.x] =((a[16]) +(b[16]))

Binary OP: out[threadIdx.x] =((a[17]) +(b[17]))

Binary OP: out[threadIdx.x] =((a[18]) +(b[18]))

Binary OP: out[threadIdx.x] =((a[19]) +(b[19]))

Binary OP: out[threadIdx.x] =((a[20]) +(b[20]))

Binary OP: out[threadIdx.x] =((a[21]) +(b[21]))

Binary OP: out[threadIdx.x] =((a[22]) +(b[22]))

Binary OP: out[threadIdx.x] =((a[23]) +(b[23]))

Binary OP: out[threadIdx.x] =((a[24]) +(b[24]))

Binary OP: out[threadIdx.x] =((a[25]) +(b[25]))

Binary OP: out[threadIdx.x] =((a[26]) +(b[26]))

Binary OP: out[threadIdx.x] =((a[27]) +(b[27]))

Binary OP: out[threadIdx.x] =((a[28]) +(b[28]))

Binary OP: out[threadIdx.x] =((a[29]) +(b[29]))

Reaching the end of the kernel
unsatisfiable


#####################################################################

No races or synchronization errors were found.

Max instance solving time = 0.008464s
Total solving time = 0.008464s

#####################################################################

