"/home/verify/datasets/micro-benchmarks/pug/accs-35.c", line 83: warning: 
          function "kernel" was declared but never referenced
  __global__ void kernel (float* out) {
                  ^

>>>> start analysis ... 


-------------------------------------------------------
Invalid OVERFLOW_PROTECTION flag in config.txt!
Setting OVERFLOW_PROTECTION flag to on
-------------------------------------------------------

-------------------------------------------------------
Invalid NBITS value in config.txt!
Setting NBITS value to 10
-------------------------------------------------------

-------------------------------------------------------
Invalid USE_INCRSMT flag in config.txt!
Setting USE_INCRSMT flag to false
-------------------------------------------------------


-------------------------------------------------------
Invalid USE_LOOP_REFINEMENT flag in config.txt!
Setting USE_LOOP_REFINEMENT flag to true
-------------------------------------------------------


-------------------------------------------------------
Invalid SLICE_ARRAYS flag in config.txt!
Setting SLICE_ARRAYS flag to true
-------------------------------------------------------


-------------------------------------------------------
Invalid USE_ASSUMES flag in config.txt!
Setting USE_ASSUMES flag to true
-------------------------------------------------------


-------------------------------------------------------
Invalid CHK_BANK_CONFLICTS option in config.txt!
Setting CHK_BANK_CONFLICTS option to false
-------------------------------------------------------

Debug level (verbosity) set to 0


Processing function: kernel

Binary OP: out[(threadIdx.x) +((0) *(blockDim.x))] =(out[(threadIdx.x) +((9) *(blockDim.x))])

Binary OP: out[(threadIdx.x) +((1) *(blockDim.x))] =(out[(threadIdx.x) +((60) *(blockDim.x))])

Binary OP: out[(threadIdx.x) +((2) *(blockDim.x))] =(out[(threadIdx.x) +((11) *(blockDim.x))])

Binary OP: out[(threadIdx.x) +((3) *(blockDim.x))] =(out[(threadIdx.x) +((3) *(blockDim.x))])

Binary OP: out[(threadIdx.x) +((4) *(blockDim.x))] =(out[(threadIdx.x) +((38) *(blockDim.x))])

Binary OP: out[(threadIdx.x) +((5) *(blockDim.x))] =(out[(threadIdx.x) +((38) *(blockDim.x))])

Binary OP: out[(threadIdx.x) +((6) *(blockDim.x))] =(out[(threadIdx.x) +((43) *(blockDim.x))])

Binary OP: out[(threadIdx.x) +((7) *(blockDim.x))] =(out[(threadIdx.x) +((42) *(blockDim.x))])

Binary OP: out[(threadIdx.x) +((8) *(blockDim.x))] =(out[(threadIdx.x) +((31) *(blockDim.x))])

Binary OP: out[(threadIdx.x) +((9) *(blockDim.x))] =(out[(threadIdx.x) +((33) *(blockDim.x))])

Binary OP: out[(threadIdx.x) +((10) *(blockDim.x))] =(out[(threadIdx.x) +((37) *(blockDim.x))])

Binary OP: out[(threadIdx.x) +((11) *(blockDim.x))] =(out[(threadIdx.x) +((55) *(blockDim.x))])

Binary OP: out[(threadIdx.x) +((12) *(blockDim.x))] =(out[(threadIdx.x) +((4) *(blockDim.x))])

Binary OP: out[(threadIdx.x) +((13) *(blockDim.x))] =(out[(threadIdx.x) +((50) *(blockDim.x))])

Binary OP: out[(threadIdx.x) +((14) *(blockDim.x))] =(out[(threadIdx.x) +((30) *(blockDim.x))])

Binary OP: out[(threadIdx.x) +((15) *(blockDim.x))] =(out[(threadIdx.x) +((50) *(blockDim.x))])

Binary OP: out[(threadIdx.x) +((16) *(blockDim.x))] =(out[(threadIdx.x) +((28) *(blockDim.x))])

Binary OP: out[(threadIdx.x) +((17) *(blockDim.x))] =(out[(threadIdx.x) +((22) *(blockDim.x))])

Binary OP: out[(threadIdx.x) +((18) *(blockDim.x))] =(out[(threadIdx.x) +((40) *(blockDim.x))])

Binary OP: out[(threadIdx.x) +((19) *(blockDim.x))] =(out[(threadIdx.x) +((60) *(blockDim.x))])

Binary OP: out[(threadIdx.x) +((20) *(blockDim.x))] =(out[(threadIdx.x) +((14) *(blockDim.x))])

Binary OP: out[(threadIdx.x) +((21) *(blockDim.x))] =(out[(threadIdx.x) +((35) *(blockDim.x))])

Binary OP: out[(threadIdx.x) +((22) *(blockDim.x))] =(out[(threadIdx.x) +((23) *(blockDim.x))])

Binary OP: out[(threadIdx.x) +((23) *(blockDim.x))] =(out[(threadIdx.x) +((26) *(blockDim.x))])

Binary OP: out[(threadIdx.x) +((24) *(blockDim.x))] =(out[(threadIdx.x) +((21) *(blockDim.x))])

Binary OP: out[(threadIdx.x) +((25) *(blockDim.x))] =(out[(threadIdx.x) +((12) *(blockDim.x))])

Binary OP: out[(threadIdx.x) +((26) *(blockDim.x))] =(out[(threadIdx.x) +((53) *(blockDim.x))])

Binary OP: out[(threadIdx.x) +((27) *(blockDim.x))] =(out[(threadIdx.x) +((40) *(blockDim.x))])

Binary OP: out[(threadIdx.x) +((28) *(blockDim.x))] =(out[(threadIdx.x) +((44) *(blockDim.x))])

Binary OP: out[(threadIdx.x) +((29) *(blockDim.x))] =(out[(threadIdx.x) +((38) *(blockDim.x))])

Binary OP: out[(threadIdx.x) +((30) *(blockDim.x))] =(out[(threadIdx.x) +((14) *(blockDim.x))])

Binary OP: out[(threadIdx.x) +((31) *(blockDim.x))] =(out[(threadIdx.x) +((36) *(blockDim.x))])

Binary OP: out[(threadIdx.x) +((32) *(blockDim.x))] =(out[(threadIdx.x) +((52) *(blockDim.x))])

Binary OP: out[(threadIdx.x) +((33) *(blockDim.x))] =(out[(threadIdx.x) +((54) *(blockDim.x))])

Binary OP: out[(threadIdx.x) +((34) *(blockDim.x))] =(out[(threadIdx.x) +((41) *(blockDim.x))])

Reaching the end of the kernel
terminate called after throwing an instance of 'yices::type_checker_exception'
  what():  invalid shift operation.
/opt/pug/pug: line 3: 13018 Aborted                 (core dumped) LD_LIBRARY_PATH="$PREFIX/lib" "$PREFIX/bin/pug" "$@"
