nested-loops-sync-31.cpp:147:31: error: indirection requires pointer operand ('unsigned long' invalid)
    cudaMalloc((void**)&out,  * sizeof(float));
                              ^ ~~~~~~~~~~~~~
nested-loops-sync-31.cpp:151:29: error: indirection requires pointer operand ('unsigned long' invalid)
    cudaMalloc((void**)&a,  * sizeof(float));
                            ^ ~~~~~~~~~~~~~
nested-loops-sync-31.cpp:155:29: error: indirection requires pointer operand ('unsigned long' invalid)
    cudaMalloc((void**)&b,  * sizeof(float));
                            ^ ~~~~~~~~~~~~~
3 errors generated.
opt: gklee/nested-loops-sync-31.bc: error: Could not open input file: No such file or directory
RUN /opt/gklee/gklee-nvcc gklee/nested-loops-sync-31.cu -o gklee/nested-loops-sync-31.bc
RUN /opt/gklee/sesa gklee/nested-loops-sync-31.bc -o gklee/nested-loops-sync-31.sesa
DEL /home/verify/datasets/micro-benchmarks/nested-loops-sync-31.cpp
DEL /home/verify/datasets/micro-benchmarks/nested-loops-sync-31.kernelSet.txt
