nested-loops-21.cpp:86:31: error: indirection requires pointer operand ('unsigned long' invalid)
    cudaMalloc((void**)&out,  * sizeof(float));
                              ^ ~~~~~~~~~~~~~
nested-loops-21.cpp:90:29: error: indirection requires pointer operand ('unsigned long' invalid)
    cudaMalloc((void**)&a,  * sizeof(float));
                            ^ ~~~~~~~~~~~~~
nested-loops-21.cpp:94:29: error: indirection requires pointer operand ('unsigned long' invalid)
    cudaMalloc((void**)&b,  * sizeof(float));
                            ^ ~~~~~~~~~~~~~
3 errors generated.
opt: gklee/nested-loops-21.bc: error: Could not open input file: No such file or directory
RUN /opt/gklee/gklee-nvcc gklee/nested-loops-21.cu -o gklee/nested-loops-21.bc
RUN /opt/gklee/sesa gklee/nested-loops-21.bc -o gklee/nested-loops-21.sesa
DEL /home/verify/datasets/micro-benchmarks/nested-loops-21.cpp
DEL /home/verify/datasets/micro-benchmarks/nested-loops-21.kernelSet.txt
