nested-loops-36.cpp:131:31: error: indirection requires pointer operand ('unsigned long' invalid)
    cudaMalloc((void**)&out,  * sizeof(float));
                              ^ ~~~~~~~~~~~~~
nested-loops-36.cpp:135:29: error: indirection requires pointer operand ('unsigned long' invalid)
    cudaMalloc((void**)&a,  * sizeof(float));
                            ^ ~~~~~~~~~~~~~
nested-loops-36.cpp:139:29: error: indirection requires pointer operand ('unsigned long' invalid)
    cudaMalloc((void**)&b,  * sizeof(float));
                            ^ ~~~~~~~~~~~~~
3 errors generated.
opt: gklee/nested-loops-36.bc: error: Could not open input file: No such file or directory
RUN /opt/gklee/gklee-nvcc gklee/nested-loops-36.cu -o gklee/nested-loops-36.bc
RUN /opt/gklee/sesa gklee/nested-loops-36.bc -o gklee/nested-loops-36.sesa
DEL /home/verify/datasets/micro-benchmarks/nested-loops-36.cpp
DEL /home/verify/datasets/micro-benchmarks/nested-loops-36.kernelSet.txt
