Configuration: concurrency bug checking level is: 2
KLEE: output directory = "klee-out-0"
KLEE: WARNING: undefined reference to function: __clear_device
KLEE: WARNING: undefined reference to function: __clear_host
KLEE: WARNING: undefined reference to function: __set_CUDAConfig
KLEE: WARNING: undefined reference to function: __set_device
KLEE: WARNING: undefined reference to function: __set_host
KLEE: WARNING: undefined reference to variable: threadIdx

[GKLEE]: The configuration, Grid: <1, 1, 1>, Block: <64, 1, 1>
KLEE: WARNING: silently concretizing (reason: floating point) expression (ReadLSB w32 N0:(Extract w32 0 (Mul w64 4
                                        (ZExt w64 (ReadLSB w32 0 tid_arr_k0_0)))) const_arr1) to value 2880154539 (/home/verify/datasets/micro-benchmarks/barriers-19.cpp:12)

[GKLEE]: Start executing a GPU kernel 

Thread 0 reaches a barrier: moving to the next thread.

[GKLEE]: ********** (Symbolic Configuration) Start checking bank conflicts at SharedMemory  **********
[GKLEE]: The read set is empty in bank conflict checking for capability 2.x
[GKLEE]: The write set is empty in bank conflict checking for capability 2.x
[GKLEE]: ********** No Bank Conflict found at this SharedMemory **********

[GKLEE]: ********** (Symbolic Configuration) Start checking coalesced device memory access at capability: 2.x **********
[GKLEE]: ********** All memory accesses are coalesced at capability: 2.x **********

[GKLEE]: ********** (Symbolic Configuration) Start checking warp divergence  **********
[GKLEE]: ********** Warp Divergence not found for this kernel **********

[GKLEE]: ********** (Symbolic Config) Start checking missed volatile at SharedMemory  ********** 
[GKLEE]: ********** No 'Volatile' Qualifier Missed at this SharedMemory **********

[GKLEE]: ********** (Symbolic Config) Start checking races at SharedMemory  **********
[GKLEE]: ++++++++++ Read-Write race checking (Pure Canonical Schedule) ++++++++++
[GKLEE]: ++++++++++ Write-Write race checking (Pure Canonical Schedule) ++++++++++
[GKLEE]: ********** no races found at SharedMemory ***********

[GKLEE]: ********** (Symbolic Config) Start checking races at DeviceMemory (Within Same Block)  **********
[GKLEE]: ++++++++++ Read-Write race checking (Pure Canonical Schedule) ++++++++++
[GKLEE]: ++++++++++ Write-Write race checking (Pure Canonical Schedule) ++++++++++
[GKLEE]: ********* no races found at DeviceMemory **********
[GKLEE]: Within the current Barrier Interval, 1 flows are used to represent all threads !
[GKLEE]: In Barrier Interval 1, Elapsed time for symbolic configuration (Parametric Flow): 0.025537
Thread 0 reaches a barrier: moving to the next thread.

[GKLEE]: ********** (Symbolic Configuration) Start checking bank conflicts at SharedMemory  **********
[GKLEE]: The read set is empty in bank conflict checking for capability 2.x
[GKLEE]: The write set is empty in bank conflict checking for capability 2.x
[GKLEE]: ********** No Bank Conflict found at this SharedMemory **********

[GKLEE]: ********** (Symbolic Configuration) Start checking coalesced device memory access at capability: 2.x **********
[GKLEE]: ********** All memory accesses are coalesced at capability: 2.x **********

[GKLEE]: ********** (Symbolic Configuration) Start checking warp divergence  **********
[GKLEE]: ********** Warp Divergence not found for this kernel **********

[GKLEE]: ********** (Symbolic Config) Start checking missed volatile at SharedMemory  ********** 
[GKLEE]: ********** No 'Volatile' Qualifier Missed at this SharedMemory **********

[GKLEE]: ********** (Symbolic Config) Start checking races at SharedMemory  **********
[GKLEE]: ++++++++++ Read-Write race checking (Pure Canonical Schedule) ++++++++++
[GKLEE]: ++++++++++ Write-Write race checking (Pure Canonical Schedule) ++++++++++
[GKLEE]: ********** no races found at SharedMemory ***********

[GKLEE]: ********** (Symbolic Config) Start checking races at DeviceMemory (Within Same Block)  **********
[GKLEE]: ++++++++++ Read-Write race checking (Pure Canonical Schedule) ++++++++++
[GKLEE]: ++++++++++ Write-Write race checking (Pure Canonical Schedule) ++++++++++
[GKLEE]: ********* no races found at DeviceMemory **********
[GKLEE]: Within the current Barrier Interval, 1 flows are used to represent all threads !
[GKLEE]: In Barrier Interval 2, Elapsed time for symbolic configuration (Parametric Flow): 0.007205
Thread 0 reaches a barrier: moving to the next thread.

[GKLEE]: ********** (Symbolic Configuration) Start checking bank conflicts at SharedMemory  **********
[GKLEE]: The read set is empty in bank conflict checking for capability 2.x
[GKLEE]: The write set is empty in bank conflict checking for capability 2.x
[GKLEE]: ********** No Bank Conflict found at this SharedMemory **********

[GKLEE]: ********** (Symbolic Configuration) Start checking coalesced device memory access at capability: 2.x **********
[GKLEE]: ********** All memory accesses are coalesced at capability: 2.x **********

[GKLEE]: ********** (Symbolic Configuration) Start checking warp divergence  **********
[GKLEE]: ********** Warp Divergence not found for this kernel **********

[GKLEE]: ********** (Symbolic Config) Start checking missed volatile at SharedMemory  ********** 
[GKLEE]: ********** No 'Volatile' Qualifier Missed at this SharedMemory **********

[GKLEE]: ********** (Symbolic Config) Start checking races at SharedMemory  **********
[GKLEE]: ++++++++++ Read-Write race checking (Pure Canonical Schedule) ++++++++++
[GKLEE]: ++++++++++ Write-Write race checking (Pure Canonical Schedule) ++++++++++
[GKLEE]: ********** no races found at SharedMemory ***********

[GKLEE]: ********** (Symbolic Config) Start checking races at DeviceMemory (Within Same Block)  **********
[GKLEE]: ++++++++++ Read-Write race checking (Pure Canonical Schedule) ++++++++++
[GKLEE]: ++++++++++ Write-Write race checking (Pure Canonical Schedule) ++++++++++
[GKLEE]: ********* no races found at DeviceMemory **********
[GKLEE]: Within the current Barrier Interval, 1 flows are used to represent all threads !
[GKLEE]: In Barrier Interval 3, Elapsed time for symbolic configuration (Parametric Flow): 0.007113
Thread 0 reaches a barrier: moving to the next thread.

[GKLEE]: ********** (Symbolic Configuration) Start checking bank conflicts at SharedMemory  **********
[GKLEE]: The read set is empty in bank conflict checking for capability 2.x
[GKLEE]: The write set is empty in bank conflict checking for capability 2.x
[GKLEE]: ********** No Bank Conflict found at this SharedMemory **********

[GKLEE]: ********** (Symbolic Configuration) Start checking coalesced device memory access at capability: 2.x **********
[GKLEE]: ********** All memory accesses are coalesced at capability: 2.x **********

[GKLEE]: ********** (Symbolic Configuration) Start checking warp divergence  **********
[GKLEE]: ********** Warp Divergence not found for this kernel **********

[GKLEE]: ********** (Symbolic Config) Start checking missed volatile at SharedMemory  ********** 
[GKLEE]: ********** No 'Volatile' Qualifier Missed at this SharedMemory **********

[GKLEE]: ********** (Symbolic Config) Start checking races at SharedMemory  **********
[GKLEE]: ++++++++++ Read-Write race checking (Pure Canonical Schedule) ++++++++++
[GKLEE]: ++++++++++ Write-Write race checking (Pure Canonical Schedule) ++++++++++
[GKLEE]: ********** no races found at SharedMemory ***********

[GKLEE]: ********** (Symbolic Config) Start checking races at DeviceMemory (Within Same Block)  **********
[GKLEE]: ++++++++++ Read-Write race checking (Pure Canonical Schedule) ++++++++++
[GKLEE]: ++++++++++ Write-Write race checking (Pure Canonical Schedule) ++++++++++
[GKLEE]: ********* no races found at DeviceMemory **********
[GKLEE]: Within the current Barrier Interval, 1 flows are used to represent all threads !
[GKLEE]: In Barrier Interval 4, Elapsed time for symbolic configuration (Parametric Flow): 0.006886
Thread 0 reaches a barrier: moving to the next thread.

[GKLEE]: ********** (Symbolic Configuration) Start checking bank conflicts at SharedMemory  **********
[GKLEE]: The read set is empty in bank conflict checking for capability 2.x
[GKLEE]: The write set is empty in bank conflict checking for capability 2.x
[GKLEE]: ********** No Bank Conflict found at this SharedMemory **********

[GKLEE]: ********** (Symbolic Configuration) Start checking coalesced device memory access at capability: 2.x **********
[GKLEE]: ********** All memory accesses are coalesced at capability: 2.x **********

[GKLEE]: ********** (Symbolic Configuration) Start checking warp divergence  **********
[GKLEE]: ********** Warp Divergence not found for this kernel **********

[GKLEE]: ********** (Symbolic Config) Start checking missed volatile at SharedMemory  ********** 
[GKLEE]: ********** No 'Volatile' Qualifier Missed at this SharedMemory **********

[GKLEE]: ********** (Symbolic Config) Start checking races at SharedMemory  **********
[GKLEE]: ++++++++++ Read-Write race checking (Pure Canonical Schedule) ++++++++++
[GKLEE]: ++++++++++ Write-Write race checking (Pure Canonical Schedule) ++++++++++
[GKLEE]: ********** no races found at SharedMemory ***********

[GKLEE]: ********** (Symbolic Config) Start checking races at DeviceMemory (Within Same Block)  **********
[GKLEE]: ++++++++++ Read-Write race checking (Pure Canonical Schedule) ++++++++++
[GKLEE]: ++++++++++ Write-Write race checking (Pure Canonical Schedule) ++++++++++
[GKLEE]: ********* no races found at DeviceMemory **********
[GKLEE]: Within the current Barrier Interval, 1 flows are used to represent all threads !
[GKLEE]: In Barrier Interval 5, Elapsed time for symbolic configuration (Parametric Flow): 0.006705
Thread 0 reaches a barrier: moving to the next thread.

[GKLEE]: ********** (Symbolic Configuration) Start checking bank conflicts at SharedMemory  **********
[GKLEE]: The read set is empty in bank conflict checking for capability 2.x
[GKLEE]: The write set is empty in bank conflict checking for capability 2.x
[GKLEE]: ********** No Bank Conflict found at this SharedMemory **********

[GKLEE]: ********** (Symbolic Configuration) Start checking coalesced device memory access at capability: 2.x **********
[GKLEE]: ********** All memory accesses are coalesced at capability: 2.x **********

[GKLEE]: ********** (Symbolic Configuration) Start checking warp divergence  **********
[GKLEE]: ********** Warp Divergence not found for this kernel **********

[GKLEE]: ********** (Symbolic Config) Start checking missed volatile at SharedMemory  ********** 
[GKLEE]: ********** No 'Volatile' Qualifier Missed at this SharedMemory **********

[GKLEE]: ********** (Symbolic Config) Start checking races at SharedMemory  **********
[GKLEE]: ++++++++++ Read-Write race checking (Pure Canonical Schedule) ++++++++++
[GKLEE]: ++++++++++ Write-Write race checking (Pure Canonical Schedule) ++++++++++
[GKLEE]: ********** no races found at SharedMemory ***********

[GKLEE]: ********** (Symbolic Config) Start checking races at DeviceMemory (Within Same Block)  **********
[GKLEE]: ++++++++++ Read-Write race checking (Pure Canonical Schedule) ++++++++++
[GKLEE]: ++++++++++ Write-Write race checking (Pure Canonical Schedule) ++++++++++
[GKLEE]: ********* no races found at DeviceMemory **********
[GKLEE]: Within the current Barrier Interval, 1 flows are used to represent all threads !
[GKLEE]: In Barrier Interval 6, Elapsed time for symbolic configuration (Parametric Flow): 0.007449
Thread 0 reaches a barrier: moving to the next thread.

[GKLEE]: ********** (Symbolic Configuration) Start checking bank conflicts at SharedMemory  **********
[GKLEE]: The read set is empty in bank conflict checking for capability 2.x
[GKLEE]: The write set is empty in bank conflict checking for capability 2.x
[GKLEE]: ********** No Bank Conflict found at this SharedMemory **********

[GKLEE]: ********** (Symbolic Configuration) Start checking coalesced device memory access at capability: 2.x **********
[GKLEE]: ********** All memory accesses are coalesced at capability: 2.x **********

[GKLEE]: ********** (Symbolic Configuration) Start checking warp divergence  **********
[GKLEE]: ********** Warp Divergence not found for this kernel **********

[GKLEE]: ********** (Symbolic Config) Start checking missed volatile at SharedMemory  ********** 
[GKLEE]: ********** No 'Volatile' Qualifier Missed at this SharedMemory **********

[GKLEE]: ********** (Symbolic Config) Start checking races at SharedMemory  **********
[GKLEE]: ++++++++++ Read-Write race checking (Pure Canonical Schedule) ++++++++++
[GKLEE]: ++++++++++ Write-Write race checking (Pure Canonical Schedule) ++++++++++
[GKLEE]: ********** no races found at SharedMemory ***********

[GKLEE]: ********** (Symbolic Config) Start checking races at DeviceMemory (Within Same Block)  **********
[GKLEE]: ++++++++++ Read-Write race checking (Pure Canonical Schedule) ++++++++++
[GKLEE]: ++++++++++ Write-Write race checking (Pure Canonical Schedule) ++++++++++
[GKLEE]: ********* no races found at DeviceMemory **********
[GKLEE]: Within the current Barrier Interval, 1 flows are used to represent all threads !
[GKLEE]: In Barrier Interval 7, Elapsed time for symbolic configuration (Parametric Flow): 0.007208
Thread 0 reaches a barrier: moving to the next thread.

[GKLEE]: ********** (Symbolic Configuration) Start checking bank conflicts at SharedMemory  **********
[GKLEE]: The read set is empty in bank conflict checking for capability 2.x
[GKLEE]: The write set is empty in bank conflict checking for capability 2.x
[GKLEE]: ********** No Bank Conflict found at this SharedMemory **********

[GKLEE]: ********** (Symbolic Configuration) Start checking coalesced device memory access at capability: 2.x **********
[GKLEE]: ********** All memory accesses are coalesced at capability: 2.x **********

[GKLEE]: ********** (Symbolic Configuration) Start checking warp divergence  **********
[GKLEE]: ********** Warp Divergence not found for this kernel **********

[GKLEE]: ********** (Symbolic Config) Start checking missed volatile at SharedMemory  ********** 
[GKLEE]: ********** No 'Volatile' Qualifier Missed at this SharedMemory **********

[GKLEE]: ********** (Symbolic Config) Start checking races at SharedMemory  **********
[GKLEE]: ++++++++++ Read-Write race checking (Pure Canonical Schedule) ++++++++++
[GKLEE]: ++++++++++ Write-Write race checking (Pure Canonical Schedule) ++++++++++
[GKLEE]: ********** no races found at SharedMemory ***********

[GKLEE]: ********** (Symbolic Config) Start checking races at DeviceMemory (Within Same Block)  **********
[GKLEE]: ++++++++++ Read-Write race checking (Pure Canonical Schedule) ++++++++++
[GKLEE]: ++++++++++ Write-Write race checking (Pure Canonical Schedule) ++++++++++
[GKLEE]: ********* no races found at DeviceMemory **********
[GKLEE]: Within the current Barrier Interval, 1 flows are used to represent all threads !
[GKLEE]: In Barrier Interval 8, Elapsed time for symbolic configuration (Parametric Flow): 0.007291
Thread 0 reaches a barrier: moving to the next thread.

[GKLEE]: ********** (Symbolic Configuration) Start checking bank conflicts at SharedMemory  **********
[GKLEE]: The read set is empty in bank conflict checking for capability 2.x
[GKLEE]: The write set is empty in bank conflict checking for capability 2.x
[GKLEE]: ********** No Bank Conflict found at this SharedMemory **********

[GKLEE]: ********** (Symbolic Configuration) Start checking coalesced device memory access at capability: 2.x **********
[GKLEE]: ********** All memory accesses are coalesced at capability: 2.x **********

[GKLEE]: ********** (Symbolic Configuration) Start checking warp divergence  **********
[GKLEE]: ********** Warp Divergence not found for this kernel **********

[GKLEE]: ********** (Symbolic Config) Start checking missed volatile at SharedMemory  ********** 
[GKLEE]: ********** No 'Volatile' Qualifier Missed at this SharedMemory **********

[GKLEE]: ********** (Symbolic Config) Start checking races at SharedMemory  **********
[GKLEE]: ++++++++++ Read-Write race checking (Pure Canonical Schedule) ++++++++++
[GKLEE]: ++++++++++ Write-Write race checking (Pure Canonical Schedule) ++++++++++
[GKLEE]: ********** no races found at SharedMemory ***********

[GKLEE]: ********** (Symbolic Config) Start checking races at DeviceMemory (Within Same Block)  **********
[GKLEE]: ++++++++++ Read-Write race checking (Pure Canonical Schedule) ++++++++++
[GKLEE]: ++++++++++ Write-Write race checking (Pure Canonical Schedule) ++++++++++
[GKLEE]: ********* no races found at DeviceMemory **********
[GKLEE]: Within the current Barrier Interval, 1 flows are used to represent all threads !
[GKLEE]: In Barrier Interval 9, Elapsed time for symbolic configuration (Parametric Flow): 0.007162
Thread 0 reaches a barrier: moving to the next thread.

[GKLEE]: ********** (Symbolic Configuration) Start checking bank conflicts at SharedMemory  **********
[GKLEE]: The read set is empty in bank conflict checking for capability 2.x
[GKLEE]: The write set is empty in bank conflict checking for capability 2.x
[GKLEE]: ********** No Bank Conflict found at this SharedMemory **********

[GKLEE]: ********** (Symbolic Configuration) Start checking coalesced device memory access at capability: 2.x **********
[GKLEE]: ********** All memory accesses are coalesced at capability: 2.x **********

[GKLEE]: ********** (Symbolic Configuration) Start checking warp divergence  **********
[GKLEE]: ********** Warp Divergence not found for this kernel **********

[GKLEE]: ********** (Symbolic Config) Start checking missed volatile at SharedMemory  ********** 
[GKLEE]: ********** No 'Volatile' Qualifier Missed at this SharedMemory **********

[GKLEE]: ********** (Symbolic Config) Start checking races at SharedMemory  **********
[GKLEE]: ++++++++++ Read-Write race checking (Pure Canonical Schedule) ++++++++++
[GKLEE]: ++++++++++ Write-Write race checking (Pure Canonical Schedule) ++++++++++
[GKLEE]: ********** no races found at SharedMemory ***********

[GKLEE]: ********** (Symbolic Config) Start checking races at DeviceMemory (Within Same Block)  **********
[GKLEE]: ++++++++++ Read-Write race checking (Pure Canonical Schedule) ++++++++++
[GKLEE]: ++++++++++ Write-Write race checking (Pure Canonical Schedule) ++++++++++
[GKLEE]: ********* no races found at DeviceMemory **********
[GKLEE]: Within the current Barrier Interval, 1 flows are used to represent all threads !
[GKLEE]: In Barrier Interval 10, Elapsed time for symbolic configuration (Parametric Flow): 0.007138
Thread 0 reaches a barrier: moving to the next thread.

[GKLEE]: ********** (Symbolic Configuration) Start checking bank conflicts at SharedMemory  **********
[GKLEE]: The read set is empty in bank conflict checking for capability 2.x
[GKLEE]: The write set is empty in bank conflict checking for capability 2.x
[GKLEE]: ********** No Bank Conflict found at this SharedMemory **********

[GKLEE]: ********** (Symbolic Configuration) Start checking coalesced device memory access at capability: 2.x **********
[GKLEE]: ********** All memory accesses are coalesced at capability: 2.x **********

[GKLEE]: ********** (Symbolic Configuration) Start checking warp divergence  **********
[GKLEE]: ********** Warp Divergence not found for this kernel **********

[GKLEE]: ********** (Symbolic Config) Start checking missed volatile at SharedMemory  ********** 
[GKLEE]: ********** No 'Volatile' Qualifier Missed at this SharedMemory **********

[GKLEE]: ********** (Symbolic Config) Start checking races at SharedMemory  **********
[GKLEE]: ++++++++++ Read-Write race checking (Pure Canonical Schedule) ++++++++++
[GKLEE]: ++++++++++ Write-Write race checking (Pure Canonical Schedule) ++++++++++
[GKLEE]: ********** no races found at SharedMemory ***********

[GKLEE]: ********** (Symbolic Config) Start checking races at DeviceMemory (Within Same Block)  **********
[GKLEE]: ++++++++++ Read-Write race checking (Pure Canonical Schedule) ++++++++++
[GKLEE]: ++++++++++ Write-Write race checking (Pure Canonical Schedule) ++++++++++
[GKLEE]: ********* no races found at DeviceMemory **********
[GKLEE]: Within the current Barrier Interval, 1 flows are used to represent all threads !
[GKLEE]: In Barrier Interval 11, Elapsed time for symbolic configuration (Parametric Flow): 0.007036
Thread 0 reaches a barrier: moving to the next thread.

[GKLEE]: ********** (Symbolic Configuration) Start checking bank conflicts at SharedMemory  **********
[GKLEE]: The read set is empty in bank conflict checking for capability 2.x
[GKLEE]: The write set is empty in bank conflict checking for capability 2.x
[GKLEE]: ********** No Bank Conflict found at this SharedMemory **********

[GKLEE]: ********** (Symbolic Configuration) Start checking coalesced device memory access at capability: 2.x **********
[GKLEE]: ********** All memory accesses are coalesced at capability: 2.x **********

[GKLEE]: ********** (Symbolic Configuration) Start checking warp divergence  **********
[GKLEE]: ********** Warp Divergence not found for this kernel **********

[GKLEE]: ********** (Symbolic Config) Start checking missed volatile at SharedMemory  ********** 
[GKLEE]: ********** No 'Volatile' Qualifier Missed at this SharedMemory **********

[GKLEE]: ********** (Symbolic Config) Start checking races at SharedMemory  **********
[GKLEE]: ++++++++++ Read-Write race checking (Pure Canonical Schedule) ++++++++++
[GKLEE]: ++++++++++ Write-Write race checking (Pure Canonical Schedule) ++++++++++
[GKLEE]: ********** no races found at SharedMemory ***********

[GKLEE]: ********** (Symbolic Config) Start checking races at DeviceMemory (Within Same Block)  **********
[GKLEE]: ++++++++++ Read-Write race checking (Pure Canonical Schedule) ++++++++++
[GKLEE]: ++++++++++ Write-Write race checking (Pure Canonical Schedule) ++++++++++
[GKLEE]: ********* no races found at DeviceMemory **********
[GKLEE]: Within the current Barrier Interval, 1 flows are used to represent all threads !
[GKLEE]: In Barrier Interval 12, Elapsed time for symbolic configuration (Parametric Flow): 0.006713
Thread 0 reaches a barrier: moving to the next thread.

[GKLEE]: ********** (Symbolic Configuration) Start checking bank conflicts at SharedMemory  **********
[GKLEE]: The read set is empty in bank conflict checking for capability 2.x
[GKLEE]: The write set is empty in bank conflict checking for capability 2.x
[GKLEE]: ********** No Bank Conflict found at this SharedMemory **********

[GKLEE]: ********** (Symbolic Configuration) Start checking coalesced device memory access at capability: 2.x **********
[GKLEE]: ********** All memory accesses are coalesced at capability: 2.x **********

[GKLEE]: ********** (Symbolic Configuration) Start checking warp divergence  **********
[GKLEE]: ********** Warp Divergence not found for this kernel **********

[GKLEE]: ********** (Symbolic Config) Start checking missed volatile at SharedMemory  ********** 
[GKLEE]: ********** No 'Volatile' Qualifier Missed at this SharedMemory **********

[GKLEE]: ********** (Symbolic Config) Start checking races at SharedMemory  **********
[GKLEE]: ++++++++++ Read-Write race checking (Pure Canonical Schedule) ++++++++++
[GKLEE]: ++++++++++ Write-Write race checking (Pure Canonical Schedule) ++++++++++
[GKLEE]: ********** no races found at SharedMemory ***********

[GKLEE]: ********** (Symbolic Config) Start checking races at DeviceMemory (Within Same Block)  **********
[GKLEE]: ++++++++++ Read-Write race checking (Pure Canonical Schedule) ++++++++++
[GKLEE]: ++++++++++ Write-Write race checking (Pure Canonical Schedule) ++++++++++
[GKLEE]: ********* no races found at DeviceMemory **********
[GKLEE]: Within the current Barrier Interval, 1 flows are used to represent all threads !
[GKLEE]: In Barrier Interval 13, Elapsed time for symbolic configuration (Parametric Flow): 0.006639
Thread 0 reaches a barrier: moving to the next thread.

[GKLEE]: ********** (Symbolic Configuration) Start checking bank conflicts at SharedMemory  **********
[GKLEE]: The read set is empty in bank conflict checking for capability 2.x
[GKLEE]: The write set is empty in bank conflict checking for capability 2.x
[GKLEE]: ********** No Bank Conflict found at this SharedMemory **********

[GKLEE]: ********** (Symbolic Configuration) Start checking coalesced device memory access at capability: 2.x **********
[GKLEE]: ********** All memory accesses are coalesced at capability: 2.x **********

[GKLEE]: ********** (Symbolic Configuration) Start checking warp divergence  **********
[GKLEE]: ********** Warp Divergence not found for this kernel **********

[GKLEE]: ********** (Symbolic Config) Start checking missed volatile at SharedMemory  ********** 
[GKLEE]: ********** No 'Volatile' Qualifier Missed at this SharedMemory **********

[GKLEE]: ********** (Symbolic Config) Start checking races at SharedMemory  **********
[GKLEE]: ++++++++++ Read-Write race checking (Pure Canonical Schedule) ++++++++++
[GKLEE]: ++++++++++ Write-Write race checking (Pure Canonical Schedule) ++++++++++
[GKLEE]: ********** no races found at SharedMemory ***********

[GKLEE]: ********** (Symbolic Config) Start checking races at DeviceMemory (Within Same Block)  **********
[GKLEE]: ++++++++++ Read-Write race checking (Pure Canonical Schedule) ++++++++++
[GKLEE]: ++++++++++ Write-Write race checking (Pure Canonical Schedule) ++++++++++
[GKLEE]: ********* no races found at DeviceMemory **********
[GKLEE]: Within the current Barrier Interval, 1 flows are used to represent all threads !
[GKLEE]: In Barrier Interval 14, Elapsed time for symbolic configuration (Parametric Flow): 0.006512
Thread 0 reaches a barrier: moving to the next thread.

[GKLEE]: ********** (Symbolic Configuration) Start checking bank conflicts at SharedMemory  **********
[GKLEE]: The read set is empty in bank conflict checking for capability 2.x
[GKLEE]: The write set is empty in bank conflict checking for capability 2.x
[GKLEE]: ********** No Bank Conflict found at this SharedMemory **********

[GKLEE]: ********** (Symbolic Configuration) Start checking coalesced device memory access at capability: 2.x **********
[GKLEE]: ********** All memory accesses are coalesced at capability: 2.x **********

[GKLEE]: ********** (Symbolic Configuration) Start checking warp divergence  **********
[GKLEE]: ********** Warp Divergence not found for this kernel **********

[GKLEE]: ********** (Symbolic Config) Start checking missed volatile at SharedMemory  ********** 
[GKLEE]: ********** No 'Volatile' Qualifier Missed at this SharedMemory **********

[GKLEE]: ********** (Symbolic Config) Start checking races at SharedMemory  **********
[GKLEE]: ++++++++++ Read-Write race checking (Pure Canonical Schedule) ++++++++++
[GKLEE]: ++++++++++ Write-Write race checking (Pure Canonical Schedule) ++++++++++
[GKLEE]: ********** no races found at SharedMemory ***********

[GKLEE]: ********** (Symbolic Config) Start checking races at DeviceMemory (Within Same Block)  **********
[GKLEE]: ++++++++++ Read-Write race checking (Pure Canonical Schedule) ++++++++++
[GKLEE]: ++++++++++ Write-Write race checking (Pure Canonical Schedule) ++++++++++
[GKLEE]: ********* no races found at DeviceMemory **********
[GKLEE]: Within the current Barrier Interval, 1 flows are used to represent all threads !
[GKLEE]: In Barrier Interval 15, Elapsed time for symbolic configuration (Parametric Flow): 0.006492
Thread 0 reaches a barrier: moving to the next thread.

[GKLEE]: ********** (Symbolic Configuration) Start checking bank conflicts at SharedMemory  **********
[GKLEE]: The read set is empty in bank conflict checking for capability 2.x
[GKLEE]: The write set is empty in bank conflict checking for capability 2.x
[GKLEE]: ********** No Bank Conflict found at this SharedMemory **********

[GKLEE]: ********** (Symbolic Configuration) Start checking coalesced device memory access at capability: 2.x **********
[GKLEE]: ********** All memory accesses are coalesced at capability: 2.x **********

[GKLEE]: ********** (Symbolic Configuration) Start checking warp divergence  **********
[GKLEE]: ********** Warp Divergence not found for this kernel **********

[GKLEE]: ********** (Symbolic Config) Start checking missed volatile at SharedMemory  ********** 
[GKLEE]: ********** No 'Volatile' Qualifier Missed at this SharedMemory **********

[GKLEE]: ********** (Symbolic Config) Start checking races at SharedMemory  **********
[GKLEE]: ++++++++++ Read-Write race checking (Pure Canonical Schedule) ++++++++++
[GKLEE]: ++++++++++ Write-Write race checking (Pure Canonical Schedule) ++++++++++
[GKLEE]: ********** no races found at SharedMemory ***********

[GKLEE]: ********** (Symbolic Config) Start checking races at DeviceMemory (Within Same Block)  **********
[GKLEE]: ++++++++++ Read-Write race checking (Pure Canonical Schedule) ++++++++++
[GKLEE]: ++++++++++ Write-Write race checking (Pure Canonical Schedule) ++++++++++
[GKLEE]: ********* no races found at DeviceMemory **********
[GKLEE]: Within the current Barrier Interval, 1 flows are used to represent all threads !
[GKLEE]: In Barrier Interval 16, Elapsed time for symbolic configuration (Parametric Flow): 0.006517
Thread 0 reaches a barrier: moving to the next thread.

[GKLEE]: ********** (Symbolic Configuration) Start checking bank conflicts at SharedMemory  **********
[GKLEE]: The read set is empty in bank conflict checking for capability 2.x
[GKLEE]: The write set is empty in bank conflict checking for capability 2.x
[GKLEE]: ********** No Bank Conflict found at this SharedMemory **********

[GKLEE]: ********** (Symbolic Configuration) Start checking coalesced device memory access at capability: 2.x **********
[GKLEE]: ********** All memory accesses are coalesced at capability: 2.x **********

[GKLEE]: ********** (Symbolic Configuration) Start checking warp divergence  **********
[GKLEE]: ********** Warp Divergence not found for this kernel **********

[GKLEE]: ********** (Symbolic Config) Start checking missed volatile at SharedMemory  ********** 
[GKLEE]: ********** No 'Volatile' Qualifier Missed at this SharedMemory **********

[GKLEE]: ********** (Symbolic Config) Start checking races at SharedMemory  **********
[GKLEE]: ++++++++++ Read-Write race checking (Pure Canonical Schedule) ++++++++++
[GKLEE]: ++++++++++ Write-Write race checking (Pure Canonical Schedule) ++++++++++
[GKLEE]: ********** no races found at SharedMemory ***********

[GKLEE]: ********** (Symbolic Config) Start checking races at DeviceMemory (Within Same Block)  **********
[GKLEE]: ++++++++++ Read-Write race checking (Pure Canonical Schedule) ++++++++++
[GKLEE]: ++++++++++ Write-Write race checking (Pure Canonical Schedule) ++++++++++
[GKLEE]: ********* no races found at DeviceMemory **********
[GKLEE]: Within the current Barrier Interval, 1 flows are used to represent all threads !
[GKLEE]: In Barrier Interval 17, Elapsed time for symbolic configuration (Parametric Flow): 0.006518
Thread 0 reaches a barrier: moving to the next thread.

[GKLEE]: ********** (Symbolic Configuration) Start checking bank conflicts at SharedMemory  **********
[GKLEE]: The read set is empty in bank conflict checking for capability 2.x
[GKLEE]: The write set is empty in bank conflict checking for capability 2.x
[GKLEE]: ********** No Bank Conflict found at this SharedMemory **********

[GKLEE]: ********** (Symbolic Configuration) Start checking coalesced device memory access at capability: 2.x **********
[GKLEE]: ********** All memory accesses are coalesced at capability: 2.x **********

[GKLEE]: ********** (Symbolic Configuration) Start checking warp divergence  **********
[GKLEE]: ********** Warp Divergence not found for this kernel **********

[GKLEE]: ********** (Symbolic Config) Start checking missed volatile at SharedMemory  ********** 
[GKLEE]: ********** No 'Volatile' Qualifier Missed at this SharedMemory **********

[GKLEE]: ********** (Symbolic Config) Start checking races at SharedMemory  **********
[GKLEE]: ++++++++++ Read-Write race checking (Pure Canonical Schedule) ++++++++++
[GKLEE]: ++++++++++ Write-Write race checking (Pure Canonical Schedule) ++++++++++
[GKLEE]: ********** no races found at SharedMemory ***********

[GKLEE]: ********** (Symbolic Config) Start checking races at DeviceMemory (Within Same Block)  **********
[GKLEE]: ++++++++++ Read-Write race checking (Pure Canonical Schedule) ++++++++++
[GKLEE]: ++++++++++ Write-Write race checking (Pure Canonical Schedule) ++++++++++
[GKLEE]: ********* no races found at DeviceMemory **********
[GKLEE]: Within the current Barrier Interval, 1 flows are used to represent all threads !
[GKLEE]: In Barrier Interval 18, Elapsed time for symbolic configuration (Parametric Flow): 0.006493
Thread 0 reaches a barrier: moving to the next thread.

[GKLEE]: ********** (Symbolic Configuration) Start checking bank conflicts at SharedMemory  **********
[GKLEE]: The read set is empty in bank conflict checking for capability 2.x
[GKLEE]: The write set is empty in bank conflict checking for capability 2.x
[GKLEE]: ********** No Bank Conflict found at this SharedMemory **********

[GKLEE]: ********** (Symbolic Configuration) Start checking coalesced device memory access at capability: 2.x **********
[GKLEE]: ********** All memory accesses are coalesced at capability: 2.x **********

[GKLEE]: ********** (Symbolic Configuration) Start checking warp divergence  **********
[GKLEE]: ********** Warp Divergence not found for this kernel **********

[GKLEE]: ********** (Symbolic Config) Start checking missed volatile at SharedMemory  ********** 
[GKLEE]: ********** No 'Volatile' Qualifier Missed at this SharedMemory **********

[GKLEE]: ********** (Symbolic Config) Start checking races at SharedMemory  **********
[GKLEE]: ++++++++++ Read-Write race checking (Pure Canonical Schedule) ++++++++++
[GKLEE]: ++++++++++ Write-Write race checking (Pure Canonical Schedule) ++++++++++
[GKLEE]: ********** no races found at SharedMemory ***********

[GKLEE]: ********** (Symbolic Config) Start checking races at DeviceMemory (Within Same Block)  **********
[GKLEE]: ++++++++++ Read-Write race checking (Pure Canonical Schedule) ++++++++++
[GKLEE]: ++++++++++ Write-Write race checking (Pure Canonical Schedule) ++++++++++
[GKLEE]: ********* no races found at DeviceMemory **********
[GKLEE]: Within the current Barrier Interval, 1 flows are used to represent all threads !
[GKLEE]: In Barrier Interval 19, Elapsed time for symbolic configuration (Parametric Flow): 0.00641
Thread 0 reaches a barrier: moving to the next thread.

[GKLEE]: ********** (Symbolic Configuration) Start checking bank conflicts at SharedMemory  **********
[GKLEE]: The read set is empty in bank conflict checking for capability 2.x
[GKLEE]: The write set is empty in bank conflict checking for capability 2.x
[GKLEE]: ********** No Bank Conflict found at this SharedMemory **********

[GKLEE]: ********** (Symbolic Configuration) Start checking coalesced device memory access at capability: 2.x **********
[GKLEE]: The read set for memory coalescing cap 2 is empty
[GKLEE]: The write set for memory coalescing cap 2 is empty
[GKLEE]: ********** All memory accesses are coalesced at capability: 2.x **********

[GKLEE]: ********** (Symbolic Configuration) Start checking warp divergence  **********
[GKLEE]: ********** Warp Divergence not found for this kernel **********

[GKLEE]: ********** (Symbolic Config) Start checking missed volatile at SharedMemory  ********** 
[GKLEE]: ********** No 'Volatile' Qualifier Missed at this SharedMemory **********

[GKLEE]: ********** (Symbolic Config) Start checking races at SharedMemory  **********
[GKLEE]: ++++++++++ Read-Write race checking (Pure Canonical Schedule) ++++++++++
[GKLEE]: ++++++++++ Write-Write race checking (Pure Canonical Schedule) ++++++++++
[GKLEE]: ********** no races found at SharedMemory ***********

[GKLEE]: ********** (Symbolic Config) Start checking races at DeviceMemory (Within Same Block)  **********
[GKLEE]: ++++++++++ Read-Write race checking (Pure Canonical Schedule) ++++++++++
[GKLEE]: ++++++++++ Write-Write race checking (Pure Canonical Schedule) ++++++++++

[GKLEE]: ********** (Symbolic Config) Checking races at DeviceMemory (Across Blocks) not allowed (number of block > 1)  **********
[GKLEE]: ********* no races found at DeviceMemory **********
[GKLEE]: Within the current Barrier Interval, 1 flows are used to represent all threads !

[GKLEE]: Finish executing a GPU kernel 

[GKLEE]: GPU Execution time: 0.16308s
[GKLEE]: In Barrier Interval 20, Elapsed time for symbolic configuration (Parametric Flow): 6.2e-05

[GKLEE]: Finishing the program!
 path num explored here (symbolic config): 1
<BI: 1, Time: 0.025537>
<BI: 2, Time: 0.007205>
<BI: 3, Time: 0.007113>
<BI: 4, Time: 0.006886>
<BI: 5, Time: 0.006705>
<BI: 6, Time: 0.007449>
<BI: 7, Time: 0.007208>
<BI: 8, Time: 0.007291>
<BI: 9, Time: 0.007162>
<BI: 10, Time: 0.007138>
<BI: 11, Time: 0.007036>
<BI: 12, Time: 0.006713>
<BI: 13, Time: 0.006639>
<BI: 14, Time: 0.006512>
<BI: 15, Time: 0.006492>
<BI: 16, Time: 0.006517>
<BI: 17, Time: 0.006518>
<BI: 18, Time: 0.006493>
<BI: 19, Time: 0.00641>
<BI: 20, Time: 6.2e-05>
Under symbolic configuration, Across 20 BIs, Total Time: 0.149086
After exploring 1 paths, the average exploration time (symbolic) is 0.149086s, the total execution time: 0.149086s
********** No Bank Conflict found **********
********** Memory Coalescing found **********
********** No Warp Divergence found **********
********** No Volatile Missed found *********
********** No Race found **********

KLEE: done: total instructions = 972
KLEE: done: completed paths = 1
KLEE: done: generated tests = 1
RUN /opt/gklee/gklee-nvcc gklee/barriers-19.cu -o gklee/barriers-19.bc
RUN /opt/gklee/sesa gklee/barriers-19.bc -o gklee/barriers-19.sesa
RUN /opt/gklee/gklee --symbolic-config --race-prune gklee/barriers-19.sesa
DEL gklee/barriers-19.bc
DEL gklee/barriers-19.sesa
DEL /home/verify/datasets/micro-benchmarks/barriers-19.cpp
DEL /home/verify/datasets/micro-benchmarks/barriers-19.kernelSet.txt
DEL /home/verify/datasets/micro-benchmarks/flowsGraph.dot
DEL gklee/klee-last
DEL /home/verify/datasets/micro-benchmarks/summary.txt
DEL gklee/klee-out-0
