"/artifact/datasets/gpuverify-cav14/pug/CUDA50/6_Advanced/shfl_scan/shfl_scan_test.c", line 81: warning: 
          type qualifier on return type is meaningless
  __device__ int __shfl_up(int, int, int);
                 ^

"/artifact/datasets/gpuverify-cav14/pug/CUDA50/6_Advanced/shfl_scan/shfl_scan_test.c", line 176: error: 
          identifier "NULL" is undefined
      if (partial_sums != NULL && threadIdx.x == blockDim.x-1)
                          ^

"/artifact/datasets/gpuverify-cav14/pug/CUDA50/6_Advanced/shfl_scan/shfl_scan_test.c", line 87: warning: 
          function "kernel" was declared but never referenced
  __global__ void kernel (int* data, int* partial_sums, int width) {
                  ^

terminate called after throwing an instance of 'rose_exception'
  what():  Errors in Processing: (frontend_failed)
/artifact/tools/pug-v0.2_x64/pug: line 3: 35696 Aborted                 (core dumped) LD_LIBRARY_PATH="$PREFIX/lib" "$PREFIX/bin/pug" "$@"
