"/artifact/datasets/gpuverify-cav14/pug/CUDA20/scanlarge/inline/kernel.c", line 102: warning: 
          function "kernel" was declared but never referenced
  __global__ void kernel (float* g_odata, float* g_idata, float* g_blockSums, int n,int blockIndex,int baseIndex,int storeSum,int isNP2) {
                  ^

>>>> start analysis ... 


-------------------------------------------------------
Invalid OVERFLOW_PROTECTION flag in config.txt!
Setting OVERFLOW_PROTECTION flag to on
-------------------------------------------------------

-------------------------------------------------------
Invalid NBITS value in config.txt!
Setting NBITS value to 10
-------------------------------------------------------

-------------------------------------------------------
Invalid USE_INCRSMT flag in config.txt!
Setting USE_INCRSMT flag to false
-------------------------------------------------------


-------------------------------------------------------
Invalid USE_LOOP_REFINEMENT flag in config.txt!
Setting USE_LOOP_REFINEMENT flag to true
-------------------------------------------------------


-------------------------------------------------------
Invalid SLICE_ARRAYS flag in config.txt!
Setting SLICE_ARRAYS flag to true
-------------------------------------------------------


-------------------------------------------------------
Invalid USE_ASSUMES flag in config.txt!
Setting USE_ASSUMES flag to true
-------------------------------------------------------


-------------------------------------------------------
Invalid CHK_BANK_CONFLICTS option in config.txt!
Setting CHK_BANK_CONFLICTS option to false
-------------------------------------------------------

Debug level (verbosity) set to 0


Processing function: kernel

FunctionCall: assume(((blockDim.x) ==(32)))
Assuming bdim.x == 32

FunctionCall: assume(((blockDim.y) ==(1)))
Assuming bdim.y == 1

FunctionCall: assume(((gridDim.x) ==(1)))
Assuming gdim.x == 1

FunctionCall: assume(((gridDim.y) ==(1)))
Assuming gdim.y == 1

Binary OP: baseIndex =((((baseIndex == 0)?((blockIdx.x) *((blockDim.x) << 1)) :(baseIndex))))

Binary OP: mem_ai =(((baseIndex) +(threadIdx.x)))

Binary OP: mem_bi =(((mem_ai) +(blockDim.x)))

Binary OP: ai = thid

Binary OP: bi =(((thid) +(blockDim.x)))

Binary OP: bankOffsetA =(ai >> 4)

Binary OP: bankOffsetB =(bi >> 4)

Binary OP: s_data[ai + bankOffsetA] =(g_idata[mem_ai])

Binary OP: s_data[bi + bankOffsetB] =((bi < n)?(g_idata[mem_bi]) :(0))

Binary OP: s_data[bi + bankOffsetB] =(g_idata[mem_bi])
containBarrierFlag = 1
incrExpr = d >>= 1
------------- NON Linear incrExpr
rangeExpr = ((!1^d0 >= (0 + 1)) && (!1^d0 <= bdim.x)); substExpr = 

FunctionCall: __syncthreads()
unsatisfiable

Binary OP: stride *=(2)
Found loop carrying expression, try refinement!
refined exp: ((stride2 * !1^d0) == (stride1 * bdim.x) && (stride2 > 1))

Binary OP: ai_1 +=(ai_1 >> 4)

Binary OP: bi_1 +=(bi_1 >> 4)

Binary OP: s_data[bi_1] +=(s_data[ai_1])
Found loop carrying expression, skip!

Binary OP: blockIndex =((((blockIndex == 0)?(blockIdx.x) :(blockIndex))))

Binary OP: index +=(index >> 4)

Binary OP: g_blockSums[blockIndex] =(s_data[index])

Binary OP: s_data[index] =(0)
containBarrierFlag = 1
incrExpr = d *= 2
------------- NON Linear incrExpr
rangeExpr = ((!2^d0 >= 1) && (!2^d0 <= bdim.x)); substExpr = 

Binary OP: stride >>= 1
Found loop carrying expression, try refinement!
refined exp: (stride3 * !2^d0) == (stride2 << 0)

FunctionCall: __syncthreads()
unsatisfiable

Binary OP: ai_2 +=(ai_2 >> 4)

Binary OP: bi_2 +=(bi_2 >> 4)

Binary OP: s_data[ai_2] =(s_data[bi_2])

Binary OP: s_data[bi_2] += t
Found loop carrying expression, skip!

FunctionCall: __syncthreads()
unsatisfiable

Binary OP: g_odata[mem_ai] =(s_data[ai + bankOffsetA])

Binary OP: g_odata[mem_bi] =(s_data[bi + bankOffsetB])

Binary OP: g_odata[mem_bi] =(s_data[bi + bankOffsetB])

Reaching the end of the kernel
unsatisfiable


#####################################################################

No races or synchronization errors were found.

Max instance solving time = 0.002509s
Total solving time = 0.008208s

#####################################################################

