"/home/hkz/research/drf-benchmark/datasets/correctness/pug/synthetic/read-index-racy.c", line 84: warning: 
          function "kernel" was declared but never referenced
  __global__ void kernel (int* x) {
                  ^

>>>> start analysis ... 


-------------------------------------------------------
Invalid OVERFLOW_PROTECTION flag in config.txt!
Setting OVERFLOW_PROTECTION flag to on
-------------------------------------------------------

-------------------------------------------------------
Invalid NBITS value in config.txt!
Setting NBITS value to 10
-------------------------------------------------------

-------------------------------------------------------
Invalid USE_INCRSMT flag in config.txt!
Setting USE_INCRSMT flag to false
-------------------------------------------------------


-------------------------------------------------------
Invalid USE_LOOP_REFINEMENT flag in config.txt!
Setting USE_LOOP_REFINEMENT flag to true
-------------------------------------------------------


-------------------------------------------------------
Invalid SLICE_ARRAYS flag in config.txt!
Setting SLICE_ARRAYS flag to true
-------------------------------------------------------


-------------------------------------------------------
Invalid USE_ASSUMES flag in config.txt!
Setting USE_ASSUMES flag to true
-------------------------------------------------------


-------------------------------------------------------
Invalid CHK_BANK_CONFLICTS option in config.txt!
Setting CHK_BANK_CONFLICTS option to false
-------------------------------------------------------

Debug level (verbosity) set to 0


Processing function: kernel

FunctionCall: assume(((blockDim.x) ==(64)))
Assuming bdim.x == 64

FunctionCall: assume(((gridDim.x) ==(1)))
Assuming gdim.x == 1

Binary OP: x[threadIdx.x] =((threadIdx.x))

Binary OP: x[z + 1] = 0

Reaching the end of the kernel
satisfiable
(= z1@t2 0b0000000000)
(= z1@t1 0b0000000010)
(= t1.x 0b0000000001)
(= bdim.x 0b0001000000)
(= t2.x 0b0000000000)
(= gdim.x 0b0000000001)
(= (x1 0b0000000001) 0b0000000010)
(= (x1 0b0000000000) 0b0000000000)

!!!!!!! Found conflict: 
Found Races
solving time = 0.000704s
