"/artifact/datasets/gpuverify-cav14/pug/CUDA50/3_Imaging/imageDenoising/common.h", line 18: warning: 
          type qualifier on return type is meaningless
  __device__ float lerpf(float, float, float);
                   ^

"/artifact/datasets/gpuverify-cav14/pug/CUDA50/3_Imaging/imageDenoising/common.h", line 20: warning: 
          attribute "always_inline" ignored
  __device__ static __attribute__((always_inline)) TColor make_color(float r, float g, float b, float a);
                                   ^

"/artifact/datasets/gpuverify-cav14/pug/CUDA50/3_Imaging/imageDenoising/common.h", line 20: warning: 
          type qualifier on return type is meaningless
  __device__ static __attribute__((always_inline)) TColor make_color(float r, float g, float b, float a);
                                                          ^

"/artifact/datasets/gpuverify-cav14/pug/CUDA50/3_Imaging/imageDenoising/common.h", line 21: warning: 
          attribute "always_inline" ignored
  __device__ static __attribute__((always_inline)) float vecLen(float4 a, float4 b);
                                   ^

"/artifact/datasets/gpuverify-cav14/pug/CUDA50/3_Imaging/imageDenoising/common.h", line 21: warning: 
          type qualifier on return type is meaningless
  __device__ static __attribute__((always_inline)) float vecLen(float4 a, float4 b);
                                                         ^

"/artifact/datasets/gpuverify-cav14/pug/CUDA50/3_Imaging/imageDenoising/common.h", line 23: error: 
          this declaration has no storage class or type specifier
  texture<uchar4, 2, cudaReadModeNormalizedFloat> texImage;
  ^

"/artifact/datasets/gpuverify-cav14/pug/CUDA50/3_Imaging/imageDenoising/common.h", line 23: error: 
          expected a ";"
  texture<uchar4, 2, cudaReadModeNormalizedFloat> texImage;
         ^

"/artifact/datasets/gpuverify-cav14/pug/CUDA50/3_Imaging/imageDenoising/common.h", line 25: warning: 
          attribute "always_inline" ignored
  __device__ static __attribute__((always_inline)) TColor make_color(float r, float g, float b, float a)
                                   ^

"/artifact/datasets/gpuverify-cav14/pug/CUDA50/3_Imaging/imageDenoising/common.h", line 25: warning: 
          type qualifier on return type is meaningless
  __device__ static __attribute__((always_inline)) TColor make_color(float r, float g, float b, float a)
                                                          ^

"/artifact/datasets/gpuverify-cav14/pug/CUDA50/3_Imaging/imageDenoising/common.h", line 34: warning: 
          attribute "always_inline" ignored
  __device__ static __attribute__((always_inline)) float vecLen(float4 a, float4 b)
                                   ^

"/artifact/datasets/gpuverify-cav14/pug/CUDA50/3_Imaging/imageDenoising/common.h", line 34: warning: 
          type qualifier on return type is meaningless
  __device__ static __attribute__((always_inline)) float vecLen(float4 a, float4 b)
                                                         ^

"/artifact/datasets/gpuverify-cav14/pug/CUDA50/3_Imaging/imageDenoising/imageDenoising_knn_kernel.c", line 126: error: 
          identifier "texImage" is undefined
          float4 clr00 = tex2D(texImage, x, y);
                               ^

"/artifact/datasets/gpuverify-cav14/pug/CUDA50/3_Imaging/imageDenoising/imageDenoising_knn_kernel.c", line 126: error: 
          a value of type "int" cannot be used to initialize an entity of type
          "float4"
          float4 clr00 = tex2D(texImage, x, y);
                         ^

"/artifact/datasets/gpuverify-cav14/pug/CUDA50/3_Imaging/imageDenoising/imageDenoising_knn_kernel.c", line 132: error: 
          a value of type "int" cannot be used to initialize an entity of type
          "float4"
                  float4     clrIJ = tex2D(texImage, x + j, y + i);
                                     ^

"/artifact/datasets/gpuverify-cav14/pug/CUDA50/3_Imaging/imageDenoising/imageDenoising_knn_kernel.c", line 85: warning: 
          function "kernel" was declared but never referenced
  __global__ void kernel (TColor* dst, int imageW,int imageH,float Noise,float lerpC) {
                  ^

terminate called after throwing an instance of 'rose_exception'
  what():  Errors in Processing: (frontend_failed)
/artifact/tools/pug-v0.2_x64/pug: line 3: 41385 Aborted                 (core dumped) LD_LIBRARY_PATH="$PREFIX/lib" "$PREFIX/bin/pug" "$@"
