executeFourthLayer.opt.bc: warning: Assuming the arguments 'Layer4_Neurons_GPU', 'Layer4_Weights_GPU', 'Layer5_Neurons_GPU' of 'kernel' on line 11 of executeFourthLayer.cu to be non-aliased; please consider adding a restrict qualifier to these arguments
GPUVerify kernel analyser finished with 1 verified, 0 errors
Verified: executeFourthLayer.cu
- no data races within thread blocks
- no barrier divergence
- no assertion failures
(but absolutely no warranty provided)
