Configuration: concurrency bug checking level is: 2
KLEE: output directory = "klee-out-0"
KLEE: WARNING: undefined reference to function: __clear_device
KLEE: WARNING: undefined reference to function: __clear_host
KLEE: WARNING: undefined reference to function: __set_CUDAConfig
KLEE: WARNING: undefined reference to function: __set_device
KLEE: WARNING: undefined reference to function: __set_host
KLEE: WARNING: undefined reference to variable: threadIdx

[GKLEE]: The configuration, Grid: <1, 1, 1>, Block: <64, 1, 1>
KLEE: WARNING: silently concretizing (reason: floating point) expression (ReadLSB w32 N0:(Extract w32 0 (Mul w64 4
                                        (ZExt w64 (ReadLSB w32 0 tid_arr_k0_0)))) const_arr1) to value 2880154539 (/home/verify/datasets/micro-benchmarks/barriers-35.cpp:14)

[GKLEE]: Start executing a GPU kernel 

Thread 0 reaches a barrier: moving to the next thread.

[GKLEE]: ********** (Symbolic Configuration) Start checking bank conflicts at SharedMemory  **********
[GKLEE]: The read set is empty in bank conflict checking for capability 2.x
[GKLEE]: The write set is empty in bank conflict checking for capability 2.x
[GKLEE]: ********** No Bank Conflict found at this SharedMemory **********

[GKLEE]: ********** (Symbolic Configuration) Start checking coalesced device memory access at capability: 2.x **********
[GKLEE]: ********** All memory accesses are coalesced at capability: 2.x **********

[GKLEE]: ********** (Symbolic Configuration) Start checking warp divergence  **********
[GKLEE]: ********** Warp Divergence not found for this kernel **********

[GKLEE]: ********** (Symbolic Config) Start checking missed volatile at SharedMemory  ********** 
[GKLEE]: ********** No 'Volatile' Qualifier Missed at this SharedMemory **********

[GKLEE]: ********** (Symbolic Config) Start checking races at SharedMemory  **********
[GKLEE]: ++++++++++ Read-Write race checking (Pure Canonical Schedule) ++++++++++
[GKLEE]: ++++++++++ Write-Write race checking (Pure Canonical Schedule) ++++++++++
[GKLEE]: ********** no races found at SharedMemory ***********

[GKLEE]: ********** (Symbolic Config) Start checking races at DeviceMemory (Within Same Block)  **********
[GKLEE]: ++++++++++ Read-Write race checking (Pure Canonical Schedule) ++++++++++
[GKLEE]: ++++++++++ Write-Write race checking (Pure Canonical Schedule) ++++++++++
[GKLEE]: ********* no races found at DeviceMemory **********
[GKLEE]: Within the current Barrier Interval, 1 flows are used to represent all threads !
[GKLEE]: In Barrier Interval 1, Elapsed time for symbolic configuration (Parametric Flow): 0.024522
Thread 0 reaches a barrier: moving to the next thread.

[GKLEE]: ********** (Symbolic Configuration) Start checking bank conflicts at SharedMemory  **********
[GKLEE]: The read set is empty in bank conflict checking for capability 2.x
[GKLEE]: The write set is empty in bank conflict checking for capability 2.x
[GKLEE]: ********** No Bank Conflict found at this SharedMemory **********

[GKLEE]: ********** (Symbolic Configuration) Start checking coalesced device memory access at capability: 2.x **********
[GKLEE]: ********** All memory accesses are coalesced at capability: 2.x **********

[GKLEE]: ********** (Symbolic Configuration) Start checking warp divergence  **********
[GKLEE]: ********** Warp Divergence not found for this kernel **********

[GKLEE]: ********** (Symbolic Config) Start checking missed volatile at SharedMemory  ********** 
[GKLEE]: ********** No 'Volatile' Qualifier Missed at this SharedMemory **********

[GKLEE]: ********** (Symbolic Config) Start checking races at SharedMemory  **********
[GKLEE]: ++++++++++ Read-Write race checking (Pure Canonical Schedule) ++++++++++
[GKLEE]: ++++++++++ Write-Write race checking (Pure Canonical Schedule) ++++++++++
[GKLEE]: ********** no races found at SharedMemory ***********

[GKLEE]: ********** (Symbolic Config) Start checking races at DeviceMemory (Within Same Block)  **********
[GKLEE]: ++++++++++ Read-Write race checking (Pure Canonical Schedule) ++++++++++
[GKLEE]: ++++++++++ Write-Write race checking (Pure Canonical Schedule) ++++++++++
[GKLEE]: ********* no races found at DeviceMemory **********
[GKLEE]: Within the current Barrier Interval, 1 flows are used to represent all threads !
[GKLEE]: In Barrier Interval 2, Elapsed time for symbolic configuration (Parametric Flow): 0.006825
Thread 0 reaches a barrier: moving to the next thread.

[GKLEE]: ********** (Symbolic Configuration) Start checking bank conflicts at SharedMemory  **********
[GKLEE]: The read set is empty in bank conflict checking for capability 2.x
[GKLEE]: The write set is empty in bank conflict checking for capability 2.x
[GKLEE]: ********** No Bank Conflict found at this SharedMemory **********

[GKLEE]: ********** (Symbolic Configuration) Start checking coalesced device memory access at capability: 2.x **********
[GKLEE]: ********** All memory accesses are coalesced at capability: 2.x **********

[GKLEE]: ********** (Symbolic Configuration) Start checking warp divergence  **********
[GKLEE]: ********** Warp Divergence not found for this kernel **********

[GKLEE]: ********** (Symbolic Config) Start checking missed volatile at SharedMemory  ********** 
[GKLEE]: ********** No 'Volatile' Qualifier Missed at this SharedMemory **********

[GKLEE]: ********** (Symbolic Config) Start checking races at SharedMemory  **********
[GKLEE]: ++++++++++ Read-Write race checking (Pure Canonical Schedule) ++++++++++
[GKLEE]: ++++++++++ Write-Write race checking (Pure Canonical Schedule) ++++++++++
[GKLEE]: ********** no races found at SharedMemory ***********

[GKLEE]: ********** (Symbolic Config) Start checking races at DeviceMemory (Within Same Block)  **********
[GKLEE]: ++++++++++ Read-Write race checking (Pure Canonical Schedule) ++++++++++
[GKLEE]: ++++++++++ Write-Write race checking (Pure Canonical Schedule) ++++++++++
[GKLEE]: ********* no races found at DeviceMemory **********
[GKLEE]: Within the current Barrier Interval, 1 flows are used to represent all threads !
[GKLEE]: In Barrier Interval 3, Elapsed time for symbolic configuration (Parametric Flow): 0.006653
Thread 0 reaches a barrier: moving to the next thread.

[GKLEE]: ********** (Symbolic Configuration) Start checking bank conflicts at SharedMemory  **********
[GKLEE]: The read set is empty in bank conflict checking for capability 2.x
[GKLEE]: The write set is empty in bank conflict checking for capability 2.x
[GKLEE]: ********** No Bank Conflict found at this SharedMemory **********

[GKLEE]: ********** (Symbolic Configuration) Start checking coalesced device memory access at capability: 2.x **********
[GKLEE]: ********** All memory accesses are coalesced at capability: 2.x **********

[GKLEE]: ********** (Symbolic Configuration) Start checking warp divergence  **********
[GKLEE]: ********** Warp Divergence not found for this kernel **********

[GKLEE]: ********** (Symbolic Config) Start checking missed volatile at SharedMemory  ********** 
[GKLEE]: ********** No 'Volatile' Qualifier Missed at this SharedMemory **********

[GKLEE]: ********** (Symbolic Config) Start checking races at SharedMemory  **********
[GKLEE]: ++++++++++ Read-Write race checking (Pure Canonical Schedule) ++++++++++
[GKLEE]: ++++++++++ Write-Write race checking (Pure Canonical Schedule) ++++++++++
[GKLEE]: ********** no races found at SharedMemory ***********

[GKLEE]: ********** (Symbolic Config) Start checking races at DeviceMemory (Within Same Block)  **********
[GKLEE]: ++++++++++ Read-Write race checking (Pure Canonical Schedule) ++++++++++
[GKLEE]: ++++++++++ Write-Write race checking (Pure Canonical Schedule) ++++++++++
[GKLEE]: ********* no races found at DeviceMemory **********
[GKLEE]: Within the current Barrier Interval, 1 flows are used to represent all threads !
[GKLEE]: In Barrier Interval 4, Elapsed time for symbolic configuration (Parametric Flow): 0.006555
Thread 0 reaches a barrier: moving to the next thread.

[GKLEE]: ********** (Symbolic Configuration) Start checking bank conflicts at SharedMemory  **********
[GKLEE]: The read set is empty in bank conflict checking for capability 2.x
[GKLEE]: The write set is empty in bank conflict checking for capability 2.x
[GKLEE]: ********** No Bank Conflict found at this SharedMemory **********

[GKLEE]: ********** (Symbolic Configuration) Start checking coalesced device memory access at capability: 2.x **********
[GKLEE]: ********** All memory accesses are coalesced at capability: 2.x **********

[GKLEE]: ********** (Symbolic Configuration) Start checking warp divergence  **********
[GKLEE]: ********** Warp Divergence not found for this kernel **********

[GKLEE]: ********** (Symbolic Config) Start checking missed volatile at SharedMemory  ********** 
[GKLEE]: ********** No 'Volatile' Qualifier Missed at this SharedMemory **********

[GKLEE]: ********** (Symbolic Config) Start checking races at SharedMemory  **********
[GKLEE]: ++++++++++ Read-Write race checking (Pure Canonical Schedule) ++++++++++
[GKLEE]: ++++++++++ Write-Write race checking (Pure Canonical Schedule) ++++++++++
[GKLEE]: ********** no races found at SharedMemory ***********

[GKLEE]: ********** (Symbolic Config) Start checking races at DeviceMemory (Within Same Block)  **********
[GKLEE]: ++++++++++ Read-Write race checking (Pure Canonical Schedule) ++++++++++
[GKLEE]: ++++++++++ Write-Write race checking (Pure Canonical Schedule) ++++++++++
[GKLEE]: ********* no races found at DeviceMemory **********
[GKLEE]: Within the current Barrier Interval, 1 flows are used to represent all threads !
[GKLEE]: In Barrier Interval 5, Elapsed time for symbolic configuration (Parametric Flow): 0.006549
Thread 0 reaches a barrier: moving to the next thread.

[GKLEE]: ********** (Symbolic Configuration) Start checking bank conflicts at SharedMemory  **********
[GKLEE]: The read set is empty in bank conflict checking for capability 2.x
[GKLEE]: The write set is empty in bank conflict checking for capability 2.x
[GKLEE]: ********** No Bank Conflict found at this SharedMemory **********

[GKLEE]: ********** (Symbolic Configuration) Start checking coalesced device memory access at capability: 2.x **********
[GKLEE]: ********** All memory accesses are coalesced at capability: 2.x **********

[GKLEE]: ********** (Symbolic Configuration) Start checking warp divergence  **********
[GKLEE]: ********** Warp Divergence not found for this kernel **********

[GKLEE]: ********** (Symbolic Config) Start checking missed volatile at SharedMemory  ********** 
[GKLEE]: ********** No 'Volatile' Qualifier Missed at this SharedMemory **********

[GKLEE]: ********** (Symbolic Config) Start checking races at SharedMemory  **********
[GKLEE]: ++++++++++ Read-Write race checking (Pure Canonical Schedule) ++++++++++
[GKLEE]: ++++++++++ Write-Write race checking (Pure Canonical Schedule) ++++++++++
[GKLEE]: ********** no races found at SharedMemory ***********

[GKLEE]: ********** (Symbolic Config) Start checking races at DeviceMemory (Within Same Block)  **********
[GKLEE]: ++++++++++ Read-Write race checking (Pure Canonical Schedule) ++++++++++
[GKLEE]: ++++++++++ Write-Write race checking (Pure Canonical Schedule) ++++++++++
[GKLEE]: ********* no races found at DeviceMemory **********
[GKLEE]: Within the current Barrier Interval, 1 flows are used to represent all threads !
[GKLEE]: In Barrier Interval 6, Elapsed time for symbolic configuration (Parametric Flow): 0.006552
Thread 0 reaches a barrier: moving to the next thread.

[GKLEE]: ********** (Symbolic Configuration) Start checking bank conflicts at SharedMemory  **********
[GKLEE]: The read set is empty in bank conflict checking for capability 2.x
[GKLEE]: The write set is empty in bank conflict checking for capability 2.x
[GKLEE]: ********** No Bank Conflict found at this SharedMemory **********

[GKLEE]: ********** (Symbolic Configuration) Start checking coalesced device memory access at capability: 2.x **********
[GKLEE]: ********** All memory accesses are coalesced at capability: 2.x **********

[GKLEE]: ********** (Symbolic Configuration) Start checking warp divergence  **********
[GKLEE]: ********** Warp Divergence not found for this kernel **********

[GKLEE]: ********** (Symbolic Config) Start checking missed volatile at SharedMemory  ********** 
[GKLEE]: ********** No 'Volatile' Qualifier Missed at this SharedMemory **********

[GKLEE]: ********** (Symbolic Config) Start checking races at SharedMemory  **********
[GKLEE]: ++++++++++ Read-Write race checking (Pure Canonical Schedule) ++++++++++
[GKLEE]: ++++++++++ Write-Write race checking (Pure Canonical Schedule) ++++++++++
[GKLEE]: ********** no races found at SharedMemory ***********

[GKLEE]: ********** (Symbolic Config) Start checking races at DeviceMemory (Within Same Block)  **********
[GKLEE]: ++++++++++ Read-Write race checking (Pure Canonical Schedule) ++++++++++
[GKLEE]: ++++++++++ Write-Write race checking (Pure Canonical Schedule) ++++++++++
[GKLEE]: ********* no races found at DeviceMemory **********
[GKLEE]: Within the current Barrier Interval, 1 flows are used to represent all threads !
[GKLEE]: In Barrier Interval 7, Elapsed time for symbolic configuration (Parametric Flow): 0.006549
Thread 0 reaches a barrier: moving to the next thread.

[GKLEE]: ********** (Symbolic Configuration) Start checking bank conflicts at SharedMemory  **********
[GKLEE]: The read set is empty in bank conflict checking for capability 2.x
[GKLEE]: The write set is empty in bank conflict checking for capability 2.x
[GKLEE]: ********** No Bank Conflict found at this SharedMemory **********

[GKLEE]: ********** (Symbolic Configuration) Start checking coalesced device memory access at capability: 2.x **********
[GKLEE]: ********** All memory accesses are coalesced at capability: 2.x **********

[GKLEE]: ********** (Symbolic Configuration) Start checking warp divergence  **********
[GKLEE]: ********** Warp Divergence not found for this kernel **********

[GKLEE]: ********** (Symbolic Config) Start checking missed volatile at SharedMemory  ********** 
[GKLEE]: ********** No 'Volatile' Qualifier Missed at this SharedMemory **********

[GKLEE]: ********** (Symbolic Config) Start checking races at SharedMemory  **********
[GKLEE]: ++++++++++ Read-Write race checking (Pure Canonical Schedule) ++++++++++
[GKLEE]: ++++++++++ Write-Write race checking (Pure Canonical Schedule) ++++++++++
[GKLEE]: ********** no races found at SharedMemory ***********

[GKLEE]: ********** (Symbolic Config) Start checking races at DeviceMemory (Within Same Block)  **********
[GKLEE]: ++++++++++ Read-Write race checking (Pure Canonical Schedule) ++++++++++
[GKLEE]: ++++++++++ Write-Write race checking (Pure Canonical Schedule) ++++++++++
[GKLEE]: ********* no races found at DeviceMemory **********
[GKLEE]: Within the current Barrier Interval, 1 flows are used to represent all threads !
[GKLEE]: In Barrier Interval 8, Elapsed time for symbolic configuration (Parametric Flow): 0.00693
Thread 0 reaches a barrier: moving to the next thread.

[GKLEE]: ********** (Symbolic Configuration) Start checking bank conflicts at SharedMemory  **********
[GKLEE]: The read set is empty in bank conflict checking for capability 2.x
[GKLEE]: The write set is empty in bank conflict checking for capability 2.x
[GKLEE]: ********** No Bank Conflict found at this SharedMemory **********

[GKLEE]: ********** (Symbolic Configuration) Start checking coalesced device memory access at capability: 2.x **********
[GKLEE]: ********** All memory accesses are coalesced at capability: 2.x **********

[GKLEE]: ********** (Symbolic Configuration) Start checking warp divergence  **********
[GKLEE]: ********** Warp Divergence not found for this kernel **********

[GKLEE]: ********** (Symbolic Config) Start checking missed volatile at SharedMemory  ********** 
[GKLEE]: ********** No 'Volatile' Qualifier Missed at this SharedMemory **********

[GKLEE]: ********** (Symbolic Config) Start checking races at SharedMemory  **********
[GKLEE]: ++++++++++ Read-Write race checking (Pure Canonical Schedule) ++++++++++
[GKLEE]: ++++++++++ Write-Write race checking (Pure Canonical Schedule) ++++++++++
[GKLEE]: ********** no races found at SharedMemory ***********

[GKLEE]: ********** (Symbolic Config) Start checking races at DeviceMemory (Within Same Block)  **********
[GKLEE]: ++++++++++ Read-Write race checking (Pure Canonical Schedule) ++++++++++
[GKLEE]: ++++++++++ Write-Write race checking (Pure Canonical Schedule) ++++++++++
[GKLEE]: ********* no races found at DeviceMemory **********
[GKLEE]: Within the current Barrier Interval, 1 flows are used to represent all threads !
[GKLEE]: In Barrier Interval 9, Elapsed time for symbolic configuration (Parametric Flow): 0.007386
Thread 0 reaches a barrier: moving to the next thread.

[GKLEE]: ********** (Symbolic Configuration) Start checking bank conflicts at SharedMemory  **********
[GKLEE]: The read set is empty in bank conflict checking for capability 2.x
[GKLEE]: The write set is empty in bank conflict checking for capability 2.x
[GKLEE]: ********** No Bank Conflict found at this SharedMemory **********

[GKLEE]: ********** (Symbolic Configuration) Start checking coalesced device memory access at capability: 2.x **********
[GKLEE]: ********** All memory accesses are coalesced at capability: 2.x **********

[GKLEE]: ********** (Symbolic Configuration) Start checking warp divergence  **********
[GKLEE]: ********** Warp Divergence not found for this kernel **********

[GKLEE]: ********** (Symbolic Config) Start checking missed volatile at SharedMemory  ********** 
[GKLEE]: ********** No 'Volatile' Qualifier Missed at this SharedMemory **********

[GKLEE]: ********** (Symbolic Config) Start checking races at SharedMemory  **********
[GKLEE]: ++++++++++ Read-Write race checking (Pure Canonical Schedule) ++++++++++
[GKLEE]: ++++++++++ Write-Write race checking (Pure Canonical Schedule) ++++++++++
[GKLEE]: ********** no races found at SharedMemory ***********

[GKLEE]: ********** (Symbolic Config) Start checking races at DeviceMemory (Within Same Block)  **********
[GKLEE]: ++++++++++ Read-Write race checking (Pure Canonical Schedule) ++++++++++
[GKLEE]: ++++++++++ Write-Write race checking (Pure Canonical Schedule) ++++++++++
[GKLEE]: ********* no races found at DeviceMemory **********
[GKLEE]: Within the current Barrier Interval, 1 flows are used to represent all threads !
[GKLEE]: In Barrier Interval 10, Elapsed time for symbolic configuration (Parametric Flow): 0.007325
Thread 0 reaches a barrier: moving to the next thread.

[GKLEE]: ********** (Symbolic Configuration) Start checking bank conflicts at SharedMemory  **********
[GKLEE]: The read set is empty in bank conflict checking for capability 2.x
[GKLEE]: The write set is empty in bank conflict checking for capability 2.x
[GKLEE]: ********** No Bank Conflict found at this SharedMemory **********

[GKLEE]: ********** (Symbolic Configuration) Start checking coalesced device memory access at capability: 2.x **********
[GKLEE]: ********** All memory accesses are coalesced at capability: 2.x **********

[GKLEE]: ********** (Symbolic Configuration) Start checking warp divergence  **********
[GKLEE]: ********** Warp Divergence not found for this kernel **********

[GKLEE]: ********** (Symbolic Config) Start checking missed volatile at SharedMemory  ********** 
[GKLEE]: ********** No 'Volatile' Qualifier Missed at this SharedMemory **********

[GKLEE]: ********** (Symbolic Config) Start checking races at SharedMemory  **********
[GKLEE]: ++++++++++ Read-Write race checking (Pure Canonical Schedule) ++++++++++
[GKLEE]: ++++++++++ Write-Write race checking (Pure Canonical Schedule) ++++++++++
[GKLEE]: ********** no races found at SharedMemory ***********

[GKLEE]: ********** (Symbolic Config) Start checking races at DeviceMemory (Within Same Block)  **********
[GKLEE]: ++++++++++ Read-Write race checking (Pure Canonical Schedule) ++++++++++
[GKLEE]: ++++++++++ Write-Write race checking (Pure Canonical Schedule) ++++++++++
[GKLEE]: ********* no races found at DeviceMemory **********
[GKLEE]: Within the current Barrier Interval, 1 flows are used to represent all threads !
[GKLEE]: In Barrier Interval 11, Elapsed time for symbolic configuration (Parametric Flow): 0.007223
Thread 0 reaches a barrier: moving to the next thread.

[GKLEE]: ********** (Symbolic Configuration) Start checking bank conflicts at SharedMemory  **********
[GKLEE]: The read set is empty in bank conflict checking for capability 2.x
[GKLEE]: The write set is empty in bank conflict checking for capability 2.x
[GKLEE]: ********** No Bank Conflict found at this SharedMemory **********

[GKLEE]: ********** (Symbolic Configuration) Start checking coalesced device memory access at capability: 2.x **********
[GKLEE]: ********** All memory accesses are coalesced at capability: 2.x **********

[GKLEE]: ********** (Symbolic Configuration) Start checking warp divergence  **********
[GKLEE]: ********** Warp Divergence not found for this kernel **********

[GKLEE]: ********** (Symbolic Config) Start checking missed volatile at SharedMemory  ********** 
[GKLEE]: ********** No 'Volatile' Qualifier Missed at this SharedMemory **********

[GKLEE]: ********** (Symbolic Config) Start checking races at SharedMemory  **********
[GKLEE]: ++++++++++ Read-Write race checking (Pure Canonical Schedule) ++++++++++
[GKLEE]: ++++++++++ Write-Write race checking (Pure Canonical Schedule) ++++++++++
[GKLEE]: ********** no races found at SharedMemory ***********

[GKLEE]: ********** (Symbolic Config) Start checking races at DeviceMemory (Within Same Block)  **********
[GKLEE]: ++++++++++ Read-Write race checking (Pure Canonical Schedule) ++++++++++
[GKLEE]: ++++++++++ Write-Write race checking (Pure Canonical Schedule) ++++++++++
[GKLEE]: ********* no races found at DeviceMemory **********
[GKLEE]: Within the current Barrier Interval, 1 flows are used to represent all threads !
[GKLEE]: In Barrier Interval 12, Elapsed time for symbolic configuration (Parametric Flow): 0.007137
Thread 0 reaches a barrier: moving to the next thread.

[GKLEE]: ********** (Symbolic Configuration) Start checking bank conflicts at SharedMemory  **********
[GKLEE]: The read set is empty in bank conflict checking for capability 2.x
[GKLEE]: The write set is empty in bank conflict checking for capability 2.x
[GKLEE]: ********** No Bank Conflict found at this SharedMemory **********

[GKLEE]: ********** (Symbolic Configuration) Start checking coalesced device memory access at capability: 2.x **********
[GKLEE]: ********** All memory accesses are coalesced at capability: 2.x **********

[GKLEE]: ********** (Symbolic Configuration) Start checking warp divergence  **********
[GKLEE]: ********** Warp Divergence not found for this kernel **********

[GKLEE]: ********** (Symbolic Config) Start checking missed volatile at SharedMemory  ********** 
[GKLEE]: ********** No 'Volatile' Qualifier Missed at this SharedMemory **********

[GKLEE]: ********** (Symbolic Config) Start checking races at SharedMemory  **********
[GKLEE]: ++++++++++ Read-Write race checking (Pure Canonical Schedule) ++++++++++
[GKLEE]: ++++++++++ Write-Write race checking (Pure Canonical Schedule) ++++++++++
[GKLEE]: ********** no races found at SharedMemory ***********

[GKLEE]: ********** (Symbolic Config) Start checking races at DeviceMemory (Within Same Block)  **********
[GKLEE]: ++++++++++ Read-Write race checking (Pure Canonical Schedule) ++++++++++
[GKLEE]: ++++++++++ Write-Write race checking (Pure Canonical Schedule) ++++++++++
[GKLEE]: ********* no races found at DeviceMemory **********
[GKLEE]: Within the current Barrier Interval, 1 flows are used to represent all threads !
[GKLEE]: In Barrier Interval 13, Elapsed time for symbolic configuration (Parametric Flow): 0.00698
Thread 0 reaches a barrier: moving to the next thread.

[GKLEE]: ********** (Symbolic Configuration) Start checking bank conflicts at SharedMemory  **********
[GKLEE]: The read set is empty in bank conflict checking for capability 2.x
[GKLEE]: The write set is empty in bank conflict checking for capability 2.x
[GKLEE]: ********** No Bank Conflict found at this SharedMemory **********

[GKLEE]: ********** (Symbolic Configuration) Start checking coalesced device memory access at capability: 2.x **********
[GKLEE]: ********** All memory accesses are coalesced at capability: 2.x **********

[GKLEE]: ********** (Symbolic Configuration) Start checking warp divergence  **********
[GKLEE]: ********** Warp Divergence not found for this kernel **********

[GKLEE]: ********** (Symbolic Config) Start checking missed volatile at SharedMemory  ********** 
[GKLEE]: ********** No 'Volatile' Qualifier Missed at this SharedMemory **********

[GKLEE]: ********** (Symbolic Config) Start checking races at SharedMemory  **********
[GKLEE]: ++++++++++ Read-Write race checking (Pure Canonical Schedule) ++++++++++
[GKLEE]: ++++++++++ Write-Write race checking (Pure Canonical Schedule) ++++++++++
[GKLEE]: ********** no races found at SharedMemory ***********

[GKLEE]: ********** (Symbolic Config) Start checking races at DeviceMemory (Within Same Block)  **********
[GKLEE]: ++++++++++ Read-Write race checking (Pure Canonical Schedule) ++++++++++
[GKLEE]: ++++++++++ Write-Write race checking (Pure Canonical Schedule) ++++++++++
[GKLEE]: ********* no races found at DeviceMemory **********
[GKLEE]: Within the current Barrier Interval, 1 flows are used to represent all threads !
[GKLEE]: In Barrier Interval 14, Elapsed time for symbolic configuration (Parametric Flow): 0.006723
Thread 0 reaches a barrier: moving to the next thread.

[GKLEE]: ********** (Symbolic Configuration) Start checking bank conflicts at SharedMemory  **********
[GKLEE]: The read set is empty in bank conflict checking for capability 2.x
[GKLEE]: The write set is empty in bank conflict checking for capability 2.x
[GKLEE]: ********** No Bank Conflict found at this SharedMemory **********

[GKLEE]: ********** (Symbolic Configuration) Start checking coalesced device memory access at capability: 2.x **********
[GKLEE]: ********** All memory accesses are coalesced at capability: 2.x **********

[GKLEE]: ********** (Symbolic Configuration) Start checking warp divergence  **********
[GKLEE]: ********** Warp Divergence not found for this kernel **********

[GKLEE]: ********** (Symbolic Config) Start checking missed volatile at SharedMemory  ********** 
[GKLEE]: ********** No 'Volatile' Qualifier Missed at this SharedMemory **********

[GKLEE]: ********** (Symbolic Config) Start checking races at SharedMemory  **********
[GKLEE]: ++++++++++ Read-Write race checking (Pure Canonical Schedule) ++++++++++
[GKLEE]: ++++++++++ Write-Write race checking (Pure Canonical Schedule) ++++++++++
[GKLEE]: ********** no races found at SharedMemory ***********

[GKLEE]: ********** (Symbolic Config) Start checking races at DeviceMemory (Within Same Block)  **********
[GKLEE]: ++++++++++ Read-Write race checking (Pure Canonical Schedule) ++++++++++
[GKLEE]: ++++++++++ Write-Write race checking (Pure Canonical Schedule) ++++++++++
[GKLEE]: ********* no races found at DeviceMemory **********
[GKLEE]: Within the current Barrier Interval, 1 flows are used to represent all threads !
[GKLEE]: In Barrier Interval 15, Elapsed time for symbolic configuration (Parametric Flow): 0.006679
Thread 0 reaches a barrier: moving to the next thread.

[GKLEE]: ********** (Symbolic Configuration) Start checking bank conflicts at SharedMemory  **********
[GKLEE]: The read set is empty in bank conflict checking for capability 2.x
[GKLEE]: The write set is empty in bank conflict checking for capability 2.x
[GKLEE]: ********** No Bank Conflict found at this SharedMemory **********

[GKLEE]: ********** (Symbolic Configuration) Start checking coalesced device memory access at capability: 2.x **********
[GKLEE]: ********** All memory accesses are coalesced at capability: 2.x **********

[GKLEE]: ********** (Symbolic Configuration) Start checking warp divergence  **********
[GKLEE]: ********** Warp Divergence not found for this kernel **********

[GKLEE]: ********** (Symbolic Config) Start checking missed volatile at SharedMemory  ********** 
[GKLEE]: ********** No 'Volatile' Qualifier Missed at this SharedMemory **********

[GKLEE]: ********** (Symbolic Config) Start checking races at SharedMemory  **********
[GKLEE]: ++++++++++ Read-Write race checking (Pure Canonical Schedule) ++++++++++
[GKLEE]: ++++++++++ Write-Write race checking (Pure Canonical Schedule) ++++++++++
[GKLEE]: ********** no races found at SharedMemory ***********

[GKLEE]: ********** (Symbolic Config) Start checking races at DeviceMemory (Within Same Block)  **********
[GKLEE]: ++++++++++ Read-Write race checking (Pure Canonical Schedule) ++++++++++
[GKLEE]: ++++++++++ Write-Write race checking (Pure Canonical Schedule) ++++++++++
[GKLEE]: ********* no races found at DeviceMemory **********
[GKLEE]: Within the current Barrier Interval, 1 flows are used to represent all threads !
[GKLEE]: In Barrier Interval 16, Elapsed time for symbolic configuration (Parametric Flow): 0.006552
Thread 0 reaches a barrier: moving to the next thread.

[GKLEE]: ********** (Symbolic Configuration) Start checking bank conflicts at SharedMemory  **********
[GKLEE]: The read set is empty in bank conflict checking for capability 2.x
[GKLEE]: The write set is empty in bank conflict checking for capability 2.x
[GKLEE]: ********** No Bank Conflict found at this SharedMemory **********

[GKLEE]: ********** (Symbolic Configuration) Start checking coalesced device memory access at capability: 2.x **********
[GKLEE]: ********** All memory accesses are coalesced at capability: 2.x **********

[GKLEE]: ********** (Symbolic Configuration) Start checking warp divergence  **********
[GKLEE]: ********** Warp Divergence not found for this kernel **********

[GKLEE]: ********** (Symbolic Config) Start checking missed volatile at SharedMemory  ********** 
[GKLEE]: ********** No 'Volatile' Qualifier Missed at this SharedMemory **********

[GKLEE]: ********** (Symbolic Config) Start checking races at SharedMemory  **********
[GKLEE]: ++++++++++ Read-Write race checking (Pure Canonical Schedule) ++++++++++
[GKLEE]: ++++++++++ Write-Write race checking (Pure Canonical Schedule) ++++++++++
[GKLEE]: ********** no races found at SharedMemory ***********

[GKLEE]: ********** (Symbolic Config) Start checking races at DeviceMemory (Within Same Block)  **********
[GKLEE]: ++++++++++ Read-Write race checking (Pure Canonical Schedule) ++++++++++
[GKLEE]: ++++++++++ Write-Write race checking (Pure Canonical Schedule) ++++++++++
[GKLEE]: ********* no races found at DeviceMemory **********
[GKLEE]: Within the current Barrier Interval, 1 flows are used to represent all threads !
[GKLEE]: In Barrier Interval 17, Elapsed time for symbolic configuration (Parametric Flow): 0.006533
Thread 0 reaches a barrier: moving to the next thread.

[GKLEE]: ********** (Symbolic Configuration) Start checking bank conflicts at SharedMemory  **********
[GKLEE]: The read set is empty in bank conflict checking for capability 2.x
[GKLEE]: The write set is empty in bank conflict checking for capability 2.x
[GKLEE]: ********** No Bank Conflict found at this SharedMemory **********

[GKLEE]: ********** (Symbolic Configuration) Start checking coalesced device memory access at capability: 2.x **********
[GKLEE]: ********** All memory accesses are coalesced at capability: 2.x **********

[GKLEE]: ********** (Symbolic Configuration) Start checking warp divergence  **********
[GKLEE]: ********** Warp Divergence not found for this kernel **********

[GKLEE]: ********** (Symbolic Config) Start checking missed volatile at SharedMemory  ********** 
[GKLEE]: ********** No 'Volatile' Qualifier Missed at this SharedMemory **********

[GKLEE]: ********** (Symbolic Config) Start checking races at SharedMemory  **********
[GKLEE]: ++++++++++ Read-Write race checking (Pure Canonical Schedule) ++++++++++
[GKLEE]: ++++++++++ Write-Write race checking (Pure Canonical Schedule) ++++++++++
[GKLEE]: ********** no races found at SharedMemory ***********

[GKLEE]: ********** (Symbolic Config) Start checking races at DeviceMemory (Within Same Block)  **********
[GKLEE]: ++++++++++ Read-Write race checking (Pure Canonical Schedule) ++++++++++
[GKLEE]: ++++++++++ Write-Write race checking (Pure Canonical Schedule) ++++++++++
[GKLEE]: ********* no races found at DeviceMemory **********
[GKLEE]: Within the current Barrier Interval, 1 flows are used to represent all threads !
[GKLEE]: In Barrier Interval 18, Elapsed time for symbolic configuration (Parametric Flow): 0.006544
Thread 0 reaches a barrier: moving to the next thread.

[GKLEE]: ********** (Symbolic Configuration) Start checking bank conflicts at SharedMemory  **********
[GKLEE]: The read set is empty in bank conflict checking for capability 2.x
[GKLEE]: The write set is empty in bank conflict checking for capability 2.x
[GKLEE]: ********** No Bank Conflict found at this SharedMemory **********

[GKLEE]: ********** (Symbolic Configuration) Start checking coalesced device memory access at capability: 2.x **********
[GKLEE]: ********** All memory accesses are coalesced at capability: 2.x **********

[GKLEE]: ********** (Symbolic Configuration) Start checking warp divergence  **********
[GKLEE]: ********** Warp Divergence not found for this kernel **********

[GKLEE]: ********** (Symbolic Config) Start checking missed volatile at SharedMemory  ********** 
[GKLEE]: ********** No 'Volatile' Qualifier Missed at this SharedMemory **********

[GKLEE]: ********** (Symbolic Config) Start checking races at SharedMemory  **********
[GKLEE]: ++++++++++ Read-Write race checking (Pure Canonical Schedule) ++++++++++
[GKLEE]: ++++++++++ Write-Write race checking (Pure Canonical Schedule) ++++++++++
[GKLEE]: ********** no races found at SharedMemory ***********

[GKLEE]: ********** (Symbolic Config) Start checking races at DeviceMemory (Within Same Block)  **********
[GKLEE]: ++++++++++ Read-Write race checking (Pure Canonical Schedule) ++++++++++
[GKLEE]: ++++++++++ Write-Write race checking (Pure Canonical Schedule) ++++++++++
[GKLEE]: ********* no races found at DeviceMemory **********
[GKLEE]: Within the current Barrier Interval, 1 flows are used to represent all threads !
[GKLEE]: In Barrier Interval 19, Elapsed time for symbolic configuration (Parametric Flow): 0.006534
Thread 0 reaches a barrier: moving to the next thread.

[GKLEE]: ********** (Symbolic Configuration) Start checking bank conflicts at SharedMemory  **********
[GKLEE]: The read set is empty in bank conflict checking for capability 2.x
[GKLEE]: The write set is empty in bank conflict checking for capability 2.x
[GKLEE]: ********** No Bank Conflict found at this SharedMemory **********

[GKLEE]: ********** (Symbolic Configuration) Start checking coalesced device memory access at capability: 2.x **********
[GKLEE]: ********** All memory accesses are coalesced at capability: 2.x **********

[GKLEE]: ********** (Symbolic Configuration) Start checking warp divergence  **********
[GKLEE]: ********** Warp Divergence not found for this kernel **********

[GKLEE]: ********** (Symbolic Config) Start checking missed volatile at SharedMemory  ********** 
[GKLEE]: ********** No 'Volatile' Qualifier Missed at this SharedMemory **********

[GKLEE]: ********** (Symbolic Config) Start checking races at SharedMemory  **********
[GKLEE]: ++++++++++ Read-Write race checking (Pure Canonical Schedule) ++++++++++
[GKLEE]: ++++++++++ Write-Write race checking (Pure Canonical Schedule) ++++++++++
[GKLEE]: ********** no races found at SharedMemory ***********

[GKLEE]: ********** (Symbolic Config) Start checking races at DeviceMemory (Within Same Block)  **********
[GKLEE]: ++++++++++ Read-Write race checking (Pure Canonical Schedule) ++++++++++
[GKLEE]: ++++++++++ Write-Write race checking (Pure Canonical Schedule) ++++++++++
[GKLEE]: ********* no races found at DeviceMemory **********
[GKLEE]: Within the current Barrier Interval, 1 flows are used to represent all threads !
[GKLEE]: In Barrier Interval 20, Elapsed time for symbolic configuration (Parametric Flow): 0.00654
Thread 0 reaches a barrier: moving to the next thread.

[GKLEE]: ********** (Symbolic Configuration) Start checking bank conflicts at SharedMemory  **********
[GKLEE]: The read set is empty in bank conflict checking for capability 2.x
[GKLEE]: The write set is empty in bank conflict checking for capability 2.x
[GKLEE]: ********** No Bank Conflict found at this SharedMemory **********

[GKLEE]: ********** (Symbolic Configuration) Start checking coalesced device memory access at capability: 2.x **********
[GKLEE]: ********** All memory accesses are coalesced at capability: 2.x **********

[GKLEE]: ********** (Symbolic Configuration) Start checking warp divergence  **********
[GKLEE]: ********** Warp Divergence not found for this kernel **********

[GKLEE]: ********** (Symbolic Config) Start checking missed volatile at SharedMemory  ********** 
[GKLEE]: ********** No 'Volatile' Qualifier Missed at this SharedMemory **********

[GKLEE]: ********** (Symbolic Config) Start checking races at SharedMemory  **********
[GKLEE]: ++++++++++ Read-Write race checking (Pure Canonical Schedule) ++++++++++
[GKLEE]: ++++++++++ Write-Write race checking (Pure Canonical Schedule) ++++++++++
[GKLEE]: ********** no races found at SharedMemory ***********

[GKLEE]: ********** (Symbolic Config) Start checking races at DeviceMemory (Within Same Block)  **********
[GKLEE]: ++++++++++ Read-Write race checking (Pure Canonical Schedule) ++++++++++
[GKLEE]: ++++++++++ Write-Write race checking (Pure Canonical Schedule) ++++++++++
[GKLEE]: ********* no races found at DeviceMemory **********
[GKLEE]: Within the current Barrier Interval, 1 flows are used to represent all threads !
[GKLEE]: In Barrier Interval 21, Elapsed time for symbolic configuration (Parametric Flow): 0.006551
Thread 0 reaches a barrier: moving to the next thread.

[GKLEE]: ********** (Symbolic Configuration) Start checking bank conflicts at SharedMemory  **********
[GKLEE]: The read set is empty in bank conflict checking for capability 2.x
[GKLEE]: The write set is empty in bank conflict checking for capability 2.x
[GKLEE]: ********** No Bank Conflict found at this SharedMemory **********

[GKLEE]: ********** (Symbolic Configuration) Start checking coalesced device memory access at capability: 2.x **********
[GKLEE]: ********** All memory accesses are coalesced at capability: 2.x **********

[GKLEE]: ********** (Symbolic Configuration) Start checking warp divergence  **********
[GKLEE]: ********** Warp Divergence not found for this kernel **********

[GKLEE]: ********** (Symbolic Config) Start checking missed volatile at SharedMemory  ********** 
[GKLEE]: ********** No 'Volatile' Qualifier Missed at this SharedMemory **********

[GKLEE]: ********** (Symbolic Config) Start checking races at SharedMemory  **********
[GKLEE]: ++++++++++ Read-Write race checking (Pure Canonical Schedule) ++++++++++
[GKLEE]: ++++++++++ Write-Write race checking (Pure Canonical Schedule) ++++++++++
[GKLEE]: ********** no races found at SharedMemory ***********

[GKLEE]: ********** (Symbolic Config) Start checking races at DeviceMemory (Within Same Block)  **********
[GKLEE]: ++++++++++ Read-Write race checking (Pure Canonical Schedule) ++++++++++
[GKLEE]: ++++++++++ Write-Write race checking (Pure Canonical Schedule) ++++++++++
[GKLEE]: ********* no races found at DeviceMemory **********
[GKLEE]: Within the current Barrier Interval, 1 flows are used to represent all threads !
[GKLEE]: In Barrier Interval 22, Elapsed time for symbolic configuration (Parametric Flow): 0.006441
Thread 0 reaches a barrier: moving to the next thread.

[GKLEE]: ********** (Symbolic Configuration) Start checking bank conflicts at SharedMemory  **********
[GKLEE]: The read set is empty in bank conflict checking for capability 2.x
[GKLEE]: The write set is empty in bank conflict checking for capability 2.x
[GKLEE]: ********** No Bank Conflict found at this SharedMemory **********

[GKLEE]: ********** (Symbolic Configuration) Start checking coalesced device memory access at capability: 2.x **********
[GKLEE]: ********** All memory accesses are coalesced at capability: 2.x **********

[GKLEE]: ********** (Symbolic Configuration) Start checking warp divergence  **********
[GKLEE]: ********** Warp Divergence not found for this kernel **********

[GKLEE]: ********** (Symbolic Config) Start checking missed volatile at SharedMemory  ********** 
[GKLEE]: ********** No 'Volatile' Qualifier Missed at this SharedMemory **********

[GKLEE]: ********** (Symbolic Config) Start checking races at SharedMemory  **********
[GKLEE]: ++++++++++ Read-Write race checking (Pure Canonical Schedule) ++++++++++
[GKLEE]: ++++++++++ Write-Write race checking (Pure Canonical Schedule) ++++++++++
[GKLEE]: ********** no races found at SharedMemory ***********

[GKLEE]: ********** (Symbolic Config) Start checking races at DeviceMemory (Within Same Block)  **********
[GKLEE]: ++++++++++ Read-Write race checking (Pure Canonical Schedule) ++++++++++
[GKLEE]: ++++++++++ Write-Write race checking (Pure Canonical Schedule) ++++++++++
[GKLEE]: ********* no races found at DeviceMemory **********
[GKLEE]: Within the current Barrier Interval, 1 flows are used to represent all threads !
[GKLEE]: In Barrier Interval 23, Elapsed time for symbolic configuration (Parametric Flow): 0.006392
Thread 0 reaches a barrier: moving to the next thread.

[GKLEE]: ********** (Symbolic Configuration) Start checking bank conflicts at SharedMemory  **********
[GKLEE]: The read set is empty in bank conflict checking for capability 2.x
[GKLEE]: The write set is empty in bank conflict checking for capability 2.x
[GKLEE]: ********** No Bank Conflict found at this SharedMemory **********

[GKLEE]: ********** (Symbolic Configuration) Start checking coalesced device memory access at capability: 2.x **********
[GKLEE]: ********** All memory accesses are coalesced at capability: 2.x **********

[GKLEE]: ********** (Symbolic Configuration) Start checking warp divergence  **********
[GKLEE]: ********** Warp Divergence not found for this kernel **********

[GKLEE]: ********** (Symbolic Config) Start checking missed volatile at SharedMemory  ********** 
[GKLEE]: ********** No 'Volatile' Qualifier Missed at this SharedMemory **********

[GKLEE]: ********** (Symbolic Config) Start checking races at SharedMemory  **********
[GKLEE]: ++++++++++ Read-Write race checking (Pure Canonical Schedule) ++++++++++
[GKLEE]: ++++++++++ Write-Write race checking (Pure Canonical Schedule) ++++++++++
[GKLEE]: ********** no races found at SharedMemory ***********

[GKLEE]: ********** (Symbolic Config) Start checking races at DeviceMemory (Within Same Block)  **********
[GKLEE]: ++++++++++ Read-Write race checking (Pure Canonical Schedule) ++++++++++
[GKLEE]: ++++++++++ Write-Write race checking (Pure Canonical Schedule) ++++++++++
[GKLEE]: ********* no races found at DeviceMemory **********
[GKLEE]: Within the current Barrier Interval, 1 flows are used to represent all threads !
[GKLEE]: In Barrier Interval 24, Elapsed time for symbolic configuration (Parametric Flow): 0.006547
Thread 0 reaches a barrier: moving to the next thread.

[GKLEE]: ********** (Symbolic Configuration) Start checking bank conflicts at SharedMemory  **********
[GKLEE]: The read set is empty in bank conflict checking for capability 2.x
[GKLEE]: The write set is empty in bank conflict checking for capability 2.x
[GKLEE]: ********** No Bank Conflict found at this SharedMemory **********

[GKLEE]: ********** (Symbolic Configuration) Start checking coalesced device memory access at capability: 2.x **********
[GKLEE]: ********** All memory accesses are coalesced at capability: 2.x **********

[GKLEE]: ********** (Symbolic Configuration) Start checking warp divergence  **********
[GKLEE]: ********** Warp Divergence not found for this kernel **********

[GKLEE]: ********** (Symbolic Config) Start checking missed volatile at SharedMemory  ********** 
[GKLEE]: ********** No 'Volatile' Qualifier Missed at this SharedMemory **********

[GKLEE]: ********** (Symbolic Config) Start checking races at SharedMemory  **********
[GKLEE]: ++++++++++ Read-Write race checking (Pure Canonical Schedule) ++++++++++
[GKLEE]: ++++++++++ Write-Write race checking (Pure Canonical Schedule) ++++++++++
[GKLEE]: ********** no races found at SharedMemory ***********

[GKLEE]: ********** (Symbolic Config) Start checking races at DeviceMemory (Within Same Block)  **********
[GKLEE]: ++++++++++ Read-Write race checking (Pure Canonical Schedule) ++++++++++
[GKLEE]: ++++++++++ Write-Write race checking (Pure Canonical Schedule) ++++++++++
[GKLEE]: ********* no races found at DeviceMemory **********
[GKLEE]: Within the current Barrier Interval, 1 flows are used to represent all threads !
[GKLEE]: In Barrier Interval 25, Elapsed time for symbolic configuration (Parametric Flow): 0.006505
Thread 0 reaches a barrier: moving to the next thread.

[GKLEE]: ********** (Symbolic Configuration) Start checking bank conflicts at SharedMemory  **********
[GKLEE]: The read set is empty in bank conflict checking for capability 2.x
[GKLEE]: The write set is empty in bank conflict checking for capability 2.x
[GKLEE]: ********** No Bank Conflict found at this SharedMemory **********

[GKLEE]: ********** (Symbolic Configuration) Start checking coalesced device memory access at capability: 2.x **********
[GKLEE]: ********** All memory accesses are coalesced at capability: 2.x **********

[GKLEE]: ********** (Symbolic Configuration) Start checking warp divergence  **********
[GKLEE]: ********** Warp Divergence not found for this kernel **********

[GKLEE]: ********** (Symbolic Config) Start checking missed volatile at SharedMemory  ********** 
[GKLEE]: ********** No 'Volatile' Qualifier Missed at this SharedMemory **********

[GKLEE]: ********** (Symbolic Config) Start checking races at SharedMemory  **********
[GKLEE]: ++++++++++ Read-Write race checking (Pure Canonical Schedule) ++++++++++
[GKLEE]: ++++++++++ Write-Write race checking (Pure Canonical Schedule) ++++++++++
[GKLEE]: ********** no races found at SharedMemory ***********

[GKLEE]: ********** (Symbolic Config) Start checking races at DeviceMemory (Within Same Block)  **********
[GKLEE]: ++++++++++ Read-Write race checking (Pure Canonical Schedule) ++++++++++
[GKLEE]: ++++++++++ Write-Write race checking (Pure Canonical Schedule) ++++++++++
[GKLEE]: ********* no races found at DeviceMemory **********
[GKLEE]: Within the current Barrier Interval, 1 flows are used to represent all threads !
[GKLEE]: In Barrier Interval 26, Elapsed time for symbolic configuration (Parametric Flow): 0.006385
Thread 0 reaches a barrier: moving to the next thread.

[GKLEE]: ********** (Symbolic Configuration) Start checking bank conflicts at SharedMemory  **********
[GKLEE]: The read set is empty in bank conflict checking for capability 2.x
[GKLEE]: The write set is empty in bank conflict checking for capability 2.x
[GKLEE]: ********** No Bank Conflict found at this SharedMemory **********

[GKLEE]: ********** (Symbolic Configuration) Start checking coalesced device memory access at capability: 2.x **********
[GKLEE]: ********** All memory accesses are coalesced at capability: 2.x **********

[GKLEE]: ********** (Symbolic Configuration) Start checking warp divergence  **********
[GKLEE]: ********** Warp Divergence not found for this kernel **********

[GKLEE]: ********** (Symbolic Config) Start checking missed volatile at SharedMemory  ********** 
[GKLEE]: ********** No 'Volatile' Qualifier Missed at this SharedMemory **********

[GKLEE]: ********** (Symbolic Config) Start checking races at SharedMemory  **********
[GKLEE]: ++++++++++ Read-Write race checking (Pure Canonical Schedule) ++++++++++
[GKLEE]: ++++++++++ Write-Write race checking (Pure Canonical Schedule) ++++++++++
[GKLEE]: ********** no races found at SharedMemory ***********

[GKLEE]: ********** (Symbolic Config) Start checking races at DeviceMemory (Within Same Block)  **********
[GKLEE]: ++++++++++ Read-Write race checking (Pure Canonical Schedule) ++++++++++
[GKLEE]: ++++++++++ Write-Write race checking (Pure Canonical Schedule) ++++++++++
[GKLEE]: ********* no races found at DeviceMemory **********
[GKLEE]: Within the current Barrier Interval, 1 flows are used to represent all threads !
[GKLEE]: In Barrier Interval 27, Elapsed time for symbolic configuration (Parametric Flow): 0.006358
Thread 0 reaches a barrier: moving to the next thread.

[GKLEE]: ********** (Symbolic Configuration) Start checking bank conflicts at SharedMemory  **********
[GKLEE]: The read set is empty in bank conflict checking for capability 2.x
[GKLEE]: The write set is empty in bank conflict checking for capability 2.x
[GKLEE]: ********** No Bank Conflict found at this SharedMemory **********

[GKLEE]: ********** (Symbolic Configuration) Start checking coalesced device memory access at capability: 2.x **********
[GKLEE]: ********** All memory accesses are coalesced at capability: 2.x **********

[GKLEE]: ********** (Symbolic Configuration) Start checking warp divergence  **********
[GKLEE]: ********** Warp Divergence not found for this kernel **********

[GKLEE]: ********** (Symbolic Config) Start checking missed volatile at SharedMemory  ********** 
[GKLEE]: ********** No 'Volatile' Qualifier Missed at this SharedMemory **********

[GKLEE]: ********** (Symbolic Config) Start checking races at SharedMemory  **********
[GKLEE]: ++++++++++ Read-Write race checking (Pure Canonical Schedule) ++++++++++
[GKLEE]: ++++++++++ Write-Write race checking (Pure Canonical Schedule) ++++++++++
[GKLEE]: ********** no races found at SharedMemory ***********

[GKLEE]: ********** (Symbolic Config) Start checking races at DeviceMemory (Within Same Block)  **********
[GKLEE]: ++++++++++ Read-Write race checking (Pure Canonical Schedule) ++++++++++
[GKLEE]: ++++++++++ Write-Write race checking (Pure Canonical Schedule) ++++++++++
[GKLEE]: ********* no races found at DeviceMemory **********
[GKLEE]: Within the current Barrier Interval, 1 flows are used to represent all threads !
[GKLEE]: In Barrier Interval 28, Elapsed time for symbolic configuration (Parametric Flow): 0.006361
Thread 0 reaches a barrier: moving to the next thread.

[GKLEE]: ********** (Symbolic Configuration) Start checking bank conflicts at SharedMemory  **********
[GKLEE]: The read set is empty in bank conflict checking for capability 2.x
[GKLEE]: The write set is empty in bank conflict checking for capability 2.x
[GKLEE]: ********** No Bank Conflict found at this SharedMemory **********

[GKLEE]: ********** (Symbolic Configuration) Start checking coalesced device memory access at capability: 2.x **********
[GKLEE]: ********** All memory accesses are coalesced at capability: 2.x **********

[GKLEE]: ********** (Symbolic Configuration) Start checking warp divergence  **********
[GKLEE]: ********** Warp Divergence not found for this kernel **********

[GKLEE]: ********** (Symbolic Config) Start checking missed volatile at SharedMemory  ********** 
[GKLEE]: ********** No 'Volatile' Qualifier Missed at this SharedMemory **********

[GKLEE]: ********** (Symbolic Config) Start checking races at SharedMemory  **********
[GKLEE]: ++++++++++ Read-Write race checking (Pure Canonical Schedule) ++++++++++
[GKLEE]: ++++++++++ Write-Write race checking (Pure Canonical Schedule) ++++++++++
[GKLEE]: ********** no races found at SharedMemory ***********

[GKLEE]: ********** (Symbolic Config) Start checking races at DeviceMemory (Within Same Block)  **********
[GKLEE]: ++++++++++ Read-Write race checking (Pure Canonical Schedule) ++++++++++
[GKLEE]: ++++++++++ Write-Write race checking (Pure Canonical Schedule) ++++++++++
[GKLEE]: ********* no races found at DeviceMemory **********
[GKLEE]: Within the current Barrier Interval, 1 flows are used to represent all threads !
[GKLEE]: In Barrier Interval 29, Elapsed time for symbolic configuration (Parametric Flow): 0.00638
Thread 0 reaches a barrier: moving to the next thread.

[GKLEE]: ********** (Symbolic Configuration) Start checking bank conflicts at SharedMemory  **********
[GKLEE]: The read set is empty in bank conflict checking for capability 2.x
[GKLEE]: The write set is empty in bank conflict checking for capability 2.x
[GKLEE]: ********** No Bank Conflict found at this SharedMemory **********

[GKLEE]: ********** (Symbolic Configuration) Start checking coalesced device memory access at capability: 2.x **********
[GKLEE]: ********** All memory accesses are coalesced at capability: 2.x **********

[GKLEE]: ********** (Symbolic Configuration) Start checking warp divergence  **********
[GKLEE]: ********** Warp Divergence not found for this kernel **********

[GKLEE]: ********** (Symbolic Config) Start checking missed volatile at SharedMemory  ********** 
[GKLEE]: ********** No 'Volatile' Qualifier Missed at this SharedMemory **********

[GKLEE]: ********** (Symbolic Config) Start checking races at SharedMemory  **********
[GKLEE]: ++++++++++ Read-Write race checking (Pure Canonical Schedule) ++++++++++
[GKLEE]: ++++++++++ Write-Write race checking (Pure Canonical Schedule) ++++++++++
[GKLEE]: ********** no races found at SharedMemory ***********

[GKLEE]: ********** (Symbolic Config) Start checking races at DeviceMemory (Within Same Block)  **********
[GKLEE]: ++++++++++ Read-Write race checking (Pure Canonical Schedule) ++++++++++
[GKLEE]: ++++++++++ Write-Write race checking (Pure Canonical Schedule) ++++++++++
[GKLEE]: ********* no races found at DeviceMemory **********
[GKLEE]: Within the current Barrier Interval, 1 flows are used to represent all threads !
[GKLEE]: In Barrier Interval 30, Elapsed time for symbolic configuration (Parametric Flow): 0.006355
Thread 0 reaches a barrier: moving to the next thread.

[GKLEE]: ********** (Symbolic Configuration) Start checking bank conflicts at SharedMemory  **********
[GKLEE]: The read set is empty in bank conflict checking for capability 2.x
[GKLEE]: The write set is empty in bank conflict checking for capability 2.x
[GKLEE]: ********** No Bank Conflict found at this SharedMemory **********

[GKLEE]: ********** (Symbolic Configuration) Start checking coalesced device memory access at capability: 2.x **********
[GKLEE]: ********** All memory accesses are coalesced at capability: 2.x **********

[GKLEE]: ********** (Symbolic Configuration) Start checking warp divergence  **********
[GKLEE]: ********** Warp Divergence not found for this kernel **********

[GKLEE]: ********** (Symbolic Config) Start checking missed volatile at SharedMemory  ********** 
[GKLEE]: ********** No 'Volatile' Qualifier Missed at this SharedMemory **********

[GKLEE]: ********** (Symbolic Config) Start checking races at SharedMemory  **********
[GKLEE]: ++++++++++ Read-Write race checking (Pure Canonical Schedule) ++++++++++
[GKLEE]: ++++++++++ Write-Write race checking (Pure Canonical Schedule) ++++++++++
[GKLEE]: ********** no races found at SharedMemory ***********

[GKLEE]: ********** (Symbolic Config) Start checking races at DeviceMemory (Within Same Block)  **********
[GKLEE]: ++++++++++ Read-Write race checking (Pure Canonical Schedule) ++++++++++
[GKLEE]: ++++++++++ Write-Write race checking (Pure Canonical Schedule) ++++++++++
[GKLEE]: ********* no races found at DeviceMemory **********
[GKLEE]: Within the current Barrier Interval, 1 flows are used to represent all threads !
[GKLEE]: In Barrier Interval 31, Elapsed time for symbolic configuration (Parametric Flow): 0.006378
Thread 0 reaches a barrier: moving to the next thread.

[GKLEE]: ********** (Symbolic Configuration) Start checking bank conflicts at SharedMemory  **********
[GKLEE]: The read set is empty in bank conflict checking for capability 2.x
[GKLEE]: The write set is empty in bank conflict checking for capability 2.x
[GKLEE]: ********** No Bank Conflict found at this SharedMemory **********

[GKLEE]: ********** (Symbolic Configuration) Start checking coalesced device memory access at capability: 2.x **********
[GKLEE]: ********** All memory accesses are coalesced at capability: 2.x **********

[GKLEE]: ********** (Symbolic Configuration) Start checking warp divergence  **********
[GKLEE]: ********** Warp Divergence not found for this kernel **********

[GKLEE]: ********** (Symbolic Config) Start checking missed volatile at SharedMemory  ********** 
[GKLEE]: ********** No 'Volatile' Qualifier Missed at this SharedMemory **********

[GKLEE]: ********** (Symbolic Config) Start checking races at SharedMemory  **********
[GKLEE]: ++++++++++ Read-Write race checking (Pure Canonical Schedule) ++++++++++
[GKLEE]: ++++++++++ Write-Write race checking (Pure Canonical Schedule) ++++++++++
[GKLEE]: ********** no races found at SharedMemory ***********

[GKLEE]: ********** (Symbolic Config) Start checking races at DeviceMemory (Within Same Block)  **********
[GKLEE]: ++++++++++ Read-Write race checking (Pure Canonical Schedule) ++++++++++
[GKLEE]: ++++++++++ Write-Write race checking (Pure Canonical Schedule) ++++++++++
[GKLEE]: ********* no races found at DeviceMemory **********
[GKLEE]: Within the current Barrier Interval, 1 flows are used to represent all threads !
[GKLEE]: In Barrier Interval 32, Elapsed time for symbolic configuration (Parametric Flow): 0.00637
Thread 0 reaches a barrier: moving to the next thread.

[GKLEE]: ********** (Symbolic Configuration) Start checking bank conflicts at SharedMemory  **********
[GKLEE]: The read set is empty in bank conflict checking for capability 2.x
[GKLEE]: The write set is empty in bank conflict checking for capability 2.x
[GKLEE]: ********** No Bank Conflict found at this SharedMemory **********

[GKLEE]: ********** (Symbolic Configuration) Start checking coalesced device memory access at capability: 2.x **********
[GKLEE]: ********** All memory accesses are coalesced at capability: 2.x **********

[GKLEE]: ********** (Symbolic Configuration) Start checking warp divergence  **********
[GKLEE]: ********** Warp Divergence not found for this kernel **********

[GKLEE]: ********** (Symbolic Config) Start checking missed volatile at SharedMemory  ********** 
[GKLEE]: ********** No 'Volatile' Qualifier Missed at this SharedMemory **********

[GKLEE]: ********** (Symbolic Config) Start checking races at SharedMemory  **********
[GKLEE]: ++++++++++ Read-Write race checking (Pure Canonical Schedule) ++++++++++
[GKLEE]: ++++++++++ Write-Write race checking (Pure Canonical Schedule) ++++++++++
[GKLEE]: ********** no races found at SharedMemory ***********

[GKLEE]: ********** (Symbolic Config) Start checking races at DeviceMemory (Within Same Block)  **********
[GKLEE]: ++++++++++ Read-Write race checking (Pure Canonical Schedule) ++++++++++
[GKLEE]: ++++++++++ Write-Write race checking (Pure Canonical Schedule) ++++++++++
[GKLEE]: ********* no races found at DeviceMemory **********
[GKLEE]: Within the current Barrier Interval, 1 flows are used to represent all threads !
[GKLEE]: In Barrier Interval 33, Elapsed time for symbolic configuration (Parametric Flow): 0.006382
Thread 0 reaches a barrier: moving to the next thread.

[GKLEE]: ********** (Symbolic Configuration) Start checking bank conflicts at SharedMemory  **********
[GKLEE]: The read set is empty in bank conflict checking for capability 2.x
[GKLEE]: The write set is empty in bank conflict checking for capability 2.x
[GKLEE]: ********** No Bank Conflict found at this SharedMemory **********

[GKLEE]: ********** (Symbolic Configuration) Start checking coalesced device memory access at capability: 2.x **********
[GKLEE]: ********** All memory accesses are coalesced at capability: 2.x **********

[GKLEE]: ********** (Symbolic Configuration) Start checking warp divergence  **********
[GKLEE]: ********** Warp Divergence not found for this kernel **********

[GKLEE]: ********** (Symbolic Config) Start checking missed volatile at SharedMemory  ********** 
[GKLEE]: ********** No 'Volatile' Qualifier Missed at this SharedMemory **********

[GKLEE]: ********** (Symbolic Config) Start checking races at SharedMemory  **********
[GKLEE]: ++++++++++ Read-Write race checking (Pure Canonical Schedule) ++++++++++
[GKLEE]: ++++++++++ Write-Write race checking (Pure Canonical Schedule) ++++++++++
[GKLEE]: ********** no races found at SharedMemory ***********

[GKLEE]: ********** (Symbolic Config) Start checking races at DeviceMemory (Within Same Block)  **********
[GKLEE]: ++++++++++ Read-Write race checking (Pure Canonical Schedule) ++++++++++
[GKLEE]: ++++++++++ Write-Write race checking (Pure Canonical Schedule) ++++++++++
[GKLEE]: ********* no races found at DeviceMemory **********
[GKLEE]: Within the current Barrier Interval, 1 flows are used to represent all threads !
[GKLEE]: In Barrier Interval 34, Elapsed time for symbolic configuration (Parametric Flow): 0.006374
Thread 0 reaches a barrier: moving to the next thread.

[GKLEE]: ********** (Symbolic Configuration) Start checking bank conflicts at SharedMemory  **********
[GKLEE]: The read set is empty in bank conflict checking for capability 2.x
[GKLEE]: The write set is empty in bank conflict checking for capability 2.x
[GKLEE]: ********** No Bank Conflict found at this SharedMemory **********

[GKLEE]: ********** (Symbolic Configuration) Start checking coalesced device memory access at capability: 2.x **********
[GKLEE]: ********** All memory accesses are coalesced at capability: 2.x **********

[GKLEE]: ********** (Symbolic Configuration) Start checking warp divergence  **********
[GKLEE]: ********** Warp Divergence not found for this kernel **********

[GKLEE]: ********** (Symbolic Config) Start checking missed volatile at SharedMemory  ********** 
[GKLEE]: ********** No 'Volatile' Qualifier Missed at this SharedMemory **********

[GKLEE]: ********** (Symbolic Config) Start checking races at SharedMemory  **********
[GKLEE]: ++++++++++ Read-Write race checking (Pure Canonical Schedule) ++++++++++
[GKLEE]: ++++++++++ Write-Write race checking (Pure Canonical Schedule) ++++++++++
[GKLEE]: ********** no races found at SharedMemory ***********

[GKLEE]: ********** (Symbolic Config) Start checking races at DeviceMemory (Within Same Block)  **********
[GKLEE]: ++++++++++ Read-Write race checking (Pure Canonical Schedule) ++++++++++
[GKLEE]: ++++++++++ Write-Write race checking (Pure Canonical Schedule) ++++++++++
[GKLEE]: ********* no races found at DeviceMemory **********
[GKLEE]: Within the current Barrier Interval, 1 flows are used to represent all threads !
[GKLEE]: In Barrier Interval 35, Elapsed time for symbolic configuration (Parametric Flow): 0.006357
Thread 0 reaches a barrier: moving to the next thread.

[GKLEE]: ********** (Symbolic Configuration) Start checking bank conflicts at SharedMemory  **********
[GKLEE]: The read set is empty in bank conflict checking for capability 2.x
[GKLEE]: The write set is empty in bank conflict checking for capability 2.x
[GKLEE]: ********** No Bank Conflict found at this SharedMemory **********

[GKLEE]: ********** (Symbolic Configuration) Start checking coalesced device memory access at capability: 2.x **********
[GKLEE]: The read set for memory coalescing cap 2 is empty
[GKLEE]: The write set for memory coalescing cap 2 is empty
[GKLEE]: ********** All memory accesses are coalesced at capability: 2.x **********

[GKLEE]: ********** (Symbolic Configuration) Start checking warp divergence  **********
[GKLEE]: ********** Warp Divergence not found for this kernel **********

[GKLEE]: ********** (Symbolic Config) Start checking missed volatile at SharedMemory  ********** 
[GKLEE]: ********** No 'Volatile' Qualifier Missed at this SharedMemory **********

[GKLEE]: ********** (Symbolic Config) Start checking races at SharedMemory  **********
[GKLEE]: ++++++++++ Read-Write race checking (Pure Canonical Schedule) ++++++++++
[GKLEE]: ++++++++++ Write-Write race checking (Pure Canonical Schedule) ++++++++++
[GKLEE]: ********** no races found at SharedMemory ***********

[GKLEE]: ********** (Symbolic Config) Start checking races at DeviceMemory (Within Same Block)  **********
[GKLEE]: ++++++++++ Read-Write race checking (Pure Canonical Schedule) ++++++++++
[GKLEE]: ++++++++++ Write-Write race checking (Pure Canonical Schedule) ++++++++++

[GKLEE]: ********** (Symbolic Config) Checking races at DeviceMemory (Across Blocks) not allowed (number of block > 1)  **********
[GKLEE]: ********* no races found at DeviceMemory **********
[GKLEE]: Within the current Barrier Interval, 1 flows are used to represent all threads !

[GKLEE]: Finish executing a GPU kernel 

[GKLEE]: GPU Execution time: 0.263629s
[GKLEE]: In Barrier Interval 36, Elapsed time for symbolic configuration (Parametric Flow): 8.4e-05

[GKLEE]: Finishing the program!
 path num explored here (symbolic config): 1
<BI: 1, Time: 0.024522>
<BI: 2, Time: 0.006825>
<BI: 3, Time: 0.006653>
<BI: 4, Time: 0.006555>
<BI: 5, Time: 0.006549>
<BI: 6, Time: 0.006552>
<BI: 7, Time: 0.006549>
<BI: 8, Time: 0.00693>
<BI: 9, Time: 0.007386>
<BI: 10, Time: 0.007325>
<BI: 11, Time: 0.007223>
<BI: 12, Time: 0.007137>
<BI: 13, Time: 0.00698>
<BI: 14, Time: 0.006723>
<BI: 15, Time: 0.006679>
<BI: 16, Time: 0.006552>
<BI: 17, Time: 0.006533>
<BI: 18, Time: 0.006544>
<BI: 19, Time: 0.006534>
<BI: 20, Time: 0.00654>
<BI: 21, Time: 0.006551>
<BI: 22, Time: 0.006441>
<BI: 23, Time: 0.006392>
<BI: 24, Time: 0.006547>
<BI: 25, Time: 0.006505>
<BI: 26, Time: 0.006385>
<BI: 27, Time: 0.006358>
<BI: 28, Time: 0.006361>
<BI: 29, Time: 0.00638>
<BI: 30, Time: 0.006355>
<BI: 31, Time: 0.006378>
<BI: 32, Time: 0.00637>
<BI: 33, Time: 0.006382>
<BI: 34, Time: 0.006374>
<BI: 35, Time: 0.006357>
<BI: 36, Time: 8.4e-05>
Under symbolic configuration, Across 36 BIs, Total Time: 0.249511
After exploring 1 paths, the average exploration time (symbolic) is 0.249511s, the total execution time: 0.249511s
********** No Bank Conflict found **********
********** Memory Coalescing found **********
********** No Warp Divergence found **********
********** No Volatile Missed found *********
********** No Race found **********

KLEE: done: total instructions = 1220
KLEE: done: completed paths = 1
KLEE: done: generated tests = 1
RUN /opt/gklee/gklee-nvcc gklee/barriers-35.cu -o gklee/barriers-35.bc
RUN /opt/gklee/gklee --symbolic-config gklee/barriers-35.bc
DEL gklee/barriers-35.bc
DEL /home/verify/datasets/micro-benchmarks/barriers-35.cpp
DEL /home/verify/datasets/micro-benchmarks/barriers-35.kernelSet.txt
DEL flowsGraph.dot
DEL gklee/klee-last
DEL gklee/klee-out-0
