nested-loops-23.cpp:92:31: error: indirection requires pointer operand ('unsigned long' invalid)
    cudaMalloc((void**)&out,  * sizeof(float));
                              ^ ~~~~~~~~~~~~~
nested-loops-23.cpp:96:29: error: indirection requires pointer operand ('unsigned long' invalid)
    cudaMalloc((void**)&a,  * sizeof(float));
                            ^ ~~~~~~~~~~~~~
nested-loops-23.cpp:100:29: error: indirection requires pointer operand ('unsigned long' invalid)
    cudaMalloc((void**)&b,  * sizeof(float));
                            ^ ~~~~~~~~~~~~~
3 errors generated.
Configuration: concurrency bug checking level is: 2
KLEE: ERROR: error loading program 'gklee/nested-loops-23.bc': No such file or directory
RUN /opt/gklee/gklee-nvcc gklee/nested-loops-23.cu -o gklee/nested-loops-23.bc
RUN /opt/gklee/gklee --symbolic-config gklee/nested-loops-23.bc
DEL /home/verify/datasets/micro-benchmarks/nested-loops-23.cpp
DEL /home/verify/datasets/micro-benchmarks/nested-loops-23.kernelSet.txt
DEL flowsGraph.dot
