nested-loops-32.cpp:119:31: error: indirection requires pointer operand ('unsigned long' invalid)
    cudaMalloc((void**)&out,  * sizeof(float));
                              ^ ~~~~~~~~~~~~~
nested-loops-32.cpp:123:29: error: indirection requires pointer operand ('unsigned long' invalid)
    cudaMalloc((void**)&a,  * sizeof(float));
                            ^ ~~~~~~~~~~~~~
nested-loops-32.cpp:127:29: error: indirection requires pointer operand ('unsigned long' invalid)
    cudaMalloc((void**)&b,  * sizeof(float));
                            ^ ~~~~~~~~~~~~~
3 errors generated.
Configuration: concurrency bug checking level is: 2
KLEE: ERROR: error loading program 'gklee/nested-loops-32.bc': No such file or directory
RUN /opt/gklee/gklee-nvcc gklee/nested-loops-32.cu -o gklee/nested-loops-32.bc
RUN /opt/gklee/gklee --symbolic-config gklee/nested-loops-32.bc
DEL /home/verify/datasets/micro-benchmarks/nested-loops-32.cpp
DEL /home/verify/datasets/micro-benchmarks/nested-loops-32.kernelSet.txt
DEL flowsGraph.dot
