ifs-20.opt.bc: warning: Assuming the arguments 'out', 'a', 'b' of 'kernel' on line 11 of gpuverify/ifs-20.cu to be non-aliased; please consider adding a restrict qualifier to these arguments
GPUVerify kernel analyser finished with 1 verified, 0 errors
Verified: gpuverify/ifs-20.cu
- no data races within thread blocks
- no barrier divergence
- no assertion failures
(but absolutely no warranty provided)
