"/home/verify/datasets/micro-benchmarks/pug/nested-loops-sync-34.c", line 80: warning: 
          function "kernel" was declared but never referenced
  __global__ void kernel (float* out, float* a, float* b, int count) {
                  ^

>>>> start analysis ... 


-------------------------------------------------------
Invalid OVERFLOW_PROTECTION flag in config.txt!
Setting OVERFLOW_PROTECTION flag to on
-------------------------------------------------------

-------------------------------------------------------
Invalid NBITS value in config.txt!
Setting NBITS value to 10
-------------------------------------------------------

-------------------------------------------------------
Invalid USE_INCRSMT flag in config.txt!
Setting USE_INCRSMT flag to false
-------------------------------------------------------


-------------------------------------------------------
Invalid USE_LOOP_REFINEMENT flag in config.txt!
Setting USE_LOOP_REFINEMENT flag to true
-------------------------------------------------------


-------------------------------------------------------
Invalid SLICE_ARRAYS flag in config.txt!
Setting SLICE_ARRAYS flag to true
-------------------------------------------------------


-------------------------------------------------------
Invalid USE_ASSUMES flag in config.txt!
Setting USE_ASSUMES flag to true
-------------------------------------------------------


-------------------------------------------------------
Invalid CHK_BANK_CONFLICTS option in config.txt!
Setting CHK_BANK_CONFLICTS option to false
-------------------------------------------------------

Debug level (verbosity) set to 0


Processing function: kernel
containBarrierFlag = 1
incrExpr = i0++
------------- Already normalized 
rangeExpr = ((!1^i00 >= 0) && (!1^i00 <= (count0 - 1))); substExpr = 

Binary OP: out[(threadIdx.x) +(i0)] =((a[i0]) +(b[i0]))

FunctionCall: __syncthreads()
unsatisfiable
containBarrierFlag = 1
incrExpr = i1++
------------- Already normalized 
rangeExpr = ((!2^i10 >= 0) && (!2^i10 <= (count0 - 1))); substExpr = 

Binary OP: out[(threadIdx.x) +(i1)] =((a[i1]) +(b[i1]))

FunctionCall: __syncthreads()
unsatisfiable
containBarrierFlag = 1
incrExpr = i2++
------------- Already normalized 
rangeExpr = ((!3^i20 >= 0) && (!3^i20 <= (count0 - 1))); substExpr = 

Binary OP: out[(threadIdx.x) +(i2)] =((a[i2]) +(b[i2]))

FunctionCall: __syncthreads()
unsatisfiable
containBarrierFlag = 1
incrExpr = i3++
------------- Already normalized 
rangeExpr = ((!4^i30 >= 0) && (!4^i30 <= (count0 - 1))); substExpr = 

Binary OP: out[(threadIdx.x) +(i3)] =((a[i3]) +(b[i3]))

FunctionCall: __syncthreads()
unsatisfiable
containBarrierFlag = 1
incrExpr = i4++
------------- Already normalized 
rangeExpr = ((!5^i40 >= 0) && (!5^i40 <= (count0 - 1))); substExpr = 

Binary OP: out[(threadIdx.x) +(i4)] =((a[i4]) +(b[i4]))

FunctionCall: __syncthreads()
unsatisfiable
containBarrierFlag = 1
incrExpr = i5++
------------- Already normalized 
rangeExpr = ((!6^i50 >= 0) && (!6^i50 <= (count0 - 1))); substExpr = 

Binary OP: out[(threadIdx.x) +(i5)] =((a[i5]) +(b[i5]))

FunctionCall: __syncthreads()
unsatisfiable
containBarrierFlag = 1
incrExpr = i6++
------------- Already normalized 
rangeExpr = ((!7^i60 >= 0) && (!7^i60 <= (count0 - 1))); substExpr = 

Binary OP: out[(threadIdx.x) +(i6)] =((a[i6]) +(b[i6]))

FunctionCall: __syncthreads()
unsatisfiable
containBarrierFlag = 1
incrExpr = i7++
------------- Already normalized 
rangeExpr = ((!8^i70 >= 0) && (!8^i70 <= (count0 - 1))); substExpr = 

Binary OP: out[(threadIdx.x) +(i7)] =((a[i7]) +(b[i7]))

FunctionCall: __syncthreads()
unsatisfiable
containBarrierFlag = 1
incrExpr = i8++
------------- Already normalized 
rangeExpr = ((!9^i80 >= 0) && (!9^i80 <= (count0 - 1))); substExpr = 

Binary OP: out[(threadIdx.x) +(i8)] =((a[i8]) +(b[i8]))

FunctionCall: __syncthreads()
unsatisfiable
containBarrierFlag = 1
incrExpr = i9++
------------- Already normalized 
rangeExpr = ((!10^i90 >= 0) && (!10^i90 <= (count0 - 1))); substExpr = 

Binary OP: out[(threadIdx.x) +(i9)] =((a[i9]) +(b[i9]))

FunctionCall: __syncthreads()
unsatisfiable
containBarrierFlag = 1
incrExpr = i10++
------------- Already normalized 
rangeExpr = ((!11^i100 >= 0) && (!11^i100 <= (count0 - 1))); substExpr = 

Binary OP: out[(threadIdx.x) +(i10)] =((a[i10]) +(b[i10]))

FunctionCall: __syncthreads()
unsatisfiable
containBarrierFlag = 1
incrExpr = i11++
------------- Already normalized 
rangeExpr = ((!12^i110 >= 0) && (!12^i110 <= (count0 - 1))); substExpr = 

Binary OP: out[(threadIdx.x) +(i11)] =((a[i11]) +(b[i11]))

FunctionCall: __syncthreads()
unsatisfiable
containBarrierFlag = 1
incrExpr = i12++
------------- Already normalized 
rangeExpr = ((!13^i120 >= 0) && (!13^i120 <= (count0 - 1))); substExpr = 

Binary OP: out[(threadIdx.x) +(i12)] =((a[i12]) +(b[i12]))

FunctionCall: __syncthreads()
unsatisfiable
containBarrierFlag = 1
incrExpr = i13++
------------- Already normalized 
rangeExpr = ((!14^i130 >= 0) && (!14^i130 <= (count0 - 1))); substExpr = 

Binary OP: out[(threadIdx.x) +(i13)] =((a[i13]) +(b[i13]))

FunctionCall: __syncthreads()
unsatisfiable
containBarrierFlag = 1
incrExpr = i14++
------------- Already normalized 
rangeExpr = ((!15^i140 >= 0) && (!15^i140 <= (count0 - 1))); substExpr = 

Binary OP: out[(threadIdx.x) +(i14)] =((a[i14]) +(b[i14]))

FunctionCall: __syncthreads()
unsatisfiable
containBarrierFlag = 1
incrExpr = i15++
------------- Already normalized 
rangeExpr = ((!16^i150 >= 0) && (!16^i150 <= (count0 - 1))); substExpr = 

Binary OP: out[(threadIdx.x) +(i15)] =((a[i15]) +(b[i15]))

FunctionCall: __syncthreads()
unsatisfiable
containBarrierFlag = 1
incrExpr = i16++
------------- Already normalized 
rangeExpr = ((!17^i160 >= 0) && (!17^i160 <= (count0 - 1))); substExpr = 

Binary OP: out[(threadIdx.x) +(i16)] =((a[i16]) +(b[i16]))

FunctionCall: __syncthreads()
unsatisfiable
containBarrierFlag = 1
incrExpr = i17++
------------- Already normalized 
rangeExpr = ((!18^i170 >= 0) && (!18^i170 <= (count0 - 1))); substExpr = 

Binary OP: out[(threadIdx.x) +(i17)] =((a[i17]) +(b[i17]))

FunctionCall: __syncthreads()
unsatisfiable
containBarrierFlag = 1
incrExpr = i18++
------------- Already normalized 
rangeExpr = ((!19^i180 >= 0) && (!19^i180 <= (count0 - 1))); substExpr = 

Binary OP: out[(threadIdx.x) +(i18)] =((a[i18]) +(b[i18]))

FunctionCall: __syncthreads()
unsatisfiable
containBarrierFlag = 1
incrExpr = i19++
------------- Already normalized 
rangeExpr = ((!20^i190 >= 0) && (!20^i190 <= (count0 - 1))); substExpr = 

Binary OP: out[(threadIdx.x) +(i19)] =((a[i19]) +(b[i19]))

FunctionCall: __syncthreads()
unsatisfiable
containBarrierFlag = 1
incrExpr = i20++
------------- Already normalized 
rangeExpr = ((!21^i200 >= 0) && (!21^i200 <= (count0 - 1))); substExpr = 

Binary OP: out[(threadIdx.x) +(i20)] =((a[i20]) +(b[i20]))

FunctionCall: __syncthreads()
unsatisfiable
containBarrierFlag = 1
incrExpr = i21++
------------- Already normalized 
rangeExpr = ((!22^i210 >= 0) && (!22^i210 <= (count0 - 1))); substExpr = 

Binary OP: out[(threadIdx.x) +(i21)] =((a[i21]) +(b[i21]))

FunctionCall: __syncthreads()
unsatisfiable
containBarrierFlag = 1
incrExpr = i22++
------------- Already normalized 
rangeExpr = ((!23^i220 >= 0) && (!23^i220 <= (count0 - 1))); substExpr = 

Binary OP: out[(threadIdx.x) +(i22)] =((a[i22]) +(b[i22]))

FunctionCall: __syncthreads()
unsatisfiable
containBarrierFlag = 1
incrExpr = i23++
------------- Already normalized 
rangeExpr = ((!24^i230 >= 0) && (!24^i230 <= (count0 - 1))); substExpr = 

Binary OP: out[(threadIdx.x) +(i23)] =((a[i23]) +(b[i23]))

FunctionCall: __syncthreads()
unsatisfiable
containBarrierFlag = 1
incrExpr = i24++
------------- Already normalized 
rangeExpr = ((!25^i240 >= 0) && (!25^i240 <= (count0 - 1))); substExpr = 

Binary OP: out[(threadIdx.x) +(i24)] =((a[i24]) +(b[i24]))

FunctionCall: __syncthreads()
unsatisfiable
containBarrierFlag = 1
incrExpr = i25++
------------- Already normalized 
rangeExpr = ((!26^i250 >= 0) && (!26^i250 <= (count0 - 1))); substExpr = 

Binary OP: out[(threadIdx.x) +(i25)] =((a[i25]) +(b[i25]))

FunctionCall: __syncthreads()
unsatisfiable
containBarrierFlag = 1
incrExpr = i26++
------------- Already normalized 
rangeExpr = ((!27^i260 >= 0) && (!27^i260 <= (count0 - 1))); substExpr = 

Binary OP: out[(threadIdx.x) +(i26)] =((a[i26]) +(b[i26]))

FunctionCall: __syncthreads()
unsatisfiable
containBarrierFlag = 1
incrExpr = i27++
------------- Already normalized 
rangeExpr = ((!28^i270 >= 0) && (!28^i270 <= (count0 - 1))); substExpr = 

Binary OP: out[(threadIdx.x) +(i27)] =((a[i27]) +(b[i27]))

FunctionCall: __syncthreads()
unsatisfiable
containBarrierFlag = 1
incrExpr = i28++
------------- Already normalized 
rangeExpr = ((!29^i280 >= 0) && (!29^i280 <= (count0 - 1))); substExpr = 

Binary OP: out[(threadIdx.x) +(i28)] =((a[i28]) +(b[i28]))

FunctionCall: __syncthreads()
unsatisfiable
containBarrierFlag = 1
incrExpr = i29++
------------- Already normalized 
rangeExpr = ((!30^i290 >= 0) && (!30^i290 <= (count0 - 1))); substExpr = 

Binary OP: out[(threadIdx.x) +(i29)] =((a[i29]) +(b[i29]))

FunctionCall: __syncthreads()
unsatisfiable
containBarrierFlag = 1
incrExpr = i30++
------------- Already normalized 
rangeExpr = ((!31^i300 >= 0) && (!31^i300 <= (count0 - 1))); substExpr = 

Binary OP: out[(threadIdx.x) +(i30)] =((a[i30]) +(b[i30]))

FunctionCall: __syncthreads()
unsatisfiable
containBarrierFlag = 1
incrExpr = i31++
------------- Already normalized 
rangeExpr = ((!32^i310 >= 0) && (!32^i310 <= (count0 - 1))); substExpr = 

Binary OP: out[(threadIdx.x) +(i31)] =((a[i31]) +(b[i31]))

FunctionCall: __syncthreads()
unsatisfiable
containBarrierFlag = 1
incrExpr = i32++
------------- Already normalized 
rangeExpr = ((!33^i320 >= 0) && (!33^i320 <= (count0 - 1))); substExpr = 

Binary OP: out[(threadIdx.x) +(i32)] =((a[i32]) +(b[i32]))

FunctionCall: __syncthreads()
unsatisfiable
containBarrierFlag = 1
incrExpr = i33++
------------- Already normalized 
rangeExpr = ((!34^i330 >= 0) && (!34^i330 <= (count0 - 1))); substExpr = 

Binary OP: out[(threadIdx.x) +(i33)] =((a[i33]) +(b[i33]))

FunctionCall: __syncthreads()
unsatisfiable

Reaching the end of the kernel


#####################################################################

No races or synchronization errors were found.

Max instance solving time = 0.001197s
Total solving time = 0.023607s

#####################################################################

