"/home/verify/datasets/micro-benchmarks/pug/accs-9.c", line 83: warning: 
          function "kernel" was declared but never referenced
  __global__ void kernel (float* out) {
                  ^

>>>> start analysis ... 


-------------------------------------------------------
Invalid OVERFLOW_PROTECTION flag in config.txt!
Setting OVERFLOW_PROTECTION flag to on
-------------------------------------------------------

-------------------------------------------------------
Invalid NBITS value in config.txt!
Setting NBITS value to 10
-------------------------------------------------------

-------------------------------------------------------
Invalid USE_INCRSMT flag in config.txt!
Setting USE_INCRSMT flag to false
-------------------------------------------------------


-------------------------------------------------------
Invalid USE_LOOP_REFINEMENT flag in config.txt!
Setting USE_LOOP_REFINEMENT flag to true
-------------------------------------------------------


-------------------------------------------------------
Invalid SLICE_ARRAYS flag in config.txt!
Setting SLICE_ARRAYS flag to true
-------------------------------------------------------


-------------------------------------------------------
Invalid USE_ASSUMES flag in config.txt!
Setting USE_ASSUMES flag to true
-------------------------------------------------------


-------------------------------------------------------
Invalid CHK_BANK_CONFLICTS option in config.txt!
Setting CHK_BANK_CONFLICTS option to false
-------------------------------------------------------

Debug level (verbosity) set to 0


Processing function: kernel

Binary OP: out[(threadIdx.x) +((0) *(blockDim.x))] =(out[(threadIdx.x) +((52) *(blockDim.x))])

Binary OP: out[(threadIdx.x) +((1) *(blockDim.x))] =(out[(threadIdx.x) +((11) *(blockDim.x))])

Binary OP: out[(threadIdx.x) +((2) *(blockDim.x))] =(out[(threadIdx.x) +((32) *(blockDim.x))])

Binary OP: out[(threadIdx.x) +((3) *(blockDim.x))] =(out[(threadIdx.x) +((29) *(blockDim.x))])

Binary OP: out[(threadIdx.x) +((4) *(blockDim.x))] =(out[(threadIdx.x) +((59) *(blockDim.x))])

Binary OP: out[(threadIdx.x) +((5) *(blockDim.x))] =(out[(threadIdx.x) +((27) *(blockDim.x))])

Binary OP: out[(threadIdx.x) +((6) *(blockDim.x))] =(out[(threadIdx.x) +((13) *(blockDim.x))])

Binary OP: out[(threadIdx.x) +((7) *(blockDim.x))] =(out[(threadIdx.x) +((55) *(blockDim.x))])

Binary OP: out[(threadIdx.x) +((8) *(blockDim.x))] =(out[(threadIdx.x) +((30) *(blockDim.x))])

Reaching the end of the kernel
terminate called after throwing an instance of 'yices::type_checker_exception'
  what():  invalid shift operation.
/opt/pug/pug: line 3: 12082 Aborted                 (core dumped) LD_LIBRARY_PATH="$PREFIX/lib" "$PREFIX/bin/pug" "$@"
