"/artifact/datasets/gpuverify-cav14/pug/CUDA50/3_Imaging/convolutionSeparable/convolutionColumnsKernel.c", line 95: warning: 
          function "kernel" was declared but never referenced
  __global__ void kernel (float* d_Dst, float* d_Src, int imageW,int imageH,int pitch) {
                  ^

>>>> start analysis ... 


-------------------------------------------------------
Invalid OVERFLOW_PROTECTION flag in config.txt!
Setting OVERFLOW_PROTECTION flag to on
-------------------------------------------------------

-------------------------------------------------------
Invalid NBITS value in config.txt!
Setting NBITS value to 10
-------------------------------------------------------

-------------------------------------------------------
Invalid USE_INCRSMT flag in config.txt!
Setting USE_INCRSMT flag to false
-------------------------------------------------------


-------------------------------------------------------
Invalid USE_LOOP_REFINEMENT flag in config.txt!
Setting USE_LOOP_REFINEMENT flag to true
-------------------------------------------------------


-------------------------------------------------------
Invalid SLICE_ARRAYS flag in config.txt!
Setting SLICE_ARRAYS flag to true
-------------------------------------------------------


-------------------------------------------------------
Invalid USE_ASSUMES flag in config.txt!
Setting USE_ASSUMES flag to true
-------------------------------------------------------


-------------------------------------------------------
Invalid CHK_BANK_CONFLICTS option in config.txt!
Setting CHK_BANK_CONFLICTS option to false
-------------------------------------------------------

Debug level (verbosity) set to 0


Processing function: kernel

FunctionCall: assume((pitch == 3072))
Assuming pitch0 == 3072

FunctionCall: assume(((blockDim.x) ==(16)))
Assuming bdim.x == 16

FunctionCall: assume(((blockDim.y) ==(8)))
Assuming bdim.y == 8

FunctionCall: assume(((gridDim.x) ==(192)))
Assuming gdim.x == 192

FunctionCall: assume(((gridDim.y) ==(48)))
Assuming gdim.y == 48

Binary OP: d_Src +=((baseY * pitch) + baseX)

Binary OP: d_Dst +=((baseY * pitch) + baseX)
containBarrierFlag = 0
incrExpr = i++
------------- Already normalized 
rangeExpr = ((!1^i0 >= 1) && (!1^i0 <= (9 - 1))); substExpr = 

Binary OP: (s_Data[threadIdx.x])[(threadIdx.y) +((i * 8))] =(d_Src[(i * 8) * pitch])
containBarrierFlag = 0
incrExpr = i++
------------- Already normalized 
rangeExpr = ((!2^i0 >= 0) && (!2^i0 <= (1 - 1))); substExpr = 

Binary OP: (s_Data[threadIdx.x])[(threadIdx.y) +((i * 8))] =((baseY >=(-i * 8))?(d_Src[(i * 8) * pitch]) :(0))
containBarrierFlag = 0
incrExpr = i++
------------- Already normalized 
rangeExpr = ((!3^i0 >= 9) && (!3^i0 <= (10 - 1))); substExpr = 

Binary OP: (s_Data[threadIdx.x])[(threadIdx.y) +((i * 8))] =(((imageH - baseY) >(i * 8))?(d_Src[(i * 8) * pitch]) :(0))

FunctionCall: __syncthreads()
/artifact/tools/pug-v0.2_x64/pug: line 3: 45082 Segmentation fault      (core dumped) LD_LIBRARY_PATH="$PREFIX/lib" "$PREFIX/bin/pug" "$@"
