In file included from bisect_kernel_large_onei.cu:5:
./common.h:14:1: warning: unused function 'floorPow2' [-Wunused-function]
floorPow2(int n)
^
./common.h:34:1: warning: unused function 'ceilPow2' [-Wunused-function]
ceilPow2(int n)
^
./common.h:144:1: warning: unused function 'computeNumSmallerEigenvals' [-Wunused-function]
computeNumSmallerEigenvals(float *g_d, float *g_s, const unsigned int n,
^
3 warnings generated when compiling for sm_35.
bisect_kernel_large_onei.opt.bc: warning: Assuming the arguments 'g_d', 'g_s', 'g_left', 'g_right', 'g_pos' of 'kernel' on line 26 of bisect_kernel_large_onei.cu to be non-aliased; please consider adding a restrict qualifier to these arguments
