"/artifact/datasets/gpuverify-cav14/pug/CUDA50/3_Imaging/convolutionTexture/common.h", line 1: error: 
          this declaration has no storage class or type specifier
  template<int i>  __device__ static __attribute__((always_inline)) float convolutionRow(float x, float y);
  ^

"/artifact/datasets/gpuverify-cav14/pug/CUDA50/3_Imaging/convolutionTexture/common.h", line 1: error: 
          expected a ";"
  template<int i>  __device__ static __attribute__((always_inline)) float convolutionRow(float x, float y);
          ^

"/artifact/datasets/gpuverify-cav14/pug/CUDA50/3_Imaging/convolutionTexture/common.h", line 2: error: 
          this declaration has no storage class or type specifier
  template<>       __device__ static __attribute__((always_inline)) float convolutionRow<-1>(float x, float y);
  ^

"/artifact/datasets/gpuverify-cav14/pug/CUDA50/3_Imaging/convolutionTexture/common.h", line 2: error: 
          expected a ";"
  template<>       __device__ static __attribute__((always_inline)) float convolutionRow<-1>(float x, float y);
          ^

"/artifact/datasets/gpuverify-cav14/pug/CUDA50/3_Imaging/convolutionTexture/common.h", line 3: error: 
          this declaration has no storage class or type specifier
  template<int i>  __device__ static __attribute__((always_inline)) float convolutionColumn(float x, float y);
  ^

"/artifact/datasets/gpuverify-cav14/pug/CUDA50/3_Imaging/convolutionTexture/common.h", line 3: error: 
          expected a ";"
  template<int i>  __device__ static __attribute__((always_inline)) float convolutionColumn(float x, float y);
          ^

"/artifact/datasets/gpuverify-cav14/pug/CUDA50/3_Imaging/convolutionTexture/common.h", line 4: error: 
          this declaration has no storage class or type specifier
  template<>       __device__ static __attribute__((always_inline)) float convolutionColumn<-1>(float x, float y);
  ^

"/artifact/datasets/gpuverify-cav14/pug/CUDA50/3_Imaging/convolutionTexture/common.h", line 4: error: 
          expected a ";"
  template<>       __device__ static __attribute__((always_inline)) float convolutionColumn<-1>(float x, float y);
          ^

"/artifact/datasets/gpuverify-cav14/pug/CUDA50/3_Imaging/convolutionTexture/common.h", line 9: error: 
          this declaration has no storage class or type specifier
  texture<float, 2, cudaReadModeElementType> texSrc;
  ^

"/artifact/datasets/gpuverify-cav14/pug/CUDA50/3_Imaging/convolutionTexture/common.h", line 9: error: 
          expected a ";"
  texture<float, 2, cudaReadModeElementType> texSrc;
         ^

"/artifact/datasets/gpuverify-cav14/pug/CUDA50/3_Imaging/convolutionTexture/common.h", line 12: error: 
          this declaration has no storage class or type specifier
  template<int i> __device__ static __attribute__((always_inline)) float convolutionRow(float x, float y)
  ^

"/artifact/datasets/gpuverify-cav14/pug/CUDA50/3_Imaging/convolutionTexture/common.h", line 12: error: 
          expected a ";"
  template<int i> __device__ static __attribute__((always_inline)) float convolutionRow(float x, float y)
          ^

"/artifact/datasets/gpuverify-cav14/pug/CUDA50/3_Imaging/convolutionTexture/convolutionRowsKernel.c", line 108: warning: 
          parsing restarts here after previous syntax error
  __requires(gridDim.y == 128);
                              ^

"/artifact/datasets/gpuverify-cav14/pug/CUDA50/3_Imaging/convolutionTexture/convolutionRowsKernel.c", line 111: error: 
          variable "gridDim" is not a type name
  __requires(gridDim.z == 1);
  ^

"/artifact/datasets/gpuverify-cav14/pug/CUDA50/3_Imaging/convolutionTexture/convolutionRowsKernel.c", line 111: error: 
          expected a ")"
  __requires(gridDim.z == 1);
  ^

"/artifact/datasets/gpuverify-cav14/pug/CUDA50/3_Imaging/convolutionTexture/convolutionRowsKernel.c", line 111: warning: 
          omission of explicit type is nonstandard ("int" assumed)
  __requires(gridDim.z == 1);
  ^

"/artifact/datasets/gpuverify-cav14/pug/CUDA50/3_Imaging/convolutionTexture/convolutionRowsKernel.c", line 111: error: 
          declaration is incompatible with "void assume(int)" (declared at
          line 65)
  __requires(gridDim.z == 1);
  ^

"/artifact/datasets/gpuverify-cav14/pug/CUDA50/3_Imaging/convolutionTexture/convolutionRowsKernel.c", line 115: error: 
          identifier "__mul24" is undefined
      const   int ix = IMAD(blockDim.x, blockIdx.x, threadIdx.x);
                       ^

"/artifact/datasets/gpuverify-cav14/pug/CUDA50/3_Imaging/convolutionTexture/convolutionRowsKernel.c", line 115: error: 
          function call is not allowed in a constant expression
      const   int ix = IMAD(blockDim.x, blockIdx.x, threadIdx.x);
                       ^

"/artifact/datasets/gpuverify-cav14/pug/CUDA50/3_Imaging/convolutionTexture/convolutionRowsKernel.c", line 115: error: 
          expression must have a constant value
      const   int ix = IMAD(blockDim.x, blockIdx.x, threadIdx.x);
                       ^

"/artifact/datasets/gpuverify-cav14/pug/CUDA50/3_Imaging/convolutionTexture/convolutionRowsKernel.c", line 115: error: 
          expression must have a constant value
      const   int ix = IMAD(blockDim.x, blockIdx.x, threadIdx.x);
                       ^

"/artifact/datasets/gpuverify-cav14/pug/CUDA50/3_Imaging/convolutionTexture/convolutionRowsKernel.c", line 115: error: 
          expression must have a constant value
      const   int ix = IMAD(blockDim.x, blockIdx.x, threadIdx.x);
                       ^

"/artifact/datasets/gpuverify-cav14/pug/CUDA50/3_Imaging/convolutionTexture/convolutionRowsKernel.c", line 116: error: 
          function call is not allowed in a constant expression
      const   int iy = IMAD(blockDim.y, blockIdx.y, threadIdx.y);
                       ^

"/artifact/datasets/gpuverify-cav14/pug/CUDA50/3_Imaging/convolutionTexture/convolutionRowsKernel.c", line 116: error: 
          expression must have a constant value
      const   int iy = IMAD(blockDim.y, blockIdx.y, threadIdx.y);
                       ^

"/artifact/datasets/gpuverify-cav14/pug/CUDA50/3_Imaging/convolutionTexture/convolutionRowsKernel.c", line 116: error: 
          expression must have a constant value
      const   int iy = IMAD(blockDim.y, blockIdx.y, threadIdx.y);
                       ^

"/artifact/datasets/gpuverify-cav14/pug/CUDA50/3_Imaging/convolutionTexture/convolutionRowsKernel.c", line 116: error: 
          expression must have a constant value
      const   int iy = IMAD(blockDim.y, blockIdx.y, threadIdx.y);
                       ^

"/artifact/datasets/gpuverify-cav14/pug/CUDA50/3_Imaging/convolutionTexture/convolutionRowsKernel.c", line 117: error: 
          expression must have a constant value
      const float  x = (float)ix + 0.5f;
                              ^

"/artifact/datasets/gpuverify-cav14/pug/CUDA50/3_Imaging/convolutionTexture/convolutionRowsKernel.c", line 118: error: 
          expression must have a constant value
      const float  y = (float)iy + 0.5f;
                              ^

"/artifact/datasets/gpuverify-cav14/pug/CUDA50/3_Imaging/convolutionTexture/convolutionRowsKernel.c", line 120: error: 
          expected a declaration
      if (ix >= imageW || iy >= imageH)
      ^

"/artifact/datasets/gpuverify-cav14/pug/CUDA50/3_Imaging/convolutionTexture/convolutionRowsKernel.c", line 125: warning: 
          parsing restarts here after previous syntax error
      float sum = 0;
                   ^

"/artifact/datasets/gpuverify-cav14/pug/CUDA50/3_Imaging/convolutionTexture/convolutionRowsKernel.c", line 131: error: 
          expected a declaration
      for (int k = -KERNEL_RADIUS; k <= KERNEL_RADIUS; k++)
      ^

"/artifact/datasets/gpuverify-cav14/pug/CUDA50/3_Imaging/convolutionTexture/convolutionRowsKernel.c", line 138: warning: 
          parsing restarts here after previous syntax error
      d_Dst[IMAD(iy, imageW, ix)] = sum;
                                       ^

"/artifact/datasets/gpuverify-cav14/pug/CUDA50/3_Imaging/convolutionTexture/convolutionRowsKernel.c", line 140: error: 
          expected a declaration
  }
  ^

terminate called after throwing an instance of 'rose_exception'
  what():  Errors in Processing: (frontend_failed)
/artifact/tools/pug-v0.2_x64/pug: line 3: 48614 Aborted                 (core dumped) LD_LIBRARY_PATH="$PREFIX/lib" "$PREFIX/bin/pug" "$@"
