In file included from renderPixel.cu:5:
./common.h:93:57: warning: unused function 'mul' [-Wunused-function]
static __attribute__((always_inline)) __device__ float3 mul(matrice3x4 M, float3 v)
                                                        ^
./common.h:103:57: warning: unused function 'mul' [-Wunused-function]
static __attribute__((always_inline)) __device__ float4 mul(matrice3x4 M, float4 v)
                                                        ^
./common.h:125:55: warning: unused function 'notShadowRay' [-Wunused-function]
static __attribute__((always_inline)) __device__ bool notShadowRay( Node * node, float3 A, float3 u, float pas ) {
                                                      ^
./common.h:155:56: warning: unused function 'float2int_pow50' [-Wunused-function]
static __attribute__((always_inline)) __device__ float float2int_pow50(float a)
                                                       ^
4 warnings generated when compiling for sm_35.
renderPixel.opt.bc: warning: Assuming the arguments 'result', 'dnode' of 'kernel' on line 12 of renderPixel.cu to be non-aliased; please consider adding a restrict qualifier to these arguments

renderPixel.cu: error: possible write-write race on T[2]:

Write by thread (2, 16) in thread block 0 (global id (2, 16)), renderPixel.cu:31:9:
  T[tid] = 10000.0f;

Write by thread (2, 0) in thread block 0 (global id (2, 0)), renderPixel.cu:31:9:
  T[tid] = 10000.0f;

Bitwise values of parameters of 'kernel':
 imageW = 1
 imageH = 131105
 pas = 0
 df = 16384


renderPixel.cu: error: possible write-write race on Obj[0]:

Write by thread (0, 16) in thread block 0 (global id (0, 16)), renderPixel.cu:55:13:
  Obj = 0;

Write by thread (0, 0) in thread block 0 (global id (0, 0)), renderPixel.cu:55:13:
  Obj = 0;

Bitwise values of parameters of 'kernel':
 imageW = 1
 imageH = 131105
 pas = 0
 df = 16384


renderPixel.cu: error: possible write-write race on Obj[0]:

Write by thread (0, 16) in thread block 0 (global id (0, 16)), renderPixel.cu:59:21:
  Obj = i;

Write by thread (0, 0) in thread block 0 (global id (0, 0)), renderPixel.cu:59:21:
  Obj = i;

Bitwise values of parameters of 'kernel':
 imageW = 1
 imageH = 131105
 pas = 0
 df = 16384


renderPixel.cu: error: possible write-write race on result[0]:

Write by thread (1, 16) in thread block 0 (global id (1, 16)), renderPixel.cu:79:20:
  result[id] = rgbaFloatToInt(Color);

Write by thread (1, 0) in thread block 0 (global id (1, 0)), renderPixel.cu:79:20:
  result[id] = rgbaFloatToInt(Color);

Bitwise values of parameters of 'kernel':
 imageW = 1
 imageH = 33
 pas = 0
 df = 16384

GPUVerify kernel analyser finished with 0 verified, 4 errors
