"/artifact/datasets/gpuverify-cav14/pug/CUDA50/5_Simulations/fluidsGL/updateVelocity_k.c", line 85: warning: 
          function "kernel" was declared but never referenced
  __global__ void kernel (cData* v, float* vx, float* vy, int dx,int pdx,int dy,int lb,size_t pitch) {
                  ^

>>>> start analysis ... 


-------------------------------------------------------
Invalid OVERFLOW_PROTECTION flag in config.txt!
Setting OVERFLOW_PROTECTION flag to on
-------------------------------------------------------

-------------------------------------------------------
Invalid NBITS value in config.txt!
Setting NBITS value to 10
-------------------------------------------------------

-------------------------------------------------------
Invalid USE_INCRSMT flag in config.txt!
Setting USE_INCRSMT flag to false
-------------------------------------------------------


-------------------------------------------------------
Invalid USE_LOOP_REFINEMENT flag in config.txt!
Setting USE_LOOP_REFINEMENT flag to true
-------------------------------------------------------


-------------------------------------------------------
Invalid SLICE_ARRAYS flag in config.txt!
Setting SLICE_ARRAYS flag to true
-------------------------------------------------------


-------------------------------------------------------
Invalid USE_ASSUMES flag in config.txt!
Setting USE_ASSUMES flag to true
-------------------------------------------------------


-------------------------------------------------------
Invalid CHK_BANK_CONFLICTS option in config.txt!
Setting CHK_BANK_CONFLICTS option to false
-------------------------------------------------------

Debug level (verbosity) set to 0


Processing function: kernel

FunctionCall: assume((dx == 512))
Assuming dx0 == 512

FunctionCall: assume((dy == 512))
Assuming dy0 == 512

FunctionCall: assume((lb == 16))
Assuming lb0 == 16

FunctionCall: assume((pitch ==(4096)))
Assuming pitch0 == 4096

FunctionCall: assume(((blockDim.x) ==(64)))
Assuming bdim.x == 64

FunctionCall: assume(((blockDim.y) ==(4)))
Assuming bdim.y == 4

FunctionCall: assume(((blockDim.z) ==(1)))
Assuming bdim.z == 1

FunctionCall: assume(((gridDim.x) ==(8)))
Assuming gdim.x == 8

FunctionCall: assume(((gridDim.y) ==(8)))
Assuming gdim.y == 8

FunctionCall: assume(((gridDim.z) ==(1)))
Assuming gdim.z == 1
containBarrierFlag = 0

Binary OP: vxterm =(vx[fjr])

Binary OP: vyterm =(vy[fjr])

Binary OP: nvterm.x =(vxterm * scale)

Binary OP: nvterm.y =(vyterm * scale)

Binary OP: *fj = nvterm

Reaching the end of the kernel


#####################################################################

No races or synchronization errors were found.

Max instance solving time = 0s
Total solving time = 0s

#####################################################################

