getRepresentatives.opt.bc: warning: Assuming the arguments 'successors', 'representatives' of 'kernel' on line 12 of getRepresentatives.cu to be non-aliased; please consider adding a restrict qualifier to these arguments
GPUVerify kernel analyser finished with 1 verified, 0 errors
Verified: getRepresentatives.cu
- no data races within thread blocks
- no barrier divergence
- no assertion failures
(but absolutely no warranty provided)
