invalidateLoops.opt.bc: warning: Assuming the arguments 'startpoints', 'verticesMapping', 'edges' of 'kernel' on line 12 of invalidateLoops.cu to be non-aliased; please consider adding a restrict qualifier to these arguments
GPUVerify kernel analyser finished with 1 verified, 0 errors
Verified: invalidateLoops.cu
- no data races within thread blocks
- no barrier divergence
- no assertion failures
(but absolutely no warranty provided)
