
SobelCopyImage.cu: error: possible write-write race on pSobelOriginal[4]:

Write by thread 4 in thread block 0 (global id 4), SobelCopyImage.cu:33:19:
  pSobel[i] = min(max((tex2D(tex, (float) i, (float) blockIdx.x) * fscale), 0.f), 255.f);

Write by thread 0 in thread block 0 (global id 0), SobelCopyImage.cu:33:19:
  pSobel[i] = min(max((tex2D(tex, (float) i, (float) blockIdx.x) * fscale), 0.f), 255.f);

Bitwise values of parameters of 'kernel':
 Pitch = 512
 w = 512
 h = <irrelevant>
 fscale = 0

GPUVerify kernel analyser finished with 0 verified, 1 error
