scanExclusiveShared2.opt.bc: warning: Assuming the arguments 'd_Buf', 'd_Dst', 'd_Src' of 'kernel' on line 12 of scanExclusiveShared2.cu to be non-aliased; please consider adding a restrict qualifier to these arguments

scanExclusiveShared2.cu: error: possible write-read race on s_Data[536870913]:

Read by thread 1 in thread block 4 (global id 1025), scanExclusiveShared2.cu:51:18:
  uint odata = s_Data[x_pos] - idata;

Write by thread 0 in thread block 4 (global id 1024), scanExclusiveShared2.cu:48:23:
  s_Data[x_pos] = t;

Bitwise values of parameters of 'kernel':
 N = 6656
 arrayLength = 536870912

GPUVerify kernel analyser finished with 0 verified, 1 error
