"/artifact/datasets/gpuverify-cav14/pug/CUDA50/6_Advanced/mergeSort/common_merge.h", line 6: warning: 
          attribute "always_inline" ignored
   __device__ static __attribute__((always_inline)) uint iDivUp(uint a, uint b)
                                    ^

"/artifact/datasets/gpuverify-cav14/pug/CUDA50/6_Advanced/mergeSort/common_merge.h", line 6: warning: 
          type qualifier on return type is meaningless
   __device__ static __attribute__((always_inline)) uint iDivUp(uint a, uint b)
                                                         ^

"/artifact/datasets/gpuverify-cav14/pug/CUDA50/6_Advanced/mergeSort/common_merge.h", line 11: warning: 
          attribute "always_inline" ignored
   __device__ static __attribute__((always_inline)) uint getSampleCount(uint dividend)
                                    ^

"/artifact/datasets/gpuverify-cav14/pug/CUDA50/6_Advanced/mergeSort/common_merge.h", line 11: warning: 
          type qualifier on return type is meaningless
   __device__ static __attribute__((always_inline)) uint getSampleCount(uint dividend)
                                                         ^

"/artifact/datasets/gpuverify-cav14/pug/CUDA50/6_Advanced/mergeSort/common_merge.h", line 17: warning: 
          attribute "always_inline" ignored
   __device__ static __attribute__((always_inline)) uint nextPowerOfTwo(uint x)
                                    ^

"/artifact/datasets/gpuverify-cav14/pug/CUDA50/6_Advanced/mergeSort/common_merge.h", line 17: warning: 
          type qualifier on return type is meaningless
   __device__ static __attribute__((always_inline)) uint nextPowerOfTwo(uint x)
                                                         ^

"/artifact/datasets/gpuverify-cav14/pug/CUDA50/6_Advanced/mergeSort/common_merge.h", line 31: error: 
          this declaration has no storage class or type specifier
  template<uint sortDir>  __device__ static __attribute__((always_inline)) uint binarySearchInclusive(uint val, uint *data, uint L, uint stride)
  ^

"/artifact/datasets/gpuverify-cav14/pug/CUDA50/6_Advanced/mergeSort/common_merge.h", line 31: error: 
          expected a ";"
  template<uint sortDir>  __device__ static __attribute__((always_inline)) uint binarySearchInclusive(uint val, uint *data, uint L, uint stride)
          ^

"/artifact/datasets/gpuverify-cav14/pug/CUDA50/6_Advanced/mergeSort/generateSampleRanksKernel.c", line 108: warning: 
          parsing restarts here after previous syntax error
      uint pos = blockIdx.x * blockDim.x + threadIdx.x;
                                                      ^

"/artifact/datasets/gpuverify-cav14/pug/CUDA50/6_Advanced/mergeSort/generateSampleRanksKernel.c", line 110: error: 
          expected a declaration
      if (pos >= threadCount)
      ^

"/artifact/datasets/gpuverify-cav14/pug/CUDA50/6_Advanced/mergeSort/generateSampleRanksKernel.c", line 115: warning: 
          parsing restarts here after previous syntax error
      const uint           i = pos & ((stride / SAMPLE_STRIDE) - 1);
                                                                   ^

"/artifact/datasets/gpuverify-cav14/pug/CUDA50/6_Advanced/mergeSort/generateSampleRanksKernel.c", line 116: error: 
          identifier "pos" is undefined
      const uint segmentBase = (pos - i) * (2 * SAMPLE_STRIDE);
                                ^

"/artifact/datasets/gpuverify-cav14/pug/CUDA50/6_Advanced/mergeSort/generateSampleRanksKernel.c", line 116: error: 
          identifier "i" is undefined
      const uint segmentBase = (pos - i) * (2 * SAMPLE_STRIDE);
                                      ^

"/artifact/datasets/gpuverify-cav14/pug/CUDA50/6_Advanced/mergeSort/generateSampleRanksKernel.c", line 117: error: 
          this declaration has no storage class or type specifier
      d_SrcKey += segmentBase;
      ^

"/artifact/datasets/gpuverify-cav14/pug/CUDA50/6_Advanced/mergeSort/generateSampleRanksKernel.c", line 117: error: 
          expected a ";"
      d_SrcKey += segmentBase;
               ^

"/artifact/datasets/gpuverify-cav14/pug/CUDA50/6_Advanced/mergeSort/generateSampleRanksKernel.c", line 118: error: 
          this declaration has no storage class or type specifier
      d_RanksA += segmentBase / SAMPLE_STRIDE;
      ^

"/artifact/datasets/gpuverify-cav14/pug/CUDA50/6_Advanced/mergeSort/generateSampleRanksKernel.c", line 118: error: 
          expected a ";"
      d_RanksA += segmentBase / SAMPLE_STRIDE;
               ^

"/artifact/datasets/gpuverify-cav14/pug/CUDA50/6_Advanced/mergeSort/generateSampleRanksKernel.c", line 119: error: 
          this declaration has no storage class or type specifier
      d_RanksB += segmentBase / SAMPLE_STRIDE;
      ^

"/artifact/datasets/gpuverify-cav14/pug/CUDA50/6_Advanced/mergeSort/generateSampleRanksKernel.c", line 119: error: 
          expected a ";"
      d_RanksB += segmentBase / SAMPLE_STRIDE;
               ^

"/artifact/datasets/gpuverify-cav14/pug/CUDA50/6_Advanced/mergeSort/generateSampleRanksKernel.c", line 121: error: 
          identifier "stride" is undefined
      const uint segmentElementsA = stride;
                                    ^

"/artifact/datasets/gpuverify-cav14/pug/CUDA50/6_Advanced/mergeSort/generateSampleRanksKernel.c", line 122: error: 
          identifier "N" is undefined
      const uint segmentElementsB = umin(stride, N - segmentBase - stride);
                                    ^

"/artifact/datasets/gpuverify-cav14/pug/CUDA50/6_Advanced/mergeSort/generateSampleRanksKernel.c", line 122: error: 
          expression must have a constant value
      const uint segmentElementsB = umin(stride, N - segmentBase - stride);
                                    ^

"/artifact/datasets/gpuverify-cav14/pug/CUDA50/6_Advanced/mergeSort/generateSampleRanksKernel.c", line 122: error: 
          expression must have a constant value
      const uint segmentElementsB = umin(stride, N - segmentBase - stride);
                                    ^

"/artifact/datasets/gpuverify-cav14/pug/CUDA50/6_Advanced/mergeSort/generateSampleRanksKernel.c", line 123: error: 
          function call is not allowed in a constant expression
      const uint  segmentSamplesA = getSampleCount(segmentElementsA);
                                    ^

"/artifact/datasets/gpuverify-cav14/pug/CUDA50/6_Advanced/mergeSort/generateSampleRanksKernel.c", line 123: error: 
          expression must have a constant value
      const uint  segmentSamplesA = getSampleCount(segmentElementsA);
                                                   ^

"/artifact/datasets/gpuverify-cav14/pug/CUDA50/6_Advanced/mergeSort/generateSampleRanksKernel.c", line 124: error: 
          function call is not allowed in a constant expression
      const uint  segmentSamplesB = getSampleCount(segmentElementsB);
                                    ^

"/artifact/datasets/gpuverify-cav14/pug/CUDA50/6_Advanced/mergeSort/generateSampleRanksKernel.c", line 124: error: 
          expression must have a constant value
      const uint  segmentSamplesB = getSampleCount(segmentElementsB);
                                                   ^

"/artifact/datasets/gpuverify-cav14/pug/CUDA50/6_Advanced/mergeSort/generateSampleRanksKernel.c", line 126: error: 
          expected a declaration
      if (i < segmentSamplesA)
      ^

At end of source: warning: parsing restarts here after previous syntax error

terminate called after throwing an instance of 'rose_exception'
  what():  Errors in Processing: (frontend_failed)
/artifact/tools/pug-v0.2_x64/pug: line 3: 26923 Aborted                 (core dumped) LD_LIBRARY_PATH="$PREFIX/lib" "$PREFIX/bin/pug" "$@"
