In file included from <built-in>:3:
/artifact/tools/faial/share/c-to-json/include/cuda_curand.h:63:1: warning: function 'curand_init<curandStateXORWOW>' has internal linkage but is not defined [-Wundefined-internal]
curand_init (
^
/artifact/datasets/gpuverify-cav14/faial/CUDA50/7_CUDALibraries/MC_SingleAsianOptionP/initRNG.cu:19:5: note: used here
    curand_init(seed, tid, 0, &rngStates[tid]);
    ^
1 warning generated.
Program is data-race free!
