"/artifact/datasets/gpuverify-cav14/pug/CUDA50/0_Simple/matrixMul/matrixMul.c", line 86: warning: 
          function "kernel" was declared but never referenced
  __global__ void kernel (float* C, float* A, float* B, int wA,int wB) {
                  ^

>>>> start analysis ... 


-------------------------------------------------------
Invalid OVERFLOW_PROTECTION flag in config.txt!
Setting OVERFLOW_PROTECTION flag to on
-------------------------------------------------------

-------------------------------------------------------
Invalid NBITS value in config.txt!
Setting NBITS value to 10
-------------------------------------------------------

-------------------------------------------------------
Invalid USE_INCRSMT flag in config.txt!
Setting USE_INCRSMT flag to false
-------------------------------------------------------


-------------------------------------------------------
Invalid USE_LOOP_REFINEMENT flag in config.txt!
Setting USE_LOOP_REFINEMENT flag to true
-------------------------------------------------------


-------------------------------------------------------
Invalid SLICE_ARRAYS flag in config.txt!
Setting SLICE_ARRAYS flag to true
-------------------------------------------------------


-------------------------------------------------------
Invalid USE_ASSUMES flag in config.txt!
Setting USE_ASSUMES flag to true
-------------------------------------------------------


-------------------------------------------------------
Invalid CHK_BANK_CONFLICTS option in config.txt!
Setting CHK_BANK_CONFLICTS option to false
-------------------------------------------------------

Debug level (verbosity) set to 0


Processing function: kernel

FunctionCall: assume((wA == 320))
Assuming wA0 == 320

FunctionCall: assume((wB == 640))
Assuming wB0 == 640

FunctionCall: assume(((blockDim.x) ==(32)))
Assuming bdim.x == 32

FunctionCall: assume(((blockDim.y) ==(32)))
Assuming bdim.y == 32

FunctionCall: assume(((blockDim.z) ==(1)))
Assuming bdim.z == 1

FunctionCall: assume(((gridDim.x) ==(20)))
Assuming gdim.x == 20

FunctionCall: assume(((gridDim.y) ==(10)))
Assuming gdim.y == 10

FunctionCall: assume(((gridDim.z) ==(1)))
Assuming gdim.z == 1
containBarrierFlag = 1
incrExpr = ((a += aStep) ,(b += bStep))
------------- NON Linear incrExpr
rangeExpr = ((!1^b0 >= bBegin1) && (!1^b0 <= aEnd1)); substExpr = 

Binary OP: (As[ty])[tx] =(A[(a +(wA * ty)) + tx])

Binary OP: (Bs[ty])[tx] =(B[(b +(wB * ty)) + tx])

FunctionCall: __syncthreads()
unsatisfiable
containBarrierFlag = 0
incrExpr = ++k
------------- Already normalized 
rangeExpr = ((!2^k0 >= 0) && (!2^k0 <= (32 - 1))); substExpr = 

Binary OP: Csub +=(((As[ty])[k]) *((Bs[k])[tx]))
Found loop carrying expression, try refinement!
refined exp: Csub2 == (Csub1 + ((!2^k0 - 0) * (As1[ty1][!2^k0] * Bs1[!2^k0][tx1])))

FunctionCall: __syncthreads()

Binary OP: C[(c +(wB * ty)) + tx] = Csub

Reaching the end of the kernel
unsatisfiable


#####################################################################

No races or synchronization errors were found.

Max instance solving time = 0.000917s
Total solving time = 0.001664s

#####################################################################

