status,time,memory,filename,log
0,0.06,50.7109375,pug/nested-loops-1.c,logs/pug-nested-loops-1.log
0,0.06,50.7109375,pug/nested-loops-1.c,logs/pug-nested-loops-2.log
0,0.06,50.72265625,pug/nested-loops-1.c,logs/pug-nested-loops-3.log
0,0.06,50.26171875,pug/nested-loops-1.c,logs/pug-nested-loops-4.log
0,0.06,50.3359375,pug/nested-loops-1.c,logs/pug-nested-loops-5.log
0,0.06,50.6015625,pug/nested-loops-2.c,logs/pug-nested-loops-6.log
0,0.07,50.59375,pug/nested-loops-2.c,logs/pug-nested-loops-7.log
0,0.07,50.7578125,pug/nested-loops-2.c,logs/pug-nested-loops-8.log
0,0.07,50.33984375,pug/nested-loops-2.c,logs/pug-nested-loops-9.log
0,0.07,50.6875,pug/nested-loops-2.c,logs/pug-nested-loops-10.log
0,0.07,50.50390625,pug/nested-loops-3.c,logs/pug-nested-loops-11.log
0,0.07,50.65234375,pug/nested-loops-3.c,logs/pug-nested-loops-12.log
0,0.07,50.5,pug/nested-loops-3.c,logs/pug-nested-loops-13.log
0,0.07,50.42578125,pug/nested-loops-3.c,logs/pug-nested-loops-14.log
0,0.07,50.44921875,pug/nested-loops-3.c,logs/pug-nested-loops-15.log
0,0.08,50.5390625,pug/nested-loops-4.c,logs/pug-nested-loops-16.log
0,0.09,50.6015625,pug/nested-loops-4.c,logs/pug-nested-loops-17.log
0,0.08,50.890625,pug/nested-loops-4.c,logs/pug-nested-loops-18.log
0,0.08,50.375,pug/nested-loops-4.c,logs/pug-nested-loops-19.log
0,0.08,50.52734375,pug/nested-loops-4.c,logs/pug-nested-loops-20.log
0,0.1,50.8984375,pug/nested-loops-5.c,logs/pug-nested-loops-21.log
0,0.09,50.453125,pug/nested-loops-5.c,logs/pug-nested-loops-22.log
0,0.09,50.60546875,pug/nested-loops-5.c,logs/pug-nested-loops-23.log
0,0.09,50.5625,pug/nested-loops-5.c,logs/pug-nested-loops-24.log
0,0.09,50.41796875,pug/nested-loops-5.c,logs/pug-nested-loops-25.log
0,0.11,50.609375,pug/nested-loops-6.c,logs/pug-nested-loops-26.log
0,0.11,50.61328125,pug/nested-loops-6.c,logs/pug-nested-loops-27.log
0,0.11,50.484375,pug/nested-loops-6.c,logs/pug-nested-loops-28.log
0,0.11,50.6796875,pug/nested-loops-6.c,logs/pug-nested-loops-29.log
0,0.11,50.984375,pug/nested-loops-6.c,logs/pug-nested-loops-30.log
0,0.12,50.7578125,pug/nested-loops-7.c,logs/pug-nested-loops-31.log
0,0.12,50.58203125,pug/nested-loops-7.c,logs/pug-nested-loops-32.log
0,0.12,50.67578125,pug/nested-loops-7.c,logs/pug-nested-loops-33.log
0,0.12,50.97265625,pug/nested-loops-7.c,logs/pug-nested-loops-34.log
0,0.12,50.6328125,pug/nested-loops-7.c,logs/pug-nested-loops-35.log
0,0.14,50.6953125,pug/nested-loops-8.c,logs/pug-nested-loops-36.log
0,0.14,50.640625,pug/nested-loops-8.c,logs/pug-nested-loops-37.log
0,0.14,51.08984375,pug/nested-loops-8.c,logs/pug-nested-loops-38.log
0,0.14,50.79296875,pug/nested-loops-8.c,logs/pug-nested-loops-39.log
0,0.14,51.08984375,pug/nested-loops-8.c,logs/pug-nested-loops-40.log
0,0.16,50.84375,pug/nested-loops-9.c,logs/pug-nested-loops-41.log
0,0.16,51.0390625,pug/nested-loops-9.c,logs/pug-nested-loops-42.log
0,0.16,51.19921875,pug/nested-loops-9.c,logs/pug-nested-loops-43.log
0,0.16,50.73828125,pug/nested-loops-9.c,logs/pug-nested-loops-44.log
0,0.16,50.82421875,pug/nested-loops-9.c,logs/pug-nested-loops-45.log
0,0.18,50.69140625,pug/nested-loops-10.c,logs/pug-nested-loops-46.log
0,0.18,50.75,pug/nested-loops-10.c,logs/pug-nested-loops-47.log
0,0.17,51.25390625,pug/nested-loops-10.c,logs/pug-nested-loops-48.log
0,0.18,50.85546875,pug/nested-loops-10.c,logs/pug-nested-loops-49.log
0,0.18,50.76953125,pug/nested-loops-10.c,logs/pug-nested-loops-50.log
0,0.2,51.37890625,pug/nested-loops-11.c,logs/pug-nested-loops-51.log
0,0.2,51.38671875,pug/nested-loops-11.c,logs/pug-nested-loops-52.log
0,0.2,51.1484375,pug/nested-loops-11.c,logs/pug-nested-loops-53.log
0,0.2,50.80859375,pug/nested-loops-11.c,logs/pug-nested-loops-54.log
0,0.2,51.07421875,pug/nested-loops-11.c,logs/pug-nested-loops-55.log
0,0.22,51.36328125,pug/nested-loops-12.c,logs/pug-nested-loops-56.log
0,0.22,50.86328125,pug/nested-loops-12.c,logs/pug-nested-loops-57.log
0,0.23,51.0703125,pug/nested-loops-12.c,logs/pug-nested-loops-58.log
0,0.22,50.99609375,pug/nested-loops-12.c,logs/pug-nested-loops-59.log
0,0.22,51.12890625,pug/nested-loops-12.c,logs/pug-nested-loops-60.log
0,0.25,51.1953125,pug/nested-loops-13.c,logs/pug-nested-loops-61.log
0,0.25,51.125,pug/nested-loops-13.c,logs/pug-nested-loops-62.log
0,0.25,50.859375,pug/nested-loops-13.c,logs/pug-nested-loops-63.log
0,0.25,51.04296875,pug/nested-loops-13.c,logs/pug-nested-loops-64.log
0,0.25,51.37890625,pug/nested-loops-13.c,logs/pug-nested-loops-65.log
0,0.27,51.52734375,pug/nested-loops-14.c,logs/pug-nested-loops-66.log
0,0.27,51.015625,pug/nested-loops-14.c,logs/pug-nested-loops-67.log
0,0.28,51.01953125,pug/nested-loops-14.c,logs/pug-nested-loops-68.log
0,0.27,51.15625,pug/nested-loops-14.c,logs/pug-nested-loops-69.log
0,0.27,50.953125,pug/nested-loops-14.c,logs/pug-nested-loops-70.log
0,0.31,51.5390625,pug/nested-loops-15.c,logs/pug-nested-loops-71.log
0,0.3,51.2578125,pug/nested-loops-15.c,logs/pug-nested-loops-72.log
0,0.3,51.1875,pug/nested-loops-15.c,logs/pug-nested-loops-73.log
0,0.3,51.609375,pug/nested-loops-15.c,logs/pug-nested-loops-74.log
0,0.3,51.609375,pug/nested-loops-15.c,logs/pug-nested-loops-75.log
0,0.33,51.578125,pug/nested-loops-16.c,logs/pug-nested-loops-76.log
0,0.32,51.57421875,pug/nested-loops-16.c,logs/pug-nested-loops-77.log
0,0.33,51.41796875,pug/nested-loops-16.c,logs/pug-nested-loops-78.log
0,0.33,51.26171875,pug/nested-loops-16.c,logs/pug-nested-loops-79.log
0,0.33,51.5546875,pug/nested-loops-16.c,logs/pug-nested-loops-80.log
0,0.36,51.2890625,pug/nested-loops-17.c,logs/pug-nested-loops-81.log
0,0.36,51.5078125,pug/nested-loops-17.c,logs/pug-nested-loops-82.log
0,0.36,51.4453125,pug/nested-loops-17.c,logs/pug-nested-loops-83.log
0,0.35,51.7421875,pug/nested-loops-17.c,logs/pug-nested-loops-84.log
0,0.36,51.234375,pug/nested-loops-17.c,logs/pug-nested-loops-85.log
0,0.39,51.453125,pug/nested-loops-18.c,logs/pug-nested-loops-86.log
0,0.38,51.359375,pug/nested-loops-18.c,logs/pug-nested-loops-87.log
0,0.38,51.359375,pug/nested-loops-18.c,logs/pug-nested-loops-88.log
0,0.39,51.3515625,pug/nested-loops-18.c,logs/pug-nested-loops-89.log
0,0.38,51.2109375,pug/nested-loops-18.c,logs/pug-nested-loops-90.log
0,0.42,51.73046875,pug/nested-loops-19.c,logs/pug-nested-loops-91.log
0,0.42,51.48828125,pug/nested-loops-19.c,logs/pug-nested-loops-92.log
0,0.41,51.3828125,pug/nested-loops-19.c,logs/pug-nested-loops-93.log
0,0.41,51.421875,pug/nested-loops-19.c,logs/pug-nested-loops-94.log
0,0.42,51.3359375,pug/nested-loops-19.c,logs/pug-nested-loops-95.log
0,0.45,51.37109375,pug/nested-loops-20.c,logs/pug-nested-loops-96.log
0,0.46,51.8203125,pug/nested-loops-20.c,logs/pug-nested-loops-97.log
0,0.45,51.55859375,pug/nested-loops-20.c,logs/pug-nested-loops-98.log
0,0.45,51.87890625,pug/nested-loops-20.c,logs/pug-nested-loops-99.log
0,0.45,51.85546875,pug/nested-loops-20.c,logs/pug-nested-loops-100.log
0,0.49,51.734375,pug/nested-loops-21.c,logs/pug-nested-loops-101.log
0,0.49,51.7265625,pug/nested-loops-21.c,logs/pug-nested-loops-102.log
0,0.49,51.5390625,pug/nested-loops-21.c,logs/pug-nested-loops-103.log
0,0.49,52.03125,pug/nested-loops-21.c,logs/pug-nested-loops-104.log
0,0.49,52.0390625,pug/nested-loops-21.c,logs/pug-nested-loops-105.log
0,0.53,52.19140625,pug/nested-loops-22.c,logs/pug-nested-loops-106.log
0,0.53,51.95703125,pug/nested-loops-22.c,logs/pug-nested-loops-107.log
0,0.52,51.95703125,pug/nested-loops-22.c,logs/pug-nested-loops-108.log
0,0.53,52.1953125,pug/nested-loops-22.c,logs/pug-nested-loops-109.log
0,0.53,51.94921875,pug/nested-loops-22.c,logs/pug-nested-loops-110.log
0,0.58,51.81640625,pug/nested-loops-23.c,logs/pug-nested-loops-111.log
0,0.56,52.27734375,pug/nested-loops-23.c,logs/pug-nested-loops-112.log
0,0.57,51.8203125,pug/nested-loops-23.c,logs/pug-nested-loops-113.log
0,0.57,51.921875,pug/nested-loops-23.c,logs/pug-nested-loops-114.log
0,0.57,51.92578125,pug/nested-loops-23.c,logs/pug-nested-loops-115.log
0,0.61,52.26171875,pug/nested-loops-24.c,logs/pug-nested-loops-116.log
0,0.61,52.11328125,pug/nested-loops-24.c,logs/pug-nested-loops-117.log
0,0.61,51.83203125,pug/nested-loops-24.c,logs/pug-nested-loops-118.log
0,0.61,51.9453125,pug/nested-loops-24.c,logs/pug-nested-loops-119.log
0,0.61,51.97265625,pug/nested-loops-24.c,logs/pug-nested-loops-120.log
0,0.66,51.984375,pug/nested-loops-25.c,logs/pug-nested-loops-121.log
0,0.66,52.4375,pug/nested-loops-25.c,logs/pug-nested-loops-122.log
0,0.66,52.02734375,pug/nested-loops-25.c,logs/pug-nested-loops-123.log
0,0.66,51.94140625,pug/nested-loops-25.c,logs/pug-nested-loops-124.log
0,0.66,52.06640625,pug/nested-loops-25.c,logs/pug-nested-loops-125.log
0,0.71,52.24609375,pug/nested-loops-26.c,logs/pug-nested-loops-126.log
0,0.71,52.53125,pug/nested-loops-26.c,logs/pug-nested-loops-127.log
0,0.71,52.03515625,pug/nested-loops-26.c,logs/pug-nested-loops-128.log
0,0.71,52.453125,pug/nested-loops-26.c,logs/pug-nested-loops-129.log
0,0.71,52.47265625,pug/nested-loops-26.c,logs/pug-nested-loops-130.log
0,0.76,52.140625,pug/nested-loops-27.c,logs/pug-nested-loops-131.log
0,0.76,52.39453125,pug/nested-loops-27.c,logs/pug-nested-loops-132.log
0,0.76,52.28125,pug/nested-loops-27.c,logs/pug-nested-loops-133.log
0,0.75,52.27734375,pug/nested-loops-27.c,logs/pug-nested-loops-134.log
0,0.76,52.57421875,pug/nested-loops-27.c,logs/pug-nested-loops-135.log
0,0.81,52.16015625,pug/nested-loops-28.c,logs/pug-nested-loops-136.log
0,0.82,52.33203125,pug/nested-loops-28.c,logs/pug-nested-loops-137.log
0,0.81,52.3046875,pug/nested-loops-28.c,logs/pug-nested-loops-138.log
0,0.81,52.3359375,pug/nested-loops-28.c,logs/pug-nested-loops-139.log
0,0.79,52.57421875,pug/nested-loops-28.c,logs/pug-nested-loops-140.log
0,0.84,52.58984375,pug/nested-loops-29.c,logs/pug-nested-loops-141.log
0,0.85,52.30078125,pug/nested-loops-29.c,logs/pug-nested-loops-142.log
0,0.84,52.39453125,pug/nested-loops-29.c,logs/pug-nested-loops-143.log
0,0.86,52.41796875,pug/nested-loops-29.c,logs/pug-nested-loops-144.log
0,0.84,52.3203125,pug/nested-loops-29.c,logs/pug-nested-loops-145.log
0,0.89,52.37890625,pug/nested-loops-30.c,logs/pug-nested-loops-146.log
0,0.92,52.28125,pug/nested-loops-30.c,logs/pug-nested-loops-147.log
0,0.91,52.4765625,pug/nested-loops-30.c,logs/pug-nested-loops-148.log
0,0.92,52.53515625,pug/nested-loops-30.c,logs/pug-nested-loops-149.log
0,0.92,52.3828125,pug/nested-loops-30.c,logs/pug-nested-loops-150.log
0,0.97,52.46875,pug/nested-loops-31.c,logs/pug-nested-loops-151.log
0,0.97,52.28125,pug/nested-loops-31.c,logs/pug-nested-loops-152.log
0,0.98,52.609375,pug/nested-loops-31.c,logs/pug-nested-loops-153.log
0,0.95,52.46875,pug/nested-loops-31.c,logs/pug-nested-loops-154.log
0,0.97,52.83984375,pug/nested-loops-31.c,logs/pug-nested-loops-155.log
0,1.03,52.765625,pug/nested-loops-32.c,logs/pug-nested-loops-156.log
0,1.03,52.765625,pug/nested-loops-32.c,logs/pug-nested-loops-157.log
0,1.03,52.40625,pug/nested-loops-32.c,logs/pug-nested-loops-158.log
0,1.03,52.5546875,pug/nested-loops-32.c,logs/pug-nested-loops-159.log
0,1.03,52.8515625,pug/nested-loops-32.c,logs/pug-nested-loops-160.log
0,1.09,52.578125,pug/nested-loops-33.c,logs/pug-nested-loops-161.log
0,1.1,52.7265625,pug/nested-loops-33.c,logs/pug-nested-loops-162.log
0,1.05,53.015625,pug/nested-loops-33.c,logs/pug-nested-loops-163.log
0,1.08,52.75390625,pug/nested-loops-33.c,logs/pug-nested-loops-164.log
0,1.09,52.5,pug/nested-loops-33.c,logs/pug-nested-loops-165.log
0,1.15,52.5390625,pug/nested-loops-34.c,logs/pug-nested-loops-166.log
0,1.16,53.09765625,pug/nested-loops-34.c,logs/pug-nested-loops-167.log
0,1.16,53.109375,pug/nested-loops-34.c,logs/pug-nested-loops-168.log
0,1.16,52.79296875,pug/nested-loops-34.c,logs/pug-nested-loops-169.log
0,1.16,52.5390625,pug/nested-loops-34.c,logs/pug-nested-loops-170.log
0,1.23,53.08203125,pug/nested-loops-35.c,logs/pug-nested-loops-171.log
0,1.22,53.03125,pug/nested-loops-35.c,logs/pug-nested-loops-172.log
0,1.17,52.92578125,pug/nested-loops-35.c,logs/pug-nested-loops-173.log
0,1.21,53.17578125,pug/nested-loops-35.c,logs/pug-nested-loops-174.log
0,1.23,53.1875,pug/nested-loops-35.c,logs/pug-nested-loops-175.log
0,1.29,52.93359375,pug/nested-loops-36.c,logs/pug-nested-loops-176.log
0,1.24,52.92578125,pug/nested-loops-36.c,logs/pug-nested-loops-177.log
0,1.29,53.0625,pug/nested-loops-36.c,logs/pug-nested-loops-178.log
0,1.29,53.28125,pug/nested-loops-36.c,logs/pug-nested-loops-179.log
0,1.27,52.94140625,pug/nested-loops-36.c,logs/pug-nested-loops-180.log
0,1.31,53.2421875,pug/nested-loops-37.c,logs/pug-nested-loops-181.log
0,1.31,53.1171875,pug/nested-loops-37.c,logs/pug-nested-loops-182.log
0,1.34,53.23828125,pug/nested-loops-37.c,logs/pug-nested-loops-183.log
0,1.34,52.91015625,pug/nested-loops-37.c,logs/pug-nested-loops-184.log
0,1.35,52.9140625,pug/nested-loops-37.c,logs/pug-nested-loops-185.log
0,1.41,53.11328125,pug/nested-loops-38.c,logs/pug-nested-loops-186.log
0,1.42,53.1953125,pug/nested-loops-38.c,logs/pug-nested-loops-187.log
0,1.43,53.54296875,pug/nested-loops-38.c,logs/pug-nested-loops-188.log
0,1.42,53.1171875,pug/nested-loops-38.c,logs/pug-nested-loops-189.log
0,1.38,53.2421875,pug/nested-loops-38.c,logs/pug-nested-loops-190.log
0,1.5,53.265625,pug/nested-loops-39.c,logs/pug-nested-loops-191.log
0,1.5,53.2578125,pug/nested-loops-39.c,logs/pug-nested-loops-192.log
0,1.49,53.32421875,pug/nested-loops-39.c,logs/pug-nested-loops-193.log
0,1.48,53.36328125,pug/nested-loops-39.c,logs/pug-nested-loops-194.log
0,1.49,53.23046875,pug/nested-loops-39.c,logs/pug-nested-loops-195.log
0,1.56,53.34375,pug/nested-loops-40.c,logs/pug-nested-loops-196.log
0,1.56,53.734375,pug/nested-loops-40.c,logs/pug-nested-loops-197.log
0,1.56,53.546875,pug/nested-loops-40.c,logs/pug-nested-loops-198.log
0,1.56,53.43359375,pug/nested-loops-40.c,logs/pug-nested-loops-199.log
0,1.56,53.4140625,pug/nested-loops-40.c,logs/pug-nested-loops-200.log
0,1.63,53.7265625,pug/nested-loops-41.c,logs/pug-nested-loops-201.log
0,1.63,53.53515625,pug/nested-loops-41.c,logs/pug-nested-loops-202.log
0,1.64,53.64453125,pug/nested-loops-41.c,logs/pug-nested-loops-203.log
0,1.63,53.46484375,pug/nested-loops-41.c,logs/pug-nested-loops-204.log
0,1.63,53.87890625,pug/nested-loops-41.c,logs/pug-nested-loops-205.log
0,1.65,54.00390625,pug/nested-loops-42.c,logs/pug-nested-loops-206.log
0,1.67,53.64453125,pug/nested-loops-42.c,logs/pug-nested-loops-207.log
0,1.67,53.99609375,pug/nested-loops-42.c,logs/pug-nested-loops-208.log
0,1.72,53.5078125,pug/nested-loops-42.c,logs/pug-nested-loops-209.log
0,1.66,53.71484375,pug/nested-loops-42.c,logs/pug-nested-loops-210.log
0,1.79,53.6796875,pug/nested-loops-43.c,logs/pug-nested-loops-211.log
0,1.79,53.71484375,pug/nested-loops-43.c,logs/pug-nested-loops-212.log
0,1.78,54.04296875,pug/nested-loops-43.c,logs/pug-nested-loops-213.log
0,1.8,53.61328125,pug/nested-loops-43.c,logs/pug-nested-loops-214.log
0,1.8,53.6171875,pug/nested-loops-43.c,logs/pug-nested-loops-215.log
0,1.88,53.8203125,pug/nested-loops-44.c,logs/pug-nested-loops-216.log
0,1.87,53.82421875,pug/nested-loops-44.c,logs/pug-nested-loops-217.log
0,1.86,53.8203125,pug/nested-loops-44.c,logs/pug-nested-loops-218.log
0,1.88,53.90625,pug/nested-loops-44.c,logs/pug-nested-loops-219.log
0,1.87,53.90625,pug/nested-loops-44.c,logs/pug-nested-loops-220.log
0,1.88,54.24609375,pug/nested-loops-45.c,logs/pug-nested-loops-221.log
0,1.93,54.23828125,pug/nested-loops-45.c,logs/pug-nested-loops-222.log
0,1.96,53.87109375,pug/nested-loops-45.c,logs/pug-nested-loops-223.log
0,1.96,54.03125,pug/nested-loops-45.c,logs/pug-nested-loops-224.log
0,1.96,53.91796875,pug/nested-loops-45.c,logs/pug-nested-loops-225.log
0,2.04,53.90234375,pug/nested-loops-46.c,logs/pug-nested-loops-226.log
0,2.05,54.03515625,pug/nested-loops-46.c,logs/pug-nested-loops-227.log
0,2.03,54.17578125,pug/nested-loops-46.c,logs/pug-nested-loops-228.log
0,2.04,54.109375,pug/nested-loops-46.c,logs/pug-nested-loops-229.log
0,2.04,53.99609375,pug/nested-loops-46.c,logs/pug-nested-loops-230.log
0,2.1,53.921875,pug/nested-loops-47.c,logs/pug-nested-loops-231.log
0,2.11,54.203125,pug/nested-loops-47.c,logs/pug-nested-loops-232.log
0,2.11,54.4375,pug/nested-loops-47.c,logs/pug-nested-loops-233.log
0,2.11,54.43359375,pug/nested-loops-47.c,logs/pug-nested-loops-234.log
0,2.12,54.4140625,pug/nested-loops-47.c,logs/pug-nested-loops-235.log
0,2.21,54.140625,pug/nested-loops-48.c,logs/pug-nested-loops-236.log
0,2.19,54.1484375,pug/nested-loops-48.c,logs/pug-nested-loops-237.log
0,2.2,54.51953125,pug/nested-loops-48.c,logs/pug-nested-loops-238.log
0,2.19,54.01171875,pug/nested-loops-48.c,logs/pug-nested-loops-239.log
0,2.2,54.53515625,pug/nested-loops-48.c,logs/pug-nested-loops-240.log
0,2.28,54.6484375,pug/nested-loops-49.c,logs/pug-nested-loops-241.log
0,2.28,54.30078125,pug/nested-loops-49.c,logs/pug-nested-loops-242.log
0,2.28,54.296875,pug/nested-loops-49.c,logs/pug-nested-loops-243.log
0,2.22,54.2265625,pug/nested-loops-49.c,logs/pug-nested-loops-244.log
0,2.28,54.2421875,pug/nested-loops-49.c,logs/pug-nested-loops-245.log
0,2.37,54.78125,pug/nested-loops-50.c,logs/pug-nested-loops-246.log
0,2.37,54.92578125,pug/nested-loops-50.c,logs/pug-nested-loops-247.log
0,2.37,54.54296875,pug/nested-loops-50.c,logs/pug-nested-loops-248.log
0,2.37,54.703125,pug/nested-loops-50.c,logs/pug-nested-loops-249.log
0,2.36,54.5078125,pug/nested-loops-50.c,logs/pug-nested-loops-250.log
