status,time,memory,filename,log
0,0.06,50.6953125,pug/nested-loops-sync-1.c,logs/pug-nested-loops-sync-1.log
0,0.08,50.3515625,pug/nested-loops-sync-1.c,logs/pug-nested-loops-sync-2.log
0,0.06,50.28125,pug/nested-loops-sync-1.c,logs/pug-nested-loops-sync-3.log
0,0.06,50.1328125,pug/nested-loops-sync-1.c,logs/pug-nested-loops-sync-4.log
0,0.06,50.19921875,pug/nested-loops-sync-1.c,logs/pug-nested-loops-sync-5.log
0,0.07,50.75,pug/nested-loops-sync-2.c,logs/pug-nested-loops-sync-6.log
0,0.07,50.37109375,pug/nested-loops-sync-2.c,logs/pug-nested-loops-sync-7.log
0,0.07,50.23828125,pug/nested-loops-sync-2.c,logs/pug-nested-loops-sync-8.log
0,0.07,50.37109375,pug/nested-loops-sync-2.c,logs/pug-nested-loops-sync-9.log
0,0.07,50.33984375,pug/nested-loops-sync-2.c,logs/pug-nested-loops-sync-10.log
0,0.09,50.80078125,pug/nested-loops-sync-3.c,logs/pug-nested-loops-sync-11.log
0,0.09,50.796875,pug/nested-loops-sync-3.c,logs/pug-nested-loops-sync-12.log
0,0.09,50.48828125,pug/nested-loops-sync-3.c,logs/pug-nested-loops-sync-13.log
0,0.09,50.296875,pug/nested-loops-sync-3.c,logs/pug-nested-loops-sync-14.log
0,0.09,50.3359375,pug/nested-loops-sync-3.c,logs/pug-nested-loops-sync-15.log
0,0.1,50.46484375,pug/nested-loops-sync-4.c,logs/pug-nested-loops-sync-16.log
0,0.1,50.7578125,pug/nested-loops-sync-4.c,logs/pug-nested-loops-sync-17.log
0,0.12,50.44921875,pug/nested-loops-sync-4.c,logs/pug-nested-loops-sync-18.log
0,0.11,50.47265625,pug/nested-loops-sync-4.c,logs/pug-nested-loops-sync-19.log
0,0.11,50.4140625,pug/nested-loops-sync-4.c,logs/pug-nested-loops-sync-20.log
0,0.12,50.40234375,pug/nested-loops-sync-5.c,logs/pug-nested-loops-sync-21.log
0,0.12,50.57421875,pug/nested-loops-sync-5.c,logs/pug-nested-loops-sync-22.log
0,0.12,50.609375,pug/nested-loops-sync-5.c,logs/pug-nested-loops-sync-23.log
0,0.12,50.83984375,pug/nested-loops-sync-5.c,logs/pug-nested-loops-sync-24.log
0,0.12,50.55859375,pug/nested-loops-sync-5.c,logs/pug-nested-loops-sync-25.log
0,0.15,50.70703125,pug/nested-loops-sync-6.c,logs/pug-nested-loops-sync-26.log
0,0.15,51.0,pug/nested-loops-sync-6.c,logs/pug-nested-loops-sync-27.log
0,0.15,50.9453125,pug/nested-loops-sync-6.c,logs/pug-nested-loops-sync-28.log
0,0.15,50.59375,pug/nested-loops-sync-6.c,logs/pug-nested-loops-sync-29.log
0,0.15,50.4921875,pug/nested-loops-sync-6.c,logs/pug-nested-loops-sync-30.log
0,0.17,51.0546875,pug/nested-loops-sync-7.c,logs/pug-nested-loops-sync-31.log
0,0.17,50.77734375,pug/nested-loops-sync-7.c,logs/pug-nested-loops-sync-32.log
0,0.17,50.828125,pug/nested-loops-sync-7.c,logs/pug-nested-loops-sync-33.log
0,0.17,50.6875,pug/nested-loops-sync-7.c,logs/pug-nested-loops-sync-34.log
0,0.17,50.9921875,pug/nested-loops-sync-7.c,logs/pug-nested-loops-sync-35.log
0,0.21,51.03515625,pug/nested-loops-sync-8.c,logs/pug-nested-loops-sync-36.log
0,0.2,50.58984375,pug/nested-loops-sync-8.c,logs/pug-nested-loops-sync-37.log
0,0.2,51.13671875,pug/nested-loops-sync-8.c,logs/pug-nested-loops-sync-38.log
0,0.2,50.7421875,pug/nested-loops-sync-8.c,logs/pug-nested-loops-sync-39.log
0,0.2,50.64453125,pug/nested-loops-sync-8.c,logs/pug-nested-loops-sync-40.log
0,0.23,50.6875,pug/nested-loops-sync-9.c,logs/pug-nested-loops-sync-41.log
0,0.23,50.94921875,pug/nested-loops-sync-9.c,logs/pug-nested-loops-sync-42.log
0,0.23,50.609375,pug/nested-loops-sync-9.c,logs/pug-nested-loops-sync-43.log
0,0.23,51.16796875,pug/nested-loops-sync-9.c,logs/pug-nested-loops-sync-44.log
0,0.23,50.87890625,pug/nested-loops-sync-9.c,logs/pug-nested-loops-sync-45.log
0,0.26,50.91796875,pug/nested-loops-sync-10.c,logs/pug-nested-loops-sync-46.log
0,0.26,50.921875,pug/nested-loops-sync-10.c,logs/pug-nested-loops-sync-47.log
0,0.26,50.66015625,pug/nested-loops-sync-10.c,logs/pug-nested-loops-sync-48.log
0,0.26,50.90234375,pug/nested-loops-sync-10.c,logs/pug-nested-loops-sync-49.log
0,0.26,51.203125,pug/nested-loops-sync-10.c,logs/pug-nested-loops-sync-50.log
0,0.29,50.9140625,pug/nested-loops-sync-11.c,logs/pug-nested-loops-sync-51.log
0,0.29,51.04296875,pug/nested-loops-sync-11.c,logs/pug-nested-loops-sync-52.log
0,0.29,51.265625,pug/nested-loops-sync-11.c,logs/pug-nested-loops-sync-53.log
0,0.29,51.203125,pug/nested-loops-sync-11.c,logs/pug-nested-loops-sync-54.log
0,0.29,50.7578125,pug/nested-loops-sync-11.c,logs/pug-nested-loops-sync-55.log
0,0.33,51.015625,pug/nested-loops-sync-12.c,logs/pug-nested-loops-sync-56.log
0,0.33,50.984375,pug/nested-loops-sync-12.c,logs/pug-nested-loops-sync-57.log
0,0.33,51.0,pug/nested-loops-sync-12.c,logs/pug-nested-loops-sync-58.log
0,0.33,50.95703125,pug/nested-loops-sync-12.c,logs/pug-nested-loops-sync-59.log
0,0.33,51.359375,pug/nested-loops-sync-12.c,logs/pug-nested-loops-sync-60.log
0,0.36,50.921875,pug/nested-loops-sync-13.c,logs/pug-nested-loops-sync-61.log
0,0.37,51.20703125,pug/nested-loops-sync-13.c,logs/pug-nested-loops-sync-62.log
0,0.36,51.140625,pug/nested-loops-sync-13.c,logs/pug-nested-loops-sync-63.log
0,0.36,51.07421875,pug/nested-loops-sync-13.c,logs/pug-nested-loops-sync-64.log
0,0.36,51.0703125,pug/nested-loops-sync-13.c,logs/pug-nested-loops-sync-65.log
0,0.41,51.05859375,pug/nested-loops-sync-14.c,logs/pug-nested-loops-sync-66.log
0,0.41,51.1640625,pug/nested-loops-sync-14.c,logs/pug-nested-loops-sync-67.log
0,0.4,51.46875,pug/nested-loops-sync-14.c,logs/pug-nested-loops-sync-68.log
0,0.4,51.41015625,pug/nested-loops-sync-14.c,logs/pug-nested-loops-sync-69.log
0,0.41,51.09765625,pug/nested-loops-sync-14.c,logs/pug-nested-loops-sync-70.log
0,0.45,51.08203125,pug/nested-loops-sync-15.c,logs/pug-nested-loops-sync-71.log
0,0.45,50.984375,pug/nested-loops-sync-15.c,logs/pug-nested-loops-sync-72.log
0,0.45,51.39453125,pug/nested-loops-sync-15.c,logs/pug-nested-loops-sync-73.log
0,0.44,51.5,pug/nested-loops-sync-15.c,logs/pug-nested-loops-sync-74.log
0,0.45,51.28515625,pug/nested-loops-sync-15.c,logs/pug-nested-loops-sync-75.log
0,0.5,51.2890625,pug/nested-loops-sync-16.c,logs/pug-nested-loops-sync-76.log
0,0.48,51.1796875,pug/nested-loops-sync-16.c,logs/pug-nested-loops-sync-77.log
0,0.49,51.62890625,pug/nested-loops-sync-16.c,logs/pug-nested-loops-sync-78.log
0,0.5,51.27734375,pug/nested-loops-sync-16.c,logs/pug-nested-loops-sync-79.log
0,0.48,51.62890625,pug/nested-loops-sync-16.c,logs/pug-nested-loops-sync-80.log
0,0.53,51.21484375,pug/nested-loops-sync-17.c,logs/pug-nested-loops-sync-81.log
0,0.53,51.140625,pug/nested-loops-sync-17.c,logs/pug-nested-loops-sync-82.log
0,0.55,51.24609375,pug/nested-loops-sync-17.c,logs/pug-nested-loops-sync-83.log
0,0.53,51.34765625,pug/nested-loops-sync-17.c,logs/pug-nested-loops-sync-84.log
0,0.55,51.69921875,pug/nested-loops-sync-17.c,logs/pug-nested-loops-sync-85.log
0,0.59,51.53125,pug/nested-loops-sync-18.c,logs/pug-nested-loops-sync-86.log
0,0.59,51.8046875,pug/nested-loops-sync-18.c,logs/pug-nested-loops-sync-87.log
0,0.59,51.8515625,pug/nested-loops-sync-18.c,logs/pug-nested-loops-sync-88.log
0,0.6,51.44140625,pug/nested-loops-sync-18.c,logs/pug-nested-loops-sync-89.log
0,0.6,51.5546875,pug/nested-loops-sync-18.c,logs/pug-nested-loops-sync-90.log
0,0.65,51.55078125,pug/nested-loops-sync-19.c,logs/pug-nested-loops-sync-91.log
0,0.66,51.61328125,pug/nested-loops-sync-19.c,logs/pug-nested-loops-sync-92.log
0,0.64,51.33984375,pug/nested-loops-sync-19.c,logs/pug-nested-loops-sync-93.log
0,0.66,51.453125,pug/nested-loops-sync-19.c,logs/pug-nested-loops-sync-94.log
0,0.66,51.5390625,pug/nested-loops-sync-19.c,logs/pug-nested-loops-sync-95.log
0,0.72,51.6640625,pug/nested-loops-sync-20.c,logs/pug-nested-loops-sync-96.log
0,0.72,51.96875,pug/nested-loops-sync-20.c,logs/pug-nested-loops-sync-97.log
0,0.72,52.03125,pug/nested-loops-sync-20.c,logs/pug-nested-loops-sync-98.log
0,0.72,52.03515625,pug/nested-loops-sync-20.c,logs/pug-nested-loops-sync-99.log
0,0.72,51.54296875,pug/nested-loops-sync-20.c,logs/pug-nested-loops-sync-100.log
0,0.75,51.8203125,pug/nested-loops-sync-21.c,logs/pug-nested-loops-sync-101.log
0,0.78,52.0546875,pug/nested-loops-sync-21.c,logs/pug-nested-loops-sync-102.log
0,0.78,51.54296875,pug/nested-loops-sync-21.c,logs/pug-nested-loops-sync-103.log
0,0.78,51.53515625,pug/nested-loops-sync-21.c,logs/pug-nested-loops-sync-104.log
0,0.78,51.88671875,pug/nested-loops-sync-21.c,logs/pug-nested-loops-sync-105.log
0,0.84,51.90625,pug/nested-loops-sync-22.c,logs/pug-nested-loops-sync-106.log
0,0.84,51.80859375,pug/nested-loops-sync-22.c,logs/pug-nested-loops-sync-107.log
0,0.83,51.67578125,pug/nested-loops-sync-22.c,logs/pug-nested-loops-sync-108.log
0,0.84,51.8203125,pug/nested-loops-sync-22.c,logs/pug-nested-loops-sync-109.log
0,0.81,52.03125,pug/nested-loops-sync-22.c,logs/pug-nested-loops-sync-110.log
0,0.9,52.17578125,pug/nested-loops-sync-23.c,logs/pug-nested-loops-sync-111.log
0,0.88,51.80859375,pug/nested-loops-sync-23.c,logs/pug-nested-loops-sync-112.log
0,0.9,52.3203125,pug/nested-loops-sync-23.c,logs/pug-nested-loops-sync-113.log
0,0.91,51.91796875,pug/nested-loops-sync-23.c,logs/pug-nested-loops-sync-114.log
0,0.9,52.171875,pug/nested-loops-sync-23.c,logs/pug-nested-loops-sync-115.log
0,0.98,52.2109375,pug/nested-loops-sync-24.c,logs/pug-nested-loops-sync-116.log
0,0.98,51.88671875,pug/nested-loops-sync-24.c,logs/pug-nested-loops-sync-117.log
0,0.98,52.0078125,pug/nested-loops-sync-24.c,logs/pug-nested-loops-sync-118.log
0,0.94,51.77734375,pug/nested-loops-sync-24.c,logs/pug-nested-loops-sync-119.log
0,0.95,52.2890625,pug/nested-loops-sync-24.c,logs/pug-nested-loops-sync-120.log
0,1.04,51.83984375,pug/nested-loops-sync-25.c,logs/pug-nested-loops-sync-121.log
0,1.05,52.03125,pug/nested-loops-sync-25.c,logs/pug-nested-loops-sync-122.log
0,1.05,52.03125,pug/nested-loops-sync-25.c,logs/pug-nested-loops-sync-123.log
0,1.05,52.24609375,pug/nested-loops-sync-25.c,logs/pug-nested-loops-sync-124.log
0,1.05,52.40234375,pug/nested-loops-sync-25.c,logs/pug-nested-loops-sync-125.log
0,1.12,52.21484375,pug/nested-loops-sync-26.c,logs/pug-nested-loops-sync-126.log
0,1.12,52.20703125,pug/nested-loops-sync-26.c,logs/pug-nested-loops-sync-127.log
0,1.13,52.3203125,pug/nested-loops-sync-26.c,logs/pug-nested-loops-sync-128.log
0,1.09,52.06640625,pug/nested-loops-sync-26.c,logs/pug-nested-loops-sync-129.log
0,1.12,52.26171875,pug/nested-loops-sync-26.c,logs/pug-nested-loops-sync-130.log
0,1.16,52.12109375,pug/nested-loops-sync-27.c,logs/pug-nested-loops-sync-131.log
0,1.2,52.6484375,pug/nested-loops-sync-27.c,logs/pug-nested-loops-sync-132.log
0,1.19,52.11328125,pug/nested-loops-sync-27.c,logs/pug-nested-loops-sync-133.log
0,1.2,52.1796875,pug/nested-loops-sync-27.c,logs/pug-nested-loops-sync-134.log
0,1.2,52.26171875,pug/nested-loops-sync-27.c,logs/pug-nested-loops-sync-135.log
0,1.28,52.58203125,pug/nested-loops-sync-28.c,logs/pug-nested-loops-sync-136.log
0,1.27,52.38671875,pug/nested-loops-sync-28.c,logs/pug-nested-loops-sync-137.log
0,1.28,52.37890625,pug/nested-loops-sync-28.c,logs/pug-nested-loops-sync-138.log
0,1.28,52.31640625,pug/nested-loops-sync-28.c,logs/pug-nested-loops-sync-139.log
0,1.28,52.44921875,pug/nested-loops-sync-28.c,logs/pug-nested-loops-sync-140.log
0,1.36,52.84375,pug/nested-loops-sync-29.c,logs/pug-nested-loops-sync-141.log
0,1.36,52.3203125,pug/nested-loops-sync-29.c,logs/pug-nested-loops-sync-142.log
0,1.35,52.46875,pug/nested-loops-sync-29.c,logs/pug-nested-loops-sync-143.log
0,1.36,52.67578125,pug/nested-loops-sync-29.c,logs/pug-nested-loops-sync-144.log
0,1.36,52.640625,pug/nested-loops-sync-29.c,logs/pug-nested-loops-sync-145.log
0,1.44,52.4453125,pug/nested-loops-sync-30.c,logs/pug-nested-loops-sync-146.log
0,1.44,52.98046875,pug/nested-loops-sync-30.c,logs/pug-nested-loops-sync-147.log
0,1.45,52.703125,pug/nested-loops-sync-30.c,logs/pug-nested-loops-sync-148.log
0,1.44,52.73046875,pug/nested-loops-sync-30.c,logs/pug-nested-loops-sync-149.log
0,1.44,52.703125,pug/nested-loops-sync-30.c,logs/pug-nested-loops-sync-150.log
0,1.53,52.7734375,pug/nested-loops-sync-31.c,logs/pug-nested-loops-sync-151.log
0,1.54,52.6796875,pug/nested-loops-sync-31.c,logs/pug-nested-loops-sync-152.log
0,1.54,52.640625,pug/nested-loops-sync-31.c,logs/pug-nested-loops-sync-153.log
0,1.53,53.01171875,pug/nested-loops-sync-31.c,logs/pug-nested-loops-sync-154.log
0,1.54,52.73828125,pug/nested-loops-sync-31.c,logs/pug-nested-loops-sync-155.log
0,1.62,53.05859375,pug/nested-loops-sync-32.c,logs/pug-nested-loops-sync-156.log
0,1.62,53.23046875,pug/nested-loops-sync-32.c,logs/pug-nested-loops-sync-157.log
0,1.61,53.20703125,pug/nested-loops-sync-32.c,logs/pug-nested-loops-sync-158.log
0,1.62,52.84375,pug/nested-loops-sync-32.c,logs/pug-nested-loops-sync-159.log
0,1.64,53.16796875,pug/nested-loops-sync-32.c,logs/pug-nested-loops-sync-160.log
0,1.71,52.890625,pug/nested-loops-sync-33.c,logs/pug-nested-loops-sync-161.log
0,1.72,53.0390625,pug/nested-loops-sync-33.c,logs/pug-nested-loops-sync-162.log
0,1.71,52.96484375,pug/nested-loops-sync-33.c,logs/pug-nested-loops-sync-163.log
0,1.67,52.67578125,pug/nested-loops-sync-33.c,logs/pug-nested-loops-sync-164.log
0,1.67,53.0234375,pug/nested-loops-sync-33.c,logs/pug-nested-loops-sync-165.log
0,1.76,53.2109375,pug/nested-loops-sync-34.c,logs/pug-nested-loops-sync-166.log
0,1.76,52.98046875,pug/nested-loops-sync-34.c,logs/pug-nested-loops-sync-167.log
0,1.76,52.91015625,pug/nested-loops-sync-34.c,logs/pug-nested-loops-sync-168.log
0,1.77,53.09375,pug/nested-loops-sync-34.c,logs/pug-nested-loops-sync-169.log
0,1.81,52.87109375,pug/nested-loops-sync-34.c,logs/pug-nested-loops-sync-170.log
0,1.92,52.98046875,pug/nested-loops-sync-35.c,logs/pug-nested-loops-sync-171.log
0,1.91,53.38671875,pug/nested-loops-sync-35.c,logs/pug-nested-loops-sync-172.log
0,1.87,53.14453125,pug/nested-loops-sync-35.c,logs/pug-nested-loops-sync-173.log
0,1.88,53.0625,pug/nested-loops-sync-35.c,logs/pug-nested-loops-sync-174.log
0,1.92,53.4609375,pug/nested-loops-sync-35.c,logs/pug-nested-loops-sync-175.log
0,2.01,53.4609375,pug/nested-loops-sync-36.c,logs/pug-nested-loops-sync-176.log
0,2.02,53.20703125,pug/nested-loops-sync-36.c,logs/pug-nested-loops-sync-177.log
0,2.03,53.60546875,pug/nested-loops-sync-36.c,logs/pug-nested-loops-sync-178.log
0,2.01,53.17578125,pug/nested-loops-sync-36.c,logs/pug-nested-loops-sync-179.log
0,2.02,53.25,pug/nested-loops-sync-36.c,logs/pug-nested-loops-sync-180.log
0,2.12,53.578125,pug/nested-loops-sync-37.c,logs/pug-nested-loops-sync-181.log
0,2.12,53.28515625,pug/nested-loops-sync-37.c,logs/pug-nested-loops-sync-182.log
0,2.12,53.13671875,pug/nested-loops-sync-37.c,logs/pug-nested-loops-sync-183.log
0,2.12,53.12109375,pug/nested-loops-sync-37.c,logs/pug-nested-loops-sync-184.log
0,2.13,53.28125,pug/nested-loops-sync-37.c,logs/pug-nested-loops-sync-185.log
0,2.22,53.73828125,pug/nested-loops-sync-38.c,logs/pug-nested-loops-sync-186.log
0,2.23,53.453125,pug/nested-loops-sync-38.c,logs/pug-nested-loops-sync-187.log
0,2.24,53.45703125,pug/nested-loops-sync-38.c,logs/pug-nested-loops-sync-188.log
0,2.24,53.25,pug/nested-loops-sync-38.c,logs/pug-nested-loops-sync-189.log
0,2.24,53.421875,pug/nested-loops-sync-38.c,logs/pug-nested-loops-sync-190.log
0,2.33,53.58203125,pug/nested-loops-sync-39.c,logs/pug-nested-loops-sync-191.log
0,2.26,53.828125,pug/nested-loops-sync-39.c,logs/pug-nested-loops-sync-192.log
0,2.35,53.41796875,pug/nested-loops-sync-39.c,logs/pug-nested-loops-sync-193.log
0,2.35,53.43359375,pug/nested-loops-sync-39.c,logs/pug-nested-loops-sync-194.log
0,2.32,53.46484375,pug/nested-loops-sync-39.c,logs/pug-nested-loops-sync-195.log
0,2.44,53.4140625,pug/nested-loops-sync-40.c,logs/pug-nested-loops-sync-196.log
0,2.44,53.58984375,pug/nested-loops-sync-40.c,logs/pug-nested-loops-sync-197.log
0,2.37,53.6015625,pug/nested-loops-sync-40.c,logs/pug-nested-loops-sync-198.log
0,2.38,53.6640625,pug/nested-loops-sync-40.c,logs/pug-nested-loops-sync-199.log
0,2.39,53.86328125,pug/nested-loops-sync-40.c,logs/pug-nested-loops-sync-200.log
0,2.53,53.8125,pug/nested-loops-sync-41.c,logs/pug-nested-loops-sync-201.log
0,2.55,54.05078125,pug/nested-loops-sync-41.c,logs/pug-nested-loops-sync-202.log
0,2.59,53.5859375,pug/nested-loops-sync-41.c,logs/pug-nested-loops-sync-203.log
0,2.55,53.66796875,pug/nested-loops-sync-41.c,logs/pug-nested-loops-sync-204.log
0,2.55,53.89453125,pug/nested-loops-sync-41.c,logs/pug-nested-loops-sync-205.log
0,2.67,53.734375,pug/nested-loops-sync-42.c,logs/pug-nested-loops-sync-206.log
0,2.7,53.87890625,pug/nested-loops-sync-42.c,logs/pug-nested-loops-sync-207.log
0,2.59,53.7265625,pug/nested-loops-sync-42.c,logs/pug-nested-loops-sync-208.log
0,2.69,53.921875,pug/nested-loops-sync-42.c,logs/pug-nested-loops-sync-209.log
0,2.61,54.22265625,pug/nested-loops-sync-42.c,logs/pug-nested-loops-sync-210.log
0,2.72,53.98046875,pug/nested-loops-sync-43.c,logs/pug-nested-loops-sync-211.log
0,2.73,54.359375,pug/nested-loops-sync-43.c,logs/pug-nested-loops-sync-212.log
0,2.79,53.91015625,pug/nested-loops-sync-43.c,logs/pug-nested-loops-sync-213.log
0,2.79,53.83984375,pug/nested-loops-sync-43.c,logs/pug-nested-loops-sync-214.log
0,2.79,54.21875,pug/nested-loops-sync-43.c,logs/pug-nested-loops-sync-215.log
0,2.94,54.05078125,pug/nested-loops-sync-44.c,logs/pug-nested-loops-sync-216.log
0,2.91,53.89453125,pug/nested-loops-sync-44.c,logs/pug-nested-loops-sync-217.log
0,2.95,54.1484375,pug/nested-loops-sync-44.c,logs/pug-nested-loops-sync-218.log
0,2.93,54.14453125,pug/nested-loops-sync-44.c,logs/pug-nested-loops-sync-219.log
0,2.93,54.015625,pug/nested-loops-sync-44.c,logs/pug-nested-loops-sync-220.log
0,2.96,54.1328125,pug/nested-loops-sync-45.c,logs/pug-nested-loops-sync-221.log
0,3.05,54.5234375,pug/nested-loops-sync-45.c,logs/pug-nested-loops-sync-222.log
0,3.05,54.13671875,pug/nested-loops-sync-45.c,logs/pug-nested-loops-sync-223.log
0,3.06,54.01953125,pug/nested-loops-sync-45.c,logs/pug-nested-loops-sync-224.log
0,2.95,54.0703125,pug/nested-loops-sync-45.c,logs/pug-nested-loops-sync-225.log
0,3.18,54.4375,pug/nested-loops-sync-46.c,logs/pug-nested-loops-sync-226.log
0,3.19,54.421875,pug/nested-loops-sync-46.c,logs/pug-nested-loops-sync-227.log
0,3.19,54.37109375,pug/nested-loops-sync-46.c,logs/pug-nested-loops-sync-228.log
0,3.18,54.3515625,pug/nested-loops-sync-46.c,logs/pug-nested-loops-sync-229.log
0,3.19,54.5703125,pug/nested-loops-sync-46.c,logs/pug-nested-loops-sync-230.log
0,3.2,54.55078125,pug/nested-loops-sync-47.c,logs/pug-nested-loops-sync-231.log
0,3.32,54.6953125,pug/nested-loops-sync-47.c,logs/pug-nested-loops-sync-232.log
0,3.2,54.28125,pug/nested-loops-sync-47.c,logs/pug-nested-loops-sync-233.log
0,3.33,54.3984375,pug/nested-loops-sync-47.c,logs/pug-nested-loops-sync-234.log
0,3.33,54.796875,pug/nested-loops-sync-47.c,logs/pug-nested-loops-sync-235.log
0,3.34,54.9453125,pug/nested-loops-sync-48.c,logs/pug-nested-loops-sync-236.log
0,3.46,54.6953125,pug/nested-loops-sync-48.c,logs/pug-nested-loops-sync-237.log
0,3.46,54.859375,pug/nested-loops-sync-48.c,logs/pug-nested-loops-sync-238.log
0,3.44,54.43359375,pug/nested-loops-sync-48.c,logs/pug-nested-loops-sync-239.log
0,3.44,54.64453125,pug/nested-loops-sync-48.c,logs/pug-nested-loops-sync-240.log
0,3.59,54.86328125,pug/nested-loops-sync-49.c,logs/pug-nested-loops-sync-241.log
0,3.59,54.8359375,pug/nested-loops-sync-49.c,logs/pug-nested-loops-sync-242.log
0,3.6,54.8828125,pug/nested-loops-sync-49.c,logs/pug-nested-loops-sync-243.log
0,3.58,54.77734375,pug/nested-loops-sync-49.c,logs/pug-nested-loops-sync-244.log
0,3.58,54.76171875,pug/nested-loops-sync-49.c,logs/pug-nested-loops-sync-245.log
0,3.72,55.25390625,pug/nested-loops-sync-50.c,logs/pug-nested-loops-sync-246.log
0,3.64,54.66796875,pug/nested-loops-sync-50.c,logs/pug-nested-loops-sync-247.log
0,3.73,54.953125,pug/nested-loops-sync-50.c,logs/pug-nested-loops-sync-248.log
0,3.61,54.80859375,pug/nested-loops-sync-50.c,logs/pug-nested-loops-sync-249.log
0,3.69,54.90234375,pug/nested-loops-sync-50.c,logs/pug-nested-loops-sync-250.log
