status,time,memory,filename,log
0,1.24,37.97265625,gpuverify/nested-loops-sync-1.cu,logs/gpuverify-nested-loops-sync-1.log
0,1.37,38.12890625,gpuverify/nested-loops-sync-1.cu,logs/gpuverify-nested-loops-sync-2.log
0,1.3,38.16796875,gpuverify/nested-loops-sync-1.cu,logs/gpuverify-nested-loops-sync-3.log
0,1.33,38.22265625,gpuverify/nested-loops-sync-1.cu,logs/gpuverify-nested-loops-sync-4.log
0,1.56,38.30078125,gpuverify/nested-loops-sync-1.cu,logs/gpuverify-nested-loops-sync-5.log
0,1.53,39.1640625,gpuverify/nested-loops-sync-2.cu,logs/gpuverify-nested-loops-sync-6.log
0,1.36,39.37109375,gpuverify/nested-loops-sync-2.cu,logs/gpuverify-nested-loops-sync-7.log
0,1.36,38.76171875,gpuverify/nested-loops-sync-2.cu,logs/gpuverify-nested-loops-sync-8.log
0,1.37,39.18359375,gpuverify/nested-loops-sync-2.cu,logs/gpuverify-nested-loops-sync-9.log
0,1.32,39.3203125,gpuverify/nested-loops-sync-2.cu,logs/gpuverify-nested-loops-sync-10.log
0,1.57,39.9921875,gpuverify/nested-loops-sync-3.cu,logs/gpuverify-nested-loops-sync-11.log
0,1.53,39.625,gpuverify/nested-loops-sync-3.cu,logs/gpuverify-nested-loops-sync-12.log
0,1.4,40.15234375,gpuverify/nested-loops-sync-3.cu,logs/gpuverify-nested-loops-sync-13.log
0,1.44,39.75,gpuverify/nested-loops-sync-3.cu,logs/gpuverify-nested-loops-sync-14.log
0,1.54,39.98046875,gpuverify/nested-loops-sync-3.cu,logs/gpuverify-nested-loops-sync-15.log
0,1.98,41.53515625,gpuverify/nested-loops-sync-4.cu,logs/gpuverify-nested-loops-sync-16.log
0,1.56,41.453125,gpuverify/nested-loops-sync-4.cu,logs/gpuverify-nested-loops-sync-17.log
0,1.57,41.62109375,gpuverify/nested-loops-sync-4.cu,logs/gpuverify-nested-loops-sync-18.log
0,1.85,41.7734375,gpuverify/nested-loops-sync-4.cu,logs/gpuverify-nested-loops-sync-19.log
0,1.56,41.4140625,gpuverify/nested-loops-sync-4.cu,logs/gpuverify-nested-loops-sync-20.log
0,1.92,43.03515625,gpuverify/nested-loops-sync-5.cu,logs/gpuverify-nested-loops-sync-21.log
0,1.83,43.16796875,gpuverify/nested-loops-sync-5.cu,logs/gpuverify-nested-loops-sync-22.log
0,1.96,43.38671875,gpuverify/nested-loops-sync-5.cu,logs/gpuverify-nested-loops-sync-23.log
0,2.05,43.15234375,gpuverify/nested-loops-sync-5.cu,logs/gpuverify-nested-loops-sync-24.log
0,1.8,42.796875,gpuverify/nested-loops-sync-5.cu,logs/gpuverify-nested-loops-sync-25.log
0,2.17,44.9609375,gpuverify/nested-loops-sync-6.cu,logs/gpuverify-nested-loops-sync-26.log
0,2.04,44.84375,gpuverify/nested-loops-sync-6.cu,logs/gpuverify-nested-loops-sync-27.log
0,2.0,45.1796875,gpuverify/nested-loops-sync-6.cu,logs/gpuverify-nested-loops-sync-28.log
0,2.12,45.16015625,gpuverify/nested-loops-sync-6.cu,logs/gpuverify-nested-loops-sync-29.log
0,2.13,44.62890625,gpuverify/nested-loops-sync-6.cu,logs/gpuverify-nested-loops-sync-30.log
0,2.47,47.02734375,gpuverify/nested-loops-sync-7.cu,logs/gpuverify-nested-loops-sync-31.log
0,2.45,47.140625,gpuverify/nested-loops-sync-7.cu,logs/gpuverify-nested-loops-sync-32.log
0,2.36,47.41015625,gpuverify/nested-loops-sync-7.cu,logs/gpuverify-nested-loops-sync-33.log
0,2.4,47.25390625,gpuverify/nested-loops-sync-7.cu,logs/gpuverify-nested-loops-sync-34.log
0,2.32,47.33984375,gpuverify/nested-loops-sync-7.cu,logs/gpuverify-nested-loops-sync-35.log
0,2.85,48.76171875,gpuverify/nested-loops-sync-8.cu,logs/gpuverify-nested-loops-sync-36.log
0,2.79,49.21484375,gpuverify/nested-loops-sync-8.cu,logs/gpuverify-nested-loops-sync-37.log
0,2.73,48.6484375,gpuverify/nested-loops-sync-8.cu,logs/gpuverify-nested-loops-sync-38.log
0,2.61,48.81640625,gpuverify/nested-loops-sync-8.cu,logs/gpuverify-nested-loops-sync-39.log
0,2.76,48.28515625,gpuverify/nested-loops-sync-8.cu,logs/gpuverify-nested-loops-sync-40.log
0,3.48,53.03125,gpuverify/nested-loops-sync-9.cu,logs/gpuverify-nested-loops-sync-41.log
0,3.53,52.5,gpuverify/nested-loops-sync-9.cu,logs/gpuverify-nested-loops-sync-42.log
0,3.45,52.55078125,gpuverify/nested-loops-sync-9.cu,logs/gpuverify-nested-loops-sync-43.log
0,3.6,52.83984375,gpuverify/nested-loops-sync-9.cu,logs/gpuverify-nested-loops-sync-44.log
0,3.88,52.7265625,gpuverify/nested-loops-sync-9.cu,logs/gpuverify-nested-loops-sync-45.log
0,3.76,53.2890625,gpuverify/nested-loops-sync-10.cu,logs/gpuverify-nested-loops-sync-46.log
0,3.83,53.3359375,gpuverify/nested-loops-sync-10.cu,logs/gpuverify-nested-loops-sync-47.log
0,3.79,52.9609375,gpuverify/nested-loops-sync-10.cu,logs/gpuverify-nested-loops-sync-48.log
0,4.02,54.2421875,gpuverify/nested-loops-sync-10.cu,logs/gpuverify-nested-loops-sync-49.log
0,3.81,53.37109375,gpuverify/nested-loops-sync-10.cu,logs/gpuverify-nested-loops-sync-50.log
0,4.3,52.16015625,gpuverify/nested-loops-sync-11.cu,logs/gpuverify-nested-loops-sync-51.log
0,4.29,52.4140625,gpuverify/nested-loops-sync-11.cu,logs/gpuverify-nested-loops-sync-52.log
0,4.49,52.1328125,gpuverify/nested-loops-sync-11.cu,logs/gpuverify-nested-loops-sync-53.log
0,4.37,52.35546875,gpuverify/nested-loops-sync-11.cu,logs/gpuverify-nested-loops-sync-54.log
0,4.45,52.32421875,gpuverify/nested-loops-sync-11.cu,logs/gpuverify-nested-loops-sync-55.log
0,5.42,52.4609375,gpuverify/nested-loops-sync-12.cu,logs/gpuverify-nested-loops-sync-56.log
0,5.51,52.703125,gpuverify/nested-loops-sync-12.cu,logs/gpuverify-nested-loops-sync-57.log
0,5.51,52.76171875,gpuverify/nested-loops-sync-12.cu,logs/gpuverify-nested-loops-sync-58.log
0,5.53,52.87890625,gpuverify/nested-loops-sync-12.cu,logs/gpuverify-nested-loops-sync-59.log
0,5.45,52.90234375,gpuverify/nested-loops-sync-12.cu,logs/gpuverify-nested-loops-sync-60.log
0,6.5,56.765625,gpuverify/nested-loops-sync-13.cu,logs/gpuverify-nested-loops-sync-61.log
0,6.45,57.01953125,gpuverify/nested-loops-sync-13.cu,logs/gpuverify-nested-loops-sync-62.log
0,6.41,56.765625,gpuverify/nested-loops-sync-13.cu,logs/gpuverify-nested-loops-sync-63.log
0,6.47,56.50390625,gpuverify/nested-loops-sync-13.cu,logs/gpuverify-nested-loops-sync-64.log
0,6.41,56.75390625,gpuverify/nested-loops-sync-13.cu,logs/gpuverify-nested-loops-sync-65.log
0,6.95,59.94921875,gpuverify/nested-loops-sync-14.cu,logs/gpuverify-nested-loops-sync-66.log
0,6.87,60.578125,gpuverify/nested-loops-sync-14.cu,logs/gpuverify-nested-loops-sync-67.log
0,6.99,60.3046875,gpuverify/nested-loops-sync-14.cu,logs/gpuverify-nested-loops-sync-68.log
0,6.85,60.1328125,gpuverify/nested-loops-sync-14.cu,logs/gpuverify-nested-loops-sync-69.log
0,6.85,60.390625,gpuverify/nested-loops-sync-14.cu,logs/gpuverify-nested-loops-sync-70.log
0,8.02,62.8828125,gpuverify/nested-loops-sync-15.cu,logs/gpuverify-nested-loops-sync-71.log
0,8.06,62.7421875,gpuverify/nested-loops-sync-15.cu,logs/gpuverify-nested-loops-sync-72.log
0,7.94,63.1875,gpuverify/nested-loops-sync-15.cu,logs/gpuverify-nested-loops-sync-73.log
0,7.97,63.01171875,gpuverify/nested-loops-sync-15.cu,logs/gpuverify-nested-loops-sync-74.log
0,8.07,62.71484375,gpuverify/nested-loops-sync-15.cu,logs/gpuverify-nested-loops-sync-75.log
0,10.72,63.7578125,gpuverify/nested-loops-sync-16.cu,logs/gpuverify-nested-loops-sync-76.log
0,10.6,63.796875,gpuverify/nested-loops-sync-16.cu,logs/gpuverify-nested-loops-sync-77.log
0,10.58,63.90234375,gpuverify/nested-loops-sync-16.cu,logs/gpuverify-nested-loops-sync-78.log
0,10.64,63.90625,gpuverify/nested-loops-sync-16.cu,logs/gpuverify-nested-loops-sync-79.log
0,10.79,63.20703125,gpuverify/nested-loops-sync-16.cu,logs/gpuverify-nested-loops-sync-80.log
0,11.36,64.3828125,gpuverify/nested-loops-sync-17.cu,logs/gpuverify-nested-loops-sync-81.log
0,11.51,64.125,gpuverify/nested-loops-sync-17.cu,logs/gpuverify-nested-loops-sync-82.log
0,11.36,64.48046875,gpuverify/nested-loops-sync-17.cu,logs/gpuverify-nested-loops-sync-83.log
0,11.63,64.33984375,gpuverify/nested-loops-sync-17.cu,logs/gpuverify-nested-loops-sync-84.log
0,11.57,64.39453125,gpuverify/nested-loops-sync-17.cu,logs/gpuverify-nested-loops-sync-85.log
0,14.86,67.8984375,gpuverify/nested-loops-sync-18.cu,logs/gpuverify-nested-loops-sync-86.log
0,14.73,67.9765625,gpuverify/nested-loops-sync-18.cu,logs/gpuverify-nested-loops-sync-87.log
0,14.86,67.96875,gpuverify/nested-loops-sync-18.cu,logs/gpuverify-nested-loops-sync-88.log
0,15.06,67.94140625,gpuverify/nested-loops-sync-18.cu,logs/gpuverify-nested-loops-sync-89.log
0,14.86,67.69921875,gpuverify/nested-loops-sync-18.cu,logs/gpuverify-nested-loops-sync-90.log
0,15.18,68.00390625,gpuverify/nested-loops-sync-19.cu,logs/gpuverify-nested-loops-sync-91.log
0,15.21,69.90234375,gpuverify/nested-loops-sync-19.cu,logs/gpuverify-nested-loops-sync-92.log
0,15.33,70.11328125,gpuverify/nested-loops-sync-19.cu,logs/gpuverify-nested-loops-sync-93.log
0,15.25,67.94140625,gpuverify/nested-loops-sync-19.cu,logs/gpuverify-nested-loops-sync-94.log
0,15.48,69.92578125,gpuverify/nested-loops-sync-19.cu,logs/gpuverify-nested-loops-sync-95.log
0,23.08,68.13671875,gpuverify/nested-loops-sync-20.cu,logs/gpuverify-nested-loops-sync-96.log
0,23.15,67.9765625,gpuverify/nested-loops-sync-20.cu,logs/gpuverify-nested-loops-sync-97.log
0,23.24,67.84375,gpuverify/nested-loops-sync-20.cu,logs/gpuverify-nested-loops-sync-98.log
0,23.12,67.640625,gpuverify/nested-loops-sync-20.cu,logs/gpuverify-nested-loops-sync-99.log
0,23.32,67.79296875,gpuverify/nested-loops-sync-20.cu,logs/gpuverify-nested-loops-sync-100.log
0,24.32,68.828125,gpuverify/nested-loops-sync-21.cu,logs/gpuverify-nested-loops-sync-101.log
0,24.27,68.18359375,gpuverify/nested-loops-sync-21.cu,logs/gpuverify-nested-loops-sync-102.log
0,24.41,68.3828125,gpuverify/nested-loops-sync-21.cu,logs/gpuverify-nested-loops-sync-103.log
0,24.42,68.546875,gpuverify/nested-loops-sync-21.cu,logs/gpuverify-nested-loops-sync-104.log
0,24.32,68.25390625,gpuverify/nested-loops-sync-21.cu,logs/gpuverify-nested-loops-sync-105.log
0,25.52,69.96484375,gpuverify/nested-loops-sync-22.cu,logs/gpuverify-nested-loops-sync-106.log
0,25.72,69.9140625,gpuverify/nested-loops-sync-22.cu,logs/gpuverify-nested-loops-sync-107.log
0,25.76,70.140625,gpuverify/nested-loops-sync-22.cu,logs/gpuverify-nested-loops-sync-108.log
0,25.8,69.98046875,gpuverify/nested-loops-sync-22.cu,logs/gpuverify-nested-loops-sync-109.log
0,25.55,69.890625,gpuverify/nested-loops-sync-22.cu,logs/gpuverify-nested-loops-sync-110.log
0,37.23,77.19140625,gpuverify/nested-loops-sync-23.cu,logs/gpuverify-nested-loops-sync-111.log
0,37.11,77.74609375,gpuverify/nested-loops-sync-23.cu,logs/gpuverify-nested-loops-sync-112.log
0,37.19,77.765625,gpuverify/nested-loops-sync-23.cu,logs/gpuverify-nested-loops-sync-113.log
0,37.39,77.95703125,gpuverify/nested-loops-sync-23.cu,logs/gpuverify-nested-loops-sync-114.log
0,37.24,77.453125,gpuverify/nested-loops-sync-23.cu,logs/gpuverify-nested-loops-sync-115.log
0,33.59,80.5625,gpuverify/nested-loops-sync-24.cu,logs/gpuverify-nested-loops-sync-116.log
0,33.44,81.0390625,gpuverify/nested-loops-sync-24.cu,logs/gpuverify-nested-loops-sync-117.log
0,33.63,81.03125,gpuverify/nested-loops-sync-24.cu,logs/gpuverify-nested-loops-sync-118.log
0,33.5,82.39453125,gpuverify/nested-loops-sync-24.cu,logs/gpuverify-nested-loops-sync-119.log
0,33.66,80.2578125,gpuverify/nested-loops-sync-24.cu,logs/gpuverify-nested-loops-sync-120.log
0,38.16,82.0625,gpuverify/nested-loops-sync-25.cu,logs/gpuverify-nested-loops-sync-121.log
0,37.83,81.73046875,gpuverify/nested-loops-sync-25.cu,logs/gpuverify-nested-loops-sync-122.log
0,37.83,81.66015625,gpuverify/nested-loops-sync-25.cu,logs/gpuverify-nested-loops-sync-123.log
0,37.72,81.87109375,gpuverify/nested-loops-sync-25.cu,logs/gpuverify-nested-loops-sync-124.log
0,37.76,81.828125,gpuverify/nested-loops-sync-25.cu,logs/gpuverify-nested-loops-sync-125.log
0,55.41,82.50390625,gpuverify/nested-loops-sync-26.cu,logs/gpuverify-nested-loops-sync-126.log
0,55.14,82.41015625,gpuverify/nested-loops-sync-26.cu,logs/gpuverify-nested-loops-sync-127.log
0,55.25,82.65625,gpuverify/nested-loops-sync-26.cu,logs/gpuverify-nested-loops-sync-128.log
0,55.29,81.71484375,gpuverify/nested-loops-sync-26.cu,logs/gpuverify-nested-loops-sync-129.log
0,55.04,81.67578125,gpuverify/nested-loops-sync-26.cu,logs/gpuverify-nested-loops-sync-130.log
0,45.29,86.58984375,gpuverify/nested-loops-sync-27.cu,logs/gpuverify-nested-loops-sync-131.log
0,45.22,85.2421875,gpuverify/nested-loops-sync-27.cu,logs/gpuverify-nested-loops-sync-132.log
0,45.05,85.359375,gpuverify/nested-loops-sync-27.cu,logs/gpuverify-nested-loops-sync-133.log
0,45.14,85.78125,gpuverify/nested-loops-sync-27.cu,logs/gpuverify-nested-loops-sync-134.log
0,45.22,85.02734375,gpuverify/nested-loops-sync-27.cu,logs/gpuverify-nested-loops-sync-135.log
0,60.06,82.546875,gpuverify/nested-loops-sync-28.cu,logs/gpuverify-nested-loops-sync-136.log
0,60.02,82.484375,gpuverify/nested-loops-sync-28.cu,logs/gpuverify-nested-loops-sync-137.log
0,60.18,83.1875,gpuverify/nested-loops-sync-28.cu,logs/gpuverify-nested-loops-sync-138.log
0,59.79,83.0,gpuverify/nested-loops-sync-28.cu,logs/gpuverify-nested-loops-sync-139.log
0,60.26,82.9921875,gpuverify/nested-loops-sync-28.cu,logs/gpuverify-nested-loops-sync-140.log
0,54.49,87.62109375,gpuverify/nested-loops-sync-29.cu,logs/gpuverify-nested-loops-sync-141.log
0,54.37,86.96875,gpuverify/nested-loops-sync-29.cu,logs/gpuverify-nested-loops-sync-142.log
0,54.5,86.98828125,gpuverify/nested-loops-sync-29.cu,logs/gpuverify-nested-loops-sync-143.log
0,54.49,86.89453125,gpuverify/nested-loops-sync-29.cu,logs/gpuverify-nested-loops-sync-144.log
0,54.68,86.96484375,gpuverify/nested-loops-sync-29.cu,logs/gpuverify-nested-loops-sync-145.log
0,70.03,85.17578125,gpuverify/nested-loops-sync-30.cu,logs/gpuverify-nested-loops-sync-146.log
0,70.1,85.6484375,gpuverify/nested-loops-sync-30.cu,logs/gpuverify-nested-loops-sync-147.log
0,69.78,85.2265625,gpuverify/nested-loops-sync-30.cu,logs/gpuverify-nested-loops-sync-148.log
0,69.85,85.51953125,gpuverify/nested-loops-sync-30.cu,logs/gpuverify-nested-loops-sync-149.log
0,69.94,84.5078125,gpuverify/nested-loops-sync-30.cu,logs/gpuverify-nested-loops-sync-150.log
0,69.66,87.51953125,gpuverify/nested-loops-sync-31.cu,logs/gpuverify-nested-loops-sync-151.log
0,69.52,87.24609375,gpuverify/nested-loops-sync-31.cu,logs/gpuverify-nested-loops-sync-152.log
0,69.84,87.50390625,gpuverify/nested-loops-sync-31.cu,logs/gpuverify-nested-loops-sync-153.log
0,69.81,87.31640625,gpuverify/nested-loops-sync-31.cu,logs/gpuverify-nested-loops-sync-154.log
0,69.49,86.6875,gpuverify/nested-loops-sync-31.cu,logs/gpuverify-nested-loops-sync-155.log
124,90.0,3.140625,gpuverify/nested-loops-sync-32.cu,logs/gpuverify-nested-loops-sync-156.log
124,90.0,3.0390625,gpuverify/nested-loops-sync-32.cu,logs/gpuverify-nested-loops-sync-157.log
124,90.0,3.0078125,gpuverify/nested-loops-sync-32.cu,logs/gpuverify-nested-loops-sync-158.log
124,90.0,3.04296875,gpuverify/nested-loops-sync-32.cu,logs/gpuverify-nested-loops-sync-159.log
124,90.0,3.046875,gpuverify/nested-loops-sync-32.cu,logs/gpuverify-nested-loops-sync-160.log
124,90.0,3.109375,gpuverify/nested-loops-sync-33.cu,logs/gpuverify-nested-loops-sync-161.log
124,90.0,3.15234375,gpuverify/nested-loops-sync-33.cu,logs/gpuverify-nested-loops-sync-162.log
124,90.0,3.11328125,gpuverify/nested-loops-sync-33.cu,logs/gpuverify-nested-loops-sync-163.log
124,90.0,3.12109375,gpuverify/nested-loops-sync-33.cu,logs/gpuverify-nested-loops-sync-164.log
124,90.0,3.07421875,gpuverify/nested-loops-sync-33.cu,logs/gpuverify-nested-loops-sync-165.log
124,90.0,3.0859375,gpuverify/nested-loops-sync-34.cu,logs/gpuverify-nested-loops-sync-166.log
124,90.0,3.08984375,gpuverify/nested-loops-sync-34.cu,logs/gpuverify-nested-loops-sync-167.log
124,90.0,3.15625,gpuverify/nested-loops-sync-34.cu,logs/gpuverify-nested-loops-sync-168.log
124,90.0,3.140625,gpuverify/nested-loops-sync-34.cu,logs/gpuverify-nested-loops-sync-169.log
124,90.0,3.07421875,gpuverify/nested-loops-sync-34.cu,logs/gpuverify-nested-loops-sync-170.log
