status,time,memory,filename,log
0,1.08,37.359375,gpuverify/barriers-1.cu,logs/gpuverify-barriers-1.log
0,1.28,37.46484375,gpuverify/barriers-1.cu,logs/gpuverify-barriers-2.log
0,1.12,37.421875,gpuverify/barriers-1.cu,logs/gpuverify-barriers-3.log
0,1.12,37.390625,gpuverify/barriers-1.cu,logs/gpuverify-barriers-4.log
0,1.25,37.41015625,gpuverify/barriers-1.cu,logs/gpuverify-barriers-5.log
0,1.29,37.43359375,gpuverify/barriers-2.cu,logs/gpuverify-barriers-6.log
0,1.12,37.41015625,gpuverify/barriers-2.cu,logs/gpuverify-barriers-7.log
0,1.13,37.41796875,gpuverify/barriers-2.cu,logs/gpuverify-barriers-8.log
0,1.17,37.44921875,gpuverify/barriers-2.cu,logs/gpuverify-barriers-9.log
0,1.09,37.51171875,gpuverify/barriers-2.cu,logs/gpuverify-barriers-10.log
0,1.16,37.42578125,gpuverify/barriers-3.cu,logs/gpuverify-barriers-11.log
0,1.29,37.38671875,gpuverify/barriers-3.cu,logs/gpuverify-barriers-12.log
0,1.26,37.359375,gpuverify/barriers-3.cu,logs/gpuverify-barriers-13.log
0,1.23,37.36328125,gpuverify/barriers-3.cu,logs/gpuverify-barriers-14.log
0,1.21,37.3125,gpuverify/barriers-3.cu,logs/gpuverify-barriers-15.log
0,1.29,37.6015625,gpuverify/barriers-4.cu,logs/gpuverify-barriers-16.log
0,1.17,37.45703125,gpuverify/barriers-4.cu,logs/gpuverify-barriers-17.log
0,1.2,37.40234375,gpuverify/barriers-4.cu,logs/gpuverify-barriers-18.log
0,1.16,37.5234375,gpuverify/barriers-4.cu,logs/gpuverify-barriers-19.log
0,1.16,37.5703125,gpuverify/barriers-4.cu,logs/gpuverify-barriers-20.log
0,1.25,37.5625,gpuverify/barriers-5.cu,logs/gpuverify-barriers-21.log
0,1.24,37.72265625,gpuverify/barriers-5.cu,logs/gpuverify-barriers-22.log
0,1.28,37.4609375,gpuverify/barriers-5.cu,logs/gpuverify-barriers-23.log
0,1.44,37.6796875,gpuverify/barriers-5.cu,logs/gpuverify-barriers-24.log
0,1.17,37.37109375,gpuverify/barriers-5.cu,logs/gpuverify-barriers-25.log
0,1.2,37.86328125,gpuverify/barriers-6.cu,logs/gpuverify-barriers-26.log
0,1.16,37.953125,gpuverify/barriers-6.cu,logs/gpuverify-barriers-27.log
0,1.16,37.7734375,gpuverify/barriers-6.cu,logs/gpuverify-barriers-28.log
0,1.24,37.75390625,gpuverify/barriers-6.cu,logs/gpuverify-barriers-29.log
0,1.16,37.98828125,gpuverify/barriers-6.cu,logs/gpuverify-barriers-30.log
0,1.24,38.9296875,gpuverify/barriers-7.cu,logs/gpuverify-barriers-31.log
0,1.16,38.55078125,gpuverify/barriers-7.cu,logs/gpuverify-barriers-32.log
0,1.16,38.3984375,gpuverify/barriers-7.cu,logs/gpuverify-barriers-33.log
0,1.17,38.58984375,gpuverify/barriers-7.cu,logs/gpuverify-barriers-34.log
0,1.33,38.6015625,gpuverify/barriers-7.cu,logs/gpuverify-barriers-35.log
0,1.17,38.6015625,gpuverify/barriers-8.cu,logs/gpuverify-barriers-36.log
0,1.16,38.58203125,gpuverify/barriers-8.cu,logs/gpuverify-barriers-37.log
0,1.24,38.4140625,gpuverify/barriers-8.cu,logs/gpuverify-barriers-38.log
0,1.16,38.88671875,gpuverify/barriers-8.cu,logs/gpuverify-barriers-39.log
0,1.24,38.9296875,gpuverify/barriers-8.cu,logs/gpuverify-barriers-40.log
0,1.29,38.89453125,gpuverify/barriers-9.cu,logs/gpuverify-barriers-41.log
0,1.29,38.48046875,gpuverify/barriers-9.cu,logs/gpuverify-barriers-42.log
0,1.29,38.96484375,gpuverify/barriers-9.cu,logs/gpuverify-barriers-43.log
0,1.21,38.6015625,gpuverify/barriers-9.cu,logs/gpuverify-barriers-44.log
0,1.16,38.46875,gpuverify/barriers-9.cu,logs/gpuverify-barriers-45.log
0,1.16,40.06640625,gpuverify/barriers-10.cu,logs/gpuverify-barriers-46.log
0,1.2,39.88671875,gpuverify/barriers-10.cu,logs/gpuverify-barriers-47.log
0,1.16,40.0,gpuverify/barriers-10.cu,logs/gpuverify-barriers-48.log
0,1.2,39.7265625,gpuverify/barriers-10.cu,logs/gpuverify-barriers-49.log
0,1.2,40.234375,gpuverify/barriers-10.cu,logs/gpuverify-barriers-50.log
0,1.19,40.296875,gpuverify/barriers-11.cu,logs/gpuverify-barriers-51.log
0,1.28,40.48828125,gpuverify/barriers-11.cu,logs/gpuverify-barriers-52.log
0,1.16,40.5546875,gpuverify/barriers-11.cu,logs/gpuverify-barriers-53.log
0,1.16,40.4375,gpuverify/barriers-11.cu,logs/gpuverify-barriers-54.log
0,1.21,40.5,gpuverify/barriers-11.cu,logs/gpuverify-barriers-55.log
0,1.44,40.64453125,gpuverify/barriers-12.cu,logs/gpuverify-barriers-56.log
0,1.2,40.72265625,gpuverify/barriers-12.cu,logs/gpuverify-barriers-57.log
0,1.16,40.61328125,gpuverify/barriers-12.cu,logs/gpuverify-barriers-58.log
0,1.24,40.9453125,gpuverify/barriers-12.cu,logs/gpuverify-barriers-59.log
0,1.2,40.7109375,gpuverify/barriers-12.cu,logs/gpuverify-barriers-60.log
0,1.28,42.3671875,gpuverify/barriers-13.cu,logs/gpuverify-barriers-61.log
0,1.16,41.65234375,gpuverify/barriers-13.cu,logs/gpuverify-barriers-62.log
0,1.2,42.1875,gpuverify/barriers-13.cu,logs/gpuverify-barriers-63.log
0,1.36,42.17578125,gpuverify/barriers-13.cu,logs/gpuverify-barriers-64.log
0,1.25,42.0234375,gpuverify/barriers-13.cu,logs/gpuverify-barriers-65.log
0,1.24,42.3046875,gpuverify/barriers-14.cu,logs/gpuverify-barriers-66.log
0,1.25,42.16796875,gpuverify/barriers-14.cu,logs/gpuverify-barriers-67.log
0,1.24,42.05859375,gpuverify/barriers-14.cu,logs/gpuverify-barriers-68.log
0,1.29,42.10546875,gpuverify/barriers-14.cu,logs/gpuverify-barriers-69.log
0,1.35,42.390625,gpuverify/barriers-14.cu,logs/gpuverify-barriers-70.log
0,1.27,43.44921875,gpuverify/barriers-15.cu,logs/gpuverify-barriers-71.log
0,1.44,43.8359375,gpuverify/barriers-15.cu,logs/gpuverify-barriers-72.log
0,1.41,43.6328125,gpuverify/barriers-15.cu,logs/gpuverify-barriers-73.log
0,1.4,44.08984375,gpuverify/barriers-15.cu,logs/gpuverify-barriers-74.log
0,1.32,43.69140625,gpuverify/barriers-15.cu,logs/gpuverify-barriers-75.log
0,1.24,44.02734375,gpuverify/barriers-16.cu,logs/gpuverify-barriers-76.log
0,1.41,44.390625,gpuverify/barriers-16.cu,logs/gpuverify-barriers-77.log
0,1.37,44.234375,gpuverify/barriers-16.cu,logs/gpuverify-barriers-78.log
0,1.24,43.99609375,gpuverify/barriers-16.cu,logs/gpuverify-barriers-79.log
0,1.32,44.3125,gpuverify/barriers-16.cu,logs/gpuverify-barriers-80.log
0,1.28,43.7734375,gpuverify/barriers-17.cu,logs/gpuverify-barriers-81.log
0,1.24,44.3203125,gpuverify/barriers-17.cu,logs/gpuverify-barriers-82.log
0,1.28,43.75390625,gpuverify/barriers-17.cu,logs/gpuverify-barriers-83.log
0,1.24,43.51171875,gpuverify/barriers-17.cu,logs/gpuverify-barriers-84.log
0,1.28,43.5546875,gpuverify/barriers-17.cu,logs/gpuverify-barriers-85.log
0,1.31,45.21875,gpuverify/barriers-18.cu,logs/gpuverify-barriers-86.log
0,1.24,45.5,gpuverify/barriers-18.cu,logs/gpuverify-barriers-87.log
0,1.24,45.07421875,gpuverify/barriers-18.cu,logs/gpuverify-barriers-88.log
0,1.25,45.1640625,gpuverify/barriers-18.cu,logs/gpuverify-barriers-89.log
0,1.36,45.21875,gpuverify/barriers-18.cu,logs/gpuverify-barriers-90.log
0,1.33,46.01953125,gpuverify/barriers-19.cu,logs/gpuverify-barriers-91.log
0,1.37,45.98046875,gpuverify/barriers-19.cu,logs/gpuverify-barriers-92.log
0,1.45,46.25,gpuverify/barriers-19.cu,logs/gpuverify-barriers-93.log
0,1.24,46.05078125,gpuverify/barriers-19.cu,logs/gpuverify-barriers-94.log
0,1.48,45.9140625,gpuverify/barriers-19.cu,logs/gpuverify-barriers-95.log
0,1.43,45.41015625,gpuverify/barriers-20.cu,logs/gpuverify-barriers-96.log
0,1.36,45.41015625,gpuverify/barriers-20.cu,logs/gpuverify-barriers-97.log
0,1.36,45.55859375,gpuverify/barriers-20.cu,logs/gpuverify-barriers-98.log
0,1.4,45.54296875,gpuverify/barriers-20.cu,logs/gpuverify-barriers-99.log
0,1.36,45.640625,gpuverify/barriers-20.cu,logs/gpuverify-barriers-100.log
0,1.8,48.23828125,gpuverify/barriers-21.cu,logs/gpuverify-barriers-101.log
0,1.36,48.140625,gpuverify/barriers-21.cu,logs/gpuverify-barriers-102.log
0,1.36,48.22265625,gpuverify/barriers-21.cu,logs/gpuverify-barriers-103.log
0,1.4,47.94921875,gpuverify/barriers-21.cu,logs/gpuverify-barriers-104.log
0,1.41,48.47265625,gpuverify/barriers-21.cu,logs/gpuverify-barriers-105.log
0,1.4,49.23046875,gpuverify/barriers-22.cu,logs/gpuverify-barriers-106.log
0,1.4,49.0,gpuverify/barriers-22.cu,logs/gpuverify-barriers-107.log
0,1.32,48.85546875,gpuverify/barriers-22.cu,logs/gpuverify-barriers-108.log
0,1.41,49.12109375,gpuverify/barriers-22.cu,logs/gpuverify-barriers-109.log
0,1.45,49.09375,gpuverify/barriers-22.cu,logs/gpuverify-barriers-110.log
0,1.37,49.00390625,gpuverify/barriers-23.cu,logs/gpuverify-barriers-111.log
0,1.49,49.140625,gpuverify/barriers-23.cu,logs/gpuverify-barriers-112.log
0,1.36,49.0859375,gpuverify/barriers-23.cu,logs/gpuverify-barriers-113.log
0,1.32,48.82421875,gpuverify/barriers-23.cu,logs/gpuverify-barriers-114.log
0,1.36,48.8828125,gpuverify/barriers-23.cu,logs/gpuverify-barriers-115.log
0,1.32,50.21484375,gpuverify/barriers-24.cu,logs/gpuverify-barriers-116.log
0,1.61,50.40234375,gpuverify/barriers-24.cu,logs/gpuverify-barriers-117.log
0,1.49,50.33984375,gpuverify/barriers-24.cu,logs/gpuverify-barriers-118.log
0,1.39,49.89453125,gpuverify/barriers-24.cu,logs/gpuverify-barriers-119.log
0,1.4,50.4140625,gpuverify/barriers-24.cu,logs/gpuverify-barriers-120.log
0,1.45,50.63671875,gpuverify/barriers-25.cu,logs/gpuverify-barriers-121.log
0,1.48,50.84375,gpuverify/barriers-25.cu,logs/gpuverify-barriers-122.log
0,1.45,51.17578125,gpuverify/barriers-25.cu,logs/gpuverify-barriers-123.log
0,1.44,50.8984375,gpuverify/barriers-25.cu,logs/gpuverify-barriers-124.log
0,1.53,50.65234375,gpuverify/barriers-25.cu,logs/gpuverify-barriers-125.log
0,1.44,51.58984375,gpuverify/barriers-26.cu,logs/gpuverify-barriers-126.log
0,1.48,51.52734375,gpuverify/barriers-26.cu,logs/gpuverify-barriers-127.log
0,1.84,51.359375,gpuverify/barriers-26.cu,logs/gpuverify-barriers-128.log
0,1.44,51.7734375,gpuverify/barriers-26.cu,logs/gpuverify-barriers-129.log
0,1.45,51.53515625,gpuverify/barriers-26.cu,logs/gpuverify-barriers-130.log
0,1.49,52.4453125,gpuverify/barriers-27.cu,logs/gpuverify-barriers-131.log
0,1.53,52.53515625,gpuverify/barriers-27.cu,logs/gpuverify-barriers-132.log
0,1.45,52.45703125,gpuverify/barriers-27.cu,logs/gpuverify-barriers-133.log
0,1.45,52.5703125,gpuverify/barriers-27.cu,logs/gpuverify-barriers-134.log
0,1.45,52.3359375,gpuverify/barriers-27.cu,logs/gpuverify-barriers-135.log
0,1.48,53.69921875,gpuverify/barriers-28.cu,logs/gpuverify-barriers-136.log
0,1.44,53.49609375,gpuverify/barriers-28.cu,logs/gpuverify-barriers-137.log
0,1.46,53.3125,gpuverify/barriers-28.cu,logs/gpuverify-barriers-138.log
0,1.4,53.34765625,gpuverify/barriers-28.cu,logs/gpuverify-barriers-139.log
0,1.54,53.4453125,gpuverify/barriers-28.cu,logs/gpuverify-barriers-140.log
0,1.47,53.4296875,gpuverify/barriers-29.cu,logs/gpuverify-barriers-141.log
0,1.63,53.23046875,gpuverify/barriers-29.cu,logs/gpuverify-barriers-142.log
0,1.49,53.60546875,gpuverify/barriers-29.cu,logs/gpuverify-barriers-143.log
0,1.52,53.66796875,gpuverify/barriers-29.cu,logs/gpuverify-barriers-144.log
0,1.56,53.45703125,gpuverify/barriers-29.cu,logs/gpuverify-barriers-145.log
0,1.44,51.76171875,gpuverify/barriers-30.cu,logs/gpuverify-barriers-146.log
0,1.72,51.7578125,gpuverify/barriers-30.cu,logs/gpuverify-barriers-147.log
0,1.49,51.6015625,gpuverify/barriers-30.cu,logs/gpuverify-barriers-148.log
0,1.45,51.8671875,gpuverify/barriers-30.cu,logs/gpuverify-barriers-149.log
0,1.45,51.5546875,gpuverify/barriers-30.cu,logs/gpuverify-barriers-150.log
0,1.48,52.98046875,gpuverify/barriers-31.cu,logs/gpuverify-barriers-151.log
0,1.91,52.96484375,gpuverify/barriers-31.cu,logs/gpuverify-barriers-152.log
0,1.44,53.19140625,gpuverify/barriers-31.cu,logs/gpuverify-barriers-153.log
0,1.64,53.01171875,gpuverify/barriers-31.cu,logs/gpuverify-barriers-154.log
0,1.6,53.29296875,gpuverify/barriers-31.cu,logs/gpuverify-barriers-155.log
0,1.61,57.28515625,gpuverify/barriers-32.cu,logs/gpuverify-barriers-156.log
0,1.48,57.53125,gpuverify/barriers-32.cu,logs/gpuverify-barriers-157.log
0,1.56,56.99609375,gpuverify/barriers-32.cu,logs/gpuverify-barriers-158.log
0,1.53,57.2578125,gpuverify/barriers-32.cu,logs/gpuverify-barriers-159.log
0,1.53,57.16015625,gpuverify/barriers-32.cu,logs/gpuverify-barriers-160.log
0,1.65,58.32421875,gpuverify/barriers-33.cu,logs/gpuverify-barriers-161.log
0,1.53,58.515625,gpuverify/barriers-33.cu,logs/gpuverify-barriers-162.log
0,1.53,58.3828125,gpuverify/barriers-33.cu,logs/gpuverify-barriers-163.log
0,1.69,58.66796875,gpuverify/barriers-33.cu,logs/gpuverify-barriers-164.log
0,1.53,58.48828125,gpuverify/barriers-33.cu,logs/gpuverify-barriers-165.log
0,1.57,59.0625,gpuverify/barriers-34.cu,logs/gpuverify-barriers-166.log
0,1.53,58.9296875,gpuverify/barriers-34.cu,logs/gpuverify-barriers-167.log
0,1.69,58.9765625,gpuverify/barriers-34.cu,logs/gpuverify-barriers-168.log
0,1.53,58.90234375,gpuverify/barriers-34.cu,logs/gpuverify-barriers-169.log
0,1.61,59.0546875,gpuverify/barriers-34.cu,logs/gpuverify-barriers-170.log
0,1.52,58.60546875,gpuverify/barriers-35.cu,logs/gpuverify-barriers-171.log
0,1.53,58.5078125,gpuverify/barriers-35.cu,logs/gpuverify-barriers-172.log
0,1.52,58.70703125,gpuverify/barriers-35.cu,logs/gpuverify-barriers-173.log
0,1.52,58.92578125,gpuverify/barriers-35.cu,logs/gpuverify-barriers-174.log
0,1.53,58.6328125,gpuverify/barriers-35.cu,logs/gpuverify-barriers-175.log
0,1.65,59.34765625,gpuverify/barriers-36.cu,logs/gpuverify-barriers-176.log
0,1.53,59.4921875,gpuverify/barriers-36.cu,logs/gpuverify-barriers-177.log
0,1.86,59.24609375,gpuverify/barriers-36.cu,logs/gpuverify-barriers-178.log
0,1.6,59.51171875,gpuverify/barriers-36.cu,logs/gpuverify-barriers-179.log
0,1.53,59.02734375,gpuverify/barriers-36.cu,logs/gpuverify-barriers-180.log
0,1.53,59.765625,gpuverify/barriers-37.cu,logs/gpuverify-barriers-181.log
0,1.53,60.1953125,gpuverify/barriers-37.cu,logs/gpuverify-barriers-182.log
0,1.65,59.87890625,gpuverify/barriers-37.cu,logs/gpuverify-barriers-183.log
0,1.53,59.5625,gpuverify/barriers-37.cu,logs/gpuverify-barriers-184.log
0,1.65,60.19921875,gpuverify/barriers-37.cu,logs/gpuverify-barriers-185.log
0,1.63,60.9609375,gpuverify/barriers-38.cu,logs/gpuverify-barriers-186.log
0,1.97,60.86328125,gpuverify/barriers-38.cu,logs/gpuverify-barriers-187.log
0,1.63,61.09765625,gpuverify/barriers-38.cu,logs/gpuverify-barriers-188.log
0,2.01,61.0859375,gpuverify/barriers-38.cu,logs/gpuverify-barriers-189.log
0,1.74,60.65625,gpuverify/barriers-38.cu,logs/gpuverify-barriers-190.log
0,1.6,61.71875,gpuverify/barriers-39.cu,logs/gpuverify-barriers-191.log
0,1.81,61.6640625,gpuverify/barriers-39.cu,logs/gpuverify-barriers-192.log
0,1.77,61.89453125,gpuverify/barriers-39.cu,logs/gpuverify-barriers-193.log
0,1.7,61.70703125,gpuverify/barriers-39.cu,logs/gpuverify-barriers-194.log
0,1.61,62.05859375,gpuverify/barriers-39.cu,logs/gpuverify-barriers-195.log
0,1.61,63.16015625,gpuverify/barriers-40.cu,logs/gpuverify-barriers-196.log
0,1.61,62.83203125,gpuverify/barriers-40.cu,logs/gpuverify-barriers-197.log
0,1.66,63.1328125,gpuverify/barriers-40.cu,logs/gpuverify-barriers-198.log
0,1.65,63.08203125,gpuverify/barriers-40.cu,logs/gpuverify-barriers-199.log
0,1.74,63.16015625,gpuverify/barriers-40.cu,logs/gpuverify-barriers-200.log
0,1.6,64.20703125,gpuverify/barriers-41.cu,logs/gpuverify-barriers-201.log
0,1.65,63.98046875,gpuverify/barriers-41.cu,logs/gpuverify-barriers-202.log
0,2.01,64.015625,gpuverify/barriers-41.cu,logs/gpuverify-barriers-203.log
0,1.61,64.1953125,gpuverify/barriers-41.cu,logs/gpuverify-barriers-204.log
0,1.61,64.01171875,gpuverify/barriers-41.cu,logs/gpuverify-barriers-205.log
0,1.61,66.5546875,gpuverify/barriers-42.cu,logs/gpuverify-barriers-206.log
0,1.66,66.12109375,gpuverify/barriers-42.cu,logs/gpuverify-barriers-207.log
0,1.77,66.671875,gpuverify/barriers-42.cu,logs/gpuverify-barriers-208.log
0,1.61,66.44140625,gpuverify/barriers-42.cu,logs/gpuverify-barriers-209.log
0,1.95,66.69921875,gpuverify/barriers-42.cu,logs/gpuverify-barriers-210.log
0,1.8,66.09765625,gpuverify/barriers-43.cu,logs/gpuverify-barriers-211.log
0,1.65,66.0390625,gpuverify/barriers-43.cu,logs/gpuverify-barriers-212.log
0,1.72,66.0703125,gpuverify/barriers-43.cu,logs/gpuverify-barriers-213.log
0,1.65,66.1640625,gpuverify/barriers-43.cu,logs/gpuverify-barriers-214.log
0,1.7,66.26953125,gpuverify/barriers-43.cu,logs/gpuverify-barriers-215.log
0,1.64,65.59375,gpuverify/barriers-44.cu,logs/gpuverify-barriers-216.log
0,1.64,65.390625,gpuverify/barriers-44.cu,logs/gpuverify-barriers-217.log
0,1.69,65.3125,gpuverify/barriers-44.cu,logs/gpuverify-barriers-218.log
0,1.64,65.4765625,gpuverify/barriers-44.cu,logs/gpuverify-barriers-219.log
0,1.69,65.44140625,gpuverify/barriers-44.cu,logs/gpuverify-barriers-220.log
0,1.89,65.40234375,gpuverify/barriers-45.cu,logs/gpuverify-barriers-221.log
0,1.72,65.46484375,gpuverify/barriers-45.cu,logs/gpuverify-barriers-222.log
0,1.69,65.32421875,gpuverify/barriers-45.cu,logs/gpuverify-barriers-223.log
0,2.34,65.53515625,gpuverify/barriers-45.cu,logs/gpuverify-barriers-224.log
0,1.64,65.5625,gpuverify/barriers-45.cu,logs/gpuverify-barriers-225.log
0,1.84,66.08203125,gpuverify/barriers-46.cu,logs/gpuverify-barriers-226.log
0,1.7,66.25,gpuverify/barriers-46.cu,logs/gpuverify-barriers-227.log
0,1.81,66.35546875,gpuverify/barriers-46.cu,logs/gpuverify-barriers-228.log
0,1.68,66.33203125,gpuverify/barriers-46.cu,logs/gpuverify-barriers-229.log
0,1.82,65.98828125,gpuverify/barriers-46.cu,logs/gpuverify-barriers-230.log
0,1.72,66.52734375,gpuverify/barriers-47.cu,logs/gpuverify-barriers-231.log
0,1.86,66.35546875,gpuverify/barriers-47.cu,logs/gpuverify-barriers-232.log
0,1.83,66.22265625,gpuverify/barriers-47.cu,logs/gpuverify-barriers-233.log
0,1.77,66.41796875,gpuverify/barriers-47.cu,logs/gpuverify-barriers-234.log
0,1.76,66.32421875,gpuverify/barriers-47.cu,logs/gpuverify-barriers-235.log
0,1.7,68.04296875,gpuverify/barriers-48.cu,logs/gpuverify-barriers-236.log
0,1.72,68.26953125,gpuverify/barriers-48.cu,logs/gpuverify-barriers-237.log
0,2.0,68.28125,gpuverify/barriers-48.cu,logs/gpuverify-barriers-238.log
0,1.69,68.3671875,gpuverify/barriers-48.cu,logs/gpuverify-barriers-239.log
0,1.73,68.40234375,gpuverify/barriers-48.cu,logs/gpuverify-barriers-240.log
0,1.76,69.58203125,gpuverify/barriers-49.cu,logs/gpuverify-barriers-241.log
0,1.8,69.5546875,gpuverify/barriers-49.cu,logs/gpuverify-barriers-242.log
0,1.72,69.6015625,gpuverify/barriers-49.cu,logs/gpuverify-barriers-243.log
0,1.85,69.5859375,gpuverify/barriers-49.cu,logs/gpuverify-barriers-244.log
0,2.01,69.36328125,gpuverify/barriers-49.cu,logs/gpuverify-barriers-245.log
0,1.92,70.203125,gpuverify/barriers-50.cu,logs/gpuverify-barriers-246.log
0,1.8,69.9609375,gpuverify/barriers-50.cu,logs/gpuverify-barriers-247.log
0,1.89,70.3046875,gpuverify/barriers-50.cu,logs/gpuverify-barriers-248.log
0,1.76,70.3125,gpuverify/barriers-50.cu,logs/gpuverify-barriers-249.log
0,1.77,70.1328125,gpuverify/barriers-50.cu,logs/gpuverify-barriers-250.log
