status,time,memory,filename,log
0,0.65,54.44140625,gpuverify/accs-1.cu,logs/faial-accs-1.log
0,0.28,54.77734375,gpuverify/accs-1.cu,logs/faial-accs-2.log
0,0.27,54.47265625,gpuverify/accs-1.cu,logs/faial-accs-3.log
0,0.27,54.79296875,gpuverify/accs-1.cu,logs/faial-accs-4.log
0,0.27,54.78125,gpuverify/accs-1.cu,logs/faial-accs-5.log
0,0.27,54.78515625,gpuverify/accs-2.cu,logs/faial-accs-6.log
0,0.27,54.48046875,gpuverify/accs-2.cu,logs/faial-accs-7.log
0,0.28,54.4765625,gpuverify/accs-2.cu,logs/faial-accs-8.log
0,0.27,54.5859375,gpuverify/accs-2.cu,logs/faial-accs-9.log
0,0.27,54.6640625,gpuverify/accs-2.cu,logs/faial-accs-10.log
0,0.28,54.5,gpuverify/accs-3.cu,logs/faial-accs-11.log
0,0.27,54.23828125,gpuverify/accs-3.cu,logs/faial-accs-12.log
0,0.28,54.5,gpuverify/accs-3.cu,logs/faial-accs-13.log
0,0.29,54.6875,gpuverify/accs-3.cu,logs/faial-accs-14.log
0,0.28,54.578125,gpuverify/accs-3.cu,logs/faial-accs-15.log
0,0.28,54.5546875,gpuverify/accs-4.cu,logs/faial-accs-16.log
0,0.28,54.5625,gpuverify/accs-4.cu,logs/faial-accs-17.log
0,0.28,54.5,gpuverify/accs-4.cu,logs/faial-accs-18.log
0,0.28,54.66796875,gpuverify/accs-4.cu,logs/faial-accs-19.log
0,0.27,54.4296875,gpuverify/accs-4.cu,logs/faial-accs-20.log
0,0.28,54.59375,gpuverify/accs-5.cu,logs/faial-accs-21.log
0,0.28,54.8359375,gpuverify/accs-5.cu,logs/faial-accs-22.log
0,0.28,55.0625,gpuverify/accs-5.cu,logs/faial-accs-23.log
0,0.28,54.625,gpuverify/accs-5.cu,logs/faial-accs-24.log
0,0.28,55.171875,gpuverify/accs-5.cu,logs/faial-accs-25.log
0,0.28,54.75,gpuverify/accs-6.cu,logs/faial-accs-26.log
0,0.28,54.7421875,gpuverify/accs-6.cu,logs/faial-accs-27.log
0,0.29,54.90234375,gpuverify/accs-6.cu,logs/faial-accs-28.log
0,0.28,54.77734375,gpuverify/accs-6.cu,logs/faial-accs-29.log
0,0.28,55.0234375,gpuverify/accs-6.cu,logs/faial-accs-30.log
0,0.29,54.90625,gpuverify/accs-7.cu,logs/faial-accs-31.log
0,0.3,55.34375,gpuverify/accs-7.cu,logs/faial-accs-32.log
0,0.3,54.8359375,gpuverify/accs-7.cu,logs/faial-accs-33.log
0,0.32,54.6484375,gpuverify/accs-7.cu,logs/faial-accs-34.log
0,0.3,54.7421875,gpuverify/accs-7.cu,logs/faial-accs-35.log
0,0.3,54.9765625,gpuverify/accs-8.cu,logs/faial-accs-36.log
0,0.31,54.81640625,gpuverify/accs-8.cu,logs/faial-accs-37.log
0,0.3,54.8515625,gpuverify/accs-8.cu,logs/faial-accs-38.log
0,0.3,54.9140625,gpuverify/accs-8.cu,logs/faial-accs-39.log
0,0.29,54.70703125,gpuverify/accs-8.cu,logs/faial-accs-40.log
0,0.3,54.70703125,gpuverify/accs-9.cu,logs/faial-accs-41.log
0,0.3,55.421875,gpuverify/accs-9.cu,logs/faial-accs-42.log
0,0.3,55.32421875,gpuverify/accs-9.cu,logs/faial-accs-43.log
0,0.29,54.859375,gpuverify/accs-9.cu,logs/faial-accs-44.log
0,0.29,54.9453125,gpuverify/accs-9.cu,logs/faial-accs-45.log
0,0.3,54.93359375,gpuverify/accs-10.cu,logs/faial-accs-46.log
0,0.3,55.58984375,gpuverify/accs-10.cu,logs/faial-accs-47.log
0,0.3,55.03515625,gpuverify/accs-10.cu,logs/faial-accs-48.log
0,0.3,55.1015625,gpuverify/accs-10.cu,logs/faial-accs-49.log
0,0.3,55.15234375,gpuverify/accs-10.cu,logs/faial-accs-50.log
0,0.3,54.953125,gpuverify/accs-11.cu,logs/faial-accs-51.log
0,0.3,55.015625,gpuverify/accs-11.cu,logs/faial-accs-52.log
0,0.3,55.578125,gpuverify/accs-11.cu,logs/faial-accs-53.log
0,0.31,55.08203125,gpuverify/accs-11.cu,logs/faial-accs-54.log
0,0.31,55.234375,gpuverify/accs-11.cu,logs/faial-accs-55.log
0,0.3,55.1328125,gpuverify/accs-12.cu,logs/faial-accs-56.log
0,0.3,55.125,gpuverify/accs-12.cu,logs/faial-accs-57.log
0,0.3,55.63671875,gpuverify/accs-12.cu,logs/faial-accs-58.log
0,0.31,55.2265625,gpuverify/accs-12.cu,logs/faial-accs-59.log
0,0.3,55.203125,gpuverify/accs-12.cu,logs/faial-accs-60.log
0,0.31,55.171875,gpuverify/accs-13.cu,logs/faial-accs-61.log
0,0.31,55.45703125,gpuverify/accs-13.cu,logs/faial-accs-62.log
0,0.31,55.3515625,gpuverify/accs-13.cu,logs/faial-accs-63.log
0,0.3,55.5625,gpuverify/accs-13.cu,logs/faial-accs-64.log
0,0.31,55.15625,gpuverify/accs-13.cu,logs/faial-accs-65.log
0,0.32,55.2421875,gpuverify/accs-14.cu,logs/faial-accs-66.log
0,0.31,55.3125,gpuverify/accs-14.cu,logs/faial-accs-67.log
0,0.31,55.25390625,gpuverify/accs-14.cu,logs/faial-accs-68.log
0,0.31,55.2578125,gpuverify/accs-14.cu,logs/faial-accs-69.log
0,0.31,55.31640625,gpuverify/accs-14.cu,logs/faial-accs-70.log
0,0.32,55.8203125,gpuverify/accs-15.cu,logs/faial-accs-71.log
0,0.31,55.27734375,gpuverify/accs-15.cu,logs/faial-accs-72.log
0,0.31,55.28515625,gpuverify/accs-15.cu,logs/faial-accs-73.log
0,0.31,55.38671875,gpuverify/accs-15.cu,logs/faial-accs-74.log
0,0.31,55.53125,gpuverify/accs-15.cu,logs/faial-accs-75.log
0,0.31,55.50390625,gpuverify/accs-16.cu,logs/faial-accs-76.log
0,0.31,55.296875,gpuverify/accs-16.cu,logs/faial-accs-77.log
0,0.31,55.48828125,gpuverify/accs-16.cu,logs/faial-accs-78.log
0,0.32,55.3671875,gpuverify/accs-16.cu,logs/faial-accs-79.log
0,0.31,55.4765625,gpuverify/accs-16.cu,logs/faial-accs-80.log
0,0.32,56.078125,gpuverify/accs-17.cu,logs/faial-accs-81.log
0,0.32,55.35546875,gpuverify/accs-17.cu,logs/faial-accs-82.log
0,0.32,55.52734375,gpuverify/accs-17.cu,logs/faial-accs-83.log
0,0.32,55.5,gpuverify/accs-17.cu,logs/faial-accs-84.log
0,0.32,55.58984375,gpuverify/accs-17.cu,logs/faial-accs-85.log
0,0.32,55.65625,gpuverify/accs-18.cu,logs/faial-accs-86.log
0,0.32,55.63671875,gpuverify/accs-18.cu,logs/faial-accs-87.log
0,0.32,55.9375,gpuverify/accs-18.cu,logs/faial-accs-88.log
0,0.32,55.44921875,gpuverify/accs-18.cu,logs/faial-accs-89.log
0,0.32,55.7890625,gpuverify/accs-18.cu,logs/faial-accs-90.log
0,0.32,56.046875,gpuverify/accs-19.cu,logs/faial-accs-91.log
0,0.32,55.55078125,gpuverify/accs-19.cu,logs/faial-accs-92.log
0,0.32,55.53515625,gpuverify/accs-19.cu,logs/faial-accs-93.log
0,0.32,55.5625,gpuverify/accs-19.cu,logs/faial-accs-94.log
0,0.32,55.609375,gpuverify/accs-19.cu,logs/faial-accs-95.log
0,0.32,55.55078125,gpuverify/accs-20.cu,logs/faial-accs-96.log
0,0.32,56.0859375,gpuverify/accs-20.cu,logs/faial-accs-97.log
0,0.32,55.33984375,gpuverify/accs-20.cu,logs/faial-accs-98.log
0,0.32,55.953125,gpuverify/accs-20.cu,logs/faial-accs-99.log
0,0.32,55.98046875,gpuverify/accs-20.cu,logs/faial-accs-100.log
0,0.32,55.88671875,gpuverify/accs-21.cu,logs/faial-accs-101.log
0,0.32,55.94921875,gpuverify/accs-21.cu,logs/faial-accs-102.log
0,0.32,55.9453125,gpuverify/accs-21.cu,logs/faial-accs-103.log
0,0.34,56.09765625,gpuverify/accs-21.cu,logs/faial-accs-104.log
0,0.32,55.73046875,gpuverify/accs-21.cu,logs/faial-accs-105.log
0,0.32,55.92578125,gpuverify/accs-22.cu,logs/faial-accs-106.log
0,0.32,56.14453125,gpuverify/accs-22.cu,logs/faial-accs-107.log
0,0.32,55.84375,gpuverify/accs-22.cu,logs/faial-accs-108.log
0,0.32,56.34765625,gpuverify/accs-22.cu,logs/faial-accs-109.log
0,0.32,55.9140625,gpuverify/accs-22.cu,logs/faial-accs-110.log
0,0.32,56.03125,gpuverify/accs-23.cu,logs/faial-accs-111.log
0,0.32,55.984375,gpuverify/accs-23.cu,logs/faial-accs-112.log
0,0.33,56.5,gpuverify/accs-23.cu,logs/faial-accs-113.log
0,0.32,56.3515625,gpuverify/accs-23.cu,logs/faial-accs-114.log
0,0.32,56.0078125,gpuverify/accs-23.cu,logs/faial-accs-115.log
0,0.33,56.09765625,gpuverify/accs-24.cu,logs/faial-accs-116.log
0,0.33,56.0234375,gpuverify/accs-24.cu,logs/faial-accs-117.log
0,0.33,56.36328125,gpuverify/accs-24.cu,logs/faial-accs-118.log
0,0.33,55.84375,gpuverify/accs-24.cu,logs/faial-accs-119.log
0,0.33,55.99609375,gpuverify/accs-24.cu,logs/faial-accs-120.log
0,0.33,56.34765625,gpuverify/accs-25.cu,logs/faial-accs-121.log
0,0.33,55.8046875,gpuverify/accs-25.cu,logs/faial-accs-122.log
0,0.33,56.24609375,gpuverify/accs-25.cu,logs/faial-accs-123.log
0,0.33,55.9375,gpuverify/accs-25.cu,logs/faial-accs-124.log
0,0.33,55.93359375,gpuverify/accs-25.cu,logs/faial-accs-125.log
0,0.33,56.2578125,gpuverify/accs-26.cu,logs/faial-accs-126.log
0,0.33,56.6328125,gpuverify/accs-26.cu,logs/faial-accs-127.log
0,0.33,56.1640625,gpuverify/accs-26.cu,logs/faial-accs-128.log
0,0.33,56.26171875,gpuverify/accs-26.cu,logs/faial-accs-129.log
0,0.33,56.66015625,gpuverify/accs-26.cu,logs/faial-accs-130.log
0,0.33,56.27734375,gpuverify/accs-27.cu,logs/faial-accs-131.log
0,0.33,56.1953125,gpuverify/accs-27.cu,logs/faial-accs-132.log
0,0.33,56.3125,gpuverify/accs-27.cu,logs/faial-accs-133.log
0,0.33,56.578125,gpuverify/accs-27.cu,logs/faial-accs-134.log
0,0.33,56.70703125,gpuverify/accs-27.cu,logs/faial-accs-135.log
0,0.34,56.70703125,gpuverify/accs-28.cu,logs/faial-accs-136.log
0,0.34,56.40625,gpuverify/accs-28.cu,logs/faial-accs-137.log
0,0.33,56.2890625,gpuverify/accs-28.cu,logs/faial-accs-138.log
0,0.33,56.61328125,gpuverify/accs-28.cu,logs/faial-accs-139.log
0,0.33,56.19140625,gpuverify/accs-28.cu,logs/faial-accs-140.log
0,0.33,56.109375,gpuverify/accs-29.cu,logs/faial-accs-141.log
0,0.33,56.65234375,gpuverify/accs-29.cu,logs/faial-accs-142.log
0,0.34,56.30078125,gpuverify/accs-29.cu,logs/faial-accs-143.log
0,0.33,56.140625,gpuverify/accs-29.cu,logs/faial-accs-144.log
0,0.34,56.2421875,gpuverify/accs-29.cu,logs/faial-accs-145.log
0,0.34,56.4140625,gpuverify/accs-30.cu,logs/faial-accs-146.log
0,0.34,56.57421875,gpuverify/accs-30.cu,logs/faial-accs-147.log
0,0.34,56.73828125,gpuverify/accs-30.cu,logs/faial-accs-148.log
0,0.34,56.75,gpuverify/accs-30.cu,logs/faial-accs-149.log
0,0.34,56.44140625,gpuverify/accs-30.cu,logs/faial-accs-150.log
0,0.35,56.5234375,gpuverify/accs-31.cu,logs/faial-accs-151.log
0,0.35,56.2421875,gpuverify/accs-31.cu,logs/faial-accs-152.log
0,0.35,56.60546875,gpuverify/accs-31.cu,logs/faial-accs-153.log
0,0.34,57.0625,gpuverify/accs-31.cu,logs/faial-accs-154.log
0,0.35,56.609375,gpuverify/accs-31.cu,logs/faial-accs-155.log
0,0.34,57.0625,gpuverify/accs-32.cu,logs/faial-accs-156.log
0,0.35,56.66796875,gpuverify/accs-32.cu,logs/faial-accs-157.log
0,0.35,56.6875,gpuverify/accs-32.cu,logs/faial-accs-158.log
0,0.35,57.0390625,gpuverify/accs-32.cu,logs/faial-accs-159.log
0,0.35,56.9453125,gpuverify/accs-32.cu,logs/faial-accs-160.log
0,0.35,56.6875,gpuverify/accs-33.cu,logs/faial-accs-161.log
0,0.36,56.80859375,gpuverify/accs-33.cu,logs/faial-accs-162.log
0,0.35,57.06640625,gpuverify/accs-33.cu,logs/faial-accs-163.log
0,0.34,56.6953125,gpuverify/accs-33.cu,logs/faial-accs-164.log
0,0.35,57.02734375,gpuverify/accs-33.cu,logs/faial-accs-165.log
0,0.35,56.78125,gpuverify/accs-34.cu,logs/faial-accs-166.log
0,0.35,57.07421875,gpuverify/accs-34.cu,logs/faial-accs-167.log
0,0.35,56.89453125,gpuverify/accs-34.cu,logs/faial-accs-168.log
0,0.35,56.640625,gpuverify/accs-34.cu,logs/faial-accs-169.log
0,0.35,56.78515625,gpuverify/accs-34.cu,logs/faial-accs-170.log
0,0.34,56.54296875,gpuverify/accs-35.cu,logs/faial-accs-171.log
0,0.35,56.73828125,gpuverify/accs-35.cu,logs/faial-accs-172.log
0,0.35,57.19921875,gpuverify/accs-35.cu,logs/faial-accs-173.log
0,0.34,56.625,gpuverify/accs-35.cu,logs/faial-accs-174.log
0,0.37,56.73046875,gpuverify/accs-35.cu,logs/faial-accs-175.log
0,0.36,56.953125,gpuverify/accs-36.cu,logs/faial-accs-176.log
0,0.35,56.85546875,gpuverify/accs-36.cu,logs/faial-accs-177.log
0,0.37,56.796875,gpuverify/accs-36.cu,logs/faial-accs-178.log
0,0.36,57.5390625,gpuverify/accs-36.cu,logs/faial-accs-179.log
0,0.36,56.91015625,gpuverify/accs-36.cu,logs/faial-accs-180.log
0,0.35,57.3359375,gpuverify/accs-37.cu,logs/faial-accs-181.log
0,0.37,56.984375,gpuverify/accs-37.cu,logs/faial-accs-182.log
0,0.35,57.5,gpuverify/accs-37.cu,logs/faial-accs-183.log
0,0.35,57.39453125,gpuverify/accs-37.cu,logs/faial-accs-184.log
0,0.35,56.92578125,gpuverify/accs-37.cu,logs/faial-accs-185.log
0,0.35,57.03515625,gpuverify/accs-38.cu,logs/faial-accs-186.log
0,0.35,57.4609375,gpuverify/accs-38.cu,logs/faial-accs-187.log
0,0.36,57.2421875,gpuverify/accs-38.cu,logs/faial-accs-188.log
0,0.35,56.96875,gpuverify/accs-38.cu,logs/faial-accs-189.log
0,0.35,57.42578125,gpuverify/accs-38.cu,logs/faial-accs-190.log
0,0.36,57.07421875,gpuverify/accs-39.cu,logs/faial-accs-191.log
0,0.35,56.9609375,gpuverify/accs-39.cu,logs/faial-accs-192.log
0,0.35,57.54296875,gpuverify/accs-39.cu,logs/faial-accs-193.log
0,0.36,56.91796875,gpuverify/accs-39.cu,logs/faial-accs-194.log
0,0.36,57.01171875,gpuverify/accs-39.cu,logs/faial-accs-195.log
0,0.37,57.5703125,gpuverify/accs-40.cu,logs/faial-accs-196.log
0,0.37,57.2890625,gpuverify/accs-40.cu,logs/faial-accs-197.log
0,0.37,57.515625,gpuverify/accs-40.cu,logs/faial-accs-198.log
0,0.36,56.95703125,gpuverify/accs-40.cu,logs/faial-accs-199.log
0,0.36,56.859375,gpuverify/accs-40.cu,logs/faial-accs-200.log
0,0.36,57.6015625,gpuverify/accs-41.cu,logs/faial-accs-201.log
0,0.37,56.96484375,gpuverify/accs-41.cu,logs/faial-accs-202.log
0,0.36,57.171875,gpuverify/accs-41.cu,logs/faial-accs-203.log
0,0.37,57.0390625,gpuverify/accs-41.cu,logs/faial-accs-204.log
0,0.36,57.28515625,gpuverify/accs-41.cu,logs/faial-accs-205.log
0,0.36,57.73828125,gpuverify/accs-42.cu,logs/faial-accs-206.log
0,0.36,57.48046875,gpuverify/accs-42.cu,logs/faial-accs-207.log
0,0.36,57.39453125,gpuverify/accs-42.cu,logs/faial-accs-208.log
0,0.37,57.43359375,gpuverify/accs-42.cu,logs/faial-accs-209.log
0,0.37,57.23046875,gpuverify/accs-42.cu,logs/faial-accs-210.log
0,0.37,57.58203125,gpuverify/accs-43.cu,logs/faial-accs-211.log
0,0.37,57.1796875,gpuverify/accs-43.cu,logs/faial-accs-212.log
0,0.37,57.31640625,gpuverify/accs-43.cu,logs/faial-accs-213.log
0,0.37,57.171875,gpuverify/accs-43.cu,logs/faial-accs-214.log
0,0.37,57.24609375,gpuverify/accs-43.cu,logs/faial-accs-215.log
0,0.37,57.78515625,gpuverify/accs-44.cu,logs/faial-accs-216.log
0,0.37,57.609375,gpuverify/accs-44.cu,logs/faial-accs-217.log
0,0.37,57.55859375,gpuverify/accs-44.cu,logs/faial-accs-218.log
0,0.37,57.28515625,gpuverify/accs-44.cu,logs/faial-accs-219.log
0,0.37,57.23828125,gpuverify/accs-44.cu,logs/faial-accs-220.log
0,0.38,57.2890625,gpuverify/accs-45.cu,logs/faial-accs-221.log
0,0.37,57.49609375,gpuverify/accs-45.cu,logs/faial-accs-222.log
0,0.38,57.359375,gpuverify/accs-45.cu,logs/faial-accs-223.log
0,0.38,57.3515625,gpuverify/accs-45.cu,logs/faial-accs-224.log
0,0.38,57.41796875,gpuverify/accs-45.cu,logs/faial-accs-225.log
0,0.38,57.890625,gpuverify/accs-46.cu,logs/faial-accs-226.log
0,0.38,57.796875,gpuverify/accs-46.cu,logs/faial-accs-227.log
0,0.38,57.734375,gpuverify/accs-46.cu,logs/faial-accs-228.log
0,0.38,57.5546875,gpuverify/accs-46.cu,logs/faial-accs-229.log
0,0.38,57.2265625,gpuverify/accs-46.cu,logs/faial-accs-230.log
0,0.38,57.703125,gpuverify/accs-47.cu,logs/faial-accs-231.log
0,0.39,57.72265625,gpuverify/accs-47.cu,logs/faial-accs-232.log
0,0.39,58.18359375,gpuverify/accs-47.cu,logs/faial-accs-233.log
0,0.39,58.0546875,gpuverify/accs-47.cu,logs/faial-accs-234.log
0,0.38,57.65625,gpuverify/accs-47.cu,logs/faial-accs-235.log
0,0.39,57.65234375,gpuverify/accs-48.cu,logs/faial-accs-236.log
0,0.38,57.5390625,gpuverify/accs-48.cu,logs/faial-accs-237.log
0,0.38,57.71484375,gpuverify/accs-48.cu,logs/faial-accs-238.log
0,0.39,57.60546875,gpuverify/accs-48.cu,logs/faial-accs-239.log
0,0.38,57.53515625,gpuverify/accs-48.cu,logs/faial-accs-240.log
0,0.42,57.7421875,gpuverify/accs-49.cu,logs/faial-accs-241.log
0,0.39,57.76171875,gpuverify/accs-49.cu,logs/faial-accs-242.log
0,0.39,57.78515625,gpuverify/accs-49.cu,logs/faial-accs-243.log
0,0.41,57.640625,gpuverify/accs-49.cu,logs/faial-accs-244.log
0,0.39,57.859375,gpuverify/accs-49.cu,logs/faial-accs-245.log
0,0.39,57.875,gpuverify/accs-50.cu,logs/faial-accs-246.log
0,0.38,57.69140625,gpuverify/accs-50.cu,logs/faial-accs-247.log
0,0.39,57.8203125,gpuverify/accs-50.cu,logs/faial-accs-248.log
0,0.39,57.625,gpuverify/accs-50.cu,logs/faial-accs-249.log
0,0.38,57.7421875,gpuverify/accs-50.cu,logs/faial-accs-250.log
