"/artifact/datasets/gpuverify-cav14/pug/CUDA20/scan/best/kernel.c", line 127: warning: 
          function "kernel" was declared but never referenced
  __global__ void kernel (float* g_odata, float* g_idata, int n) {
                  ^

>>>> start analysis ... 


-------------------------------------------------------
Invalid OVERFLOW_PROTECTION flag in config.txt!
Setting OVERFLOW_PROTECTION flag to on
-------------------------------------------------------

-------------------------------------------------------
Invalid NBITS value in config.txt!
Setting NBITS value to 10
-------------------------------------------------------

-------------------------------------------------------
Invalid USE_INCRSMT flag in config.txt!
Setting USE_INCRSMT flag to false
-------------------------------------------------------


-------------------------------------------------------
Invalid USE_LOOP_REFINEMENT flag in config.txt!
Setting USE_LOOP_REFINEMENT flag to true
-------------------------------------------------------


-------------------------------------------------------
Invalid SLICE_ARRAYS flag in config.txt!
Setting SLICE_ARRAYS flag to true
-------------------------------------------------------


-------------------------------------------------------
Invalid USE_ASSUMES flag in config.txt!
Setting USE_ASSUMES flag to true
-------------------------------------------------------


-------------------------------------------------------
Invalid CHK_BANK_CONFLICTS option in config.txt!
Setting CHK_BANK_CONFLICTS option to false
-------------------------------------------------------

Debug level (verbosity) set to 0


Processing function: kernel

FunctionCall: assume(((n) ==((blockDim.x) *(2))))
Assuming n0 == (bdim.x << 1)

FunctionCall: assume(__is_pow2(n))
Assuming 

FunctionCall: assume(((blockDim.x) ==(32)))
Assuming bdim.x == 32

FunctionCall: assume(((blockDim.y) ==(1)))
Assuming bdim.y == 1

FunctionCall: assume(((gridDim.x) ==(1)))
Assuming gdim.x == 1

FunctionCall: assume(((gridDim.y) ==(1)))
Assuming gdim.y == 1

Binary OP: temp[ai_outer + bankOffsetA] =(g_idata[ai_outer])

Binary OP: temp[bi_outer + bankOffsetB] =(g_idata[bi_outer])

FunctionCall: __syncthreads()
unsatisfiable
containBarrierFlag = 1
incrExpr = d >>= 1
------------- NON Linear incrExpr
rangeExpr = ((!1^d0 >= (0 + 1)) && (!1^d0 <= (n0 >> 1))); substExpr = 

FunctionCall: __syncthreads()

Binary OP: offset *= 2
Found loop carrying expression, try refinement!
refined exp: ((offset2 * !1^d0) == (offset1 * (n0 >> 1)) && (offset2 > 1))

Binary OP: ai +=(ai >> 4)

Binary OP: bi +=(bi >> 4)

Binary OP: temp[bi] +=(temp[ai])
Found loop carrying expression, skip!

Binary OP: index +=(index >> 4)

Binary OP: temp[index] =(0)
containBarrierFlag = 1
incrExpr = d *= 2
------------- NON Linear incrExpr
rangeExpr = ((!2^d0 >= 1) && (!2^d0 <= (n0 - 1))); substExpr = 

Binary OP: offset /= 2
Found loop carrying expression, try refinement!
refined exp: (offset3 * !2^d0) == (offset2 << 0)

FunctionCall: __syncthreads()
unsatisfiable

Binary OP: ai +=(ai >> 4)

Binary OP: bi +=(bi >> 4)

Binary OP: temp[ai] =(temp[bi])

Binary OP: temp[bi] += t
Found loop carrying expression, skip!

FunctionCall: __syncthreads()
unsatisfiable

Binary OP: g_odata[ai_outer] =(temp[ai_outer + bankOffsetA])

Binary OP: g_odata[bi_outer] =(temp[bi_outer + bankOffsetB])

Reaching the end of the kernel
unsatisfiable


#####################################################################

No races or synchronization errors were found.

Max instance solving time = 0.004406s
Total solving time = 0.011997s

#####################################################################

