"/artifact/datasets/gpuverify-cav14/pug/CUDA50/3_Imaging/convolutionFFT2D/common.h", line 8: error: 
          this declaration has no storage class or type specifier
  texture<float, 1, cudaReadModeElementType> texFloat;
  ^

"/artifact/datasets/gpuverify-cav14/pug/CUDA50/3_Imaging/convolutionFFT2D/common.h", line 8: error: 
          expected a ";"
  texture<float, 1, cudaReadModeElementType> texFloat;
         ^

"/artifact/datasets/gpuverify-cav14/pug/CUDA50/3_Imaging/convolutionFFT2D/common.h", line 16: warning: 
          attribute "always_inline" ignored
  __device__ static __attribute__((always_inline)) void mulAndScale(fComplex &a, const fComplex &b, const float &c)
                                   ^

"/artifact/datasets/gpuverify-cav14/pug/CUDA50/3_Imaging/convolutionFFT2D/common.h", line 16: error: 
          expected a ")"
  __device__ static __attribute__((always_inline)) void mulAndScale(fComplex &a, const fComplex &b, const float &c)
                                                                             ^

"/artifact/datasets/gpuverify-cav14/pug/CUDA50/3_Imaging/convolutionFFT2D/common.h", line 16: error: 
          unnamed prototyped parameters not allowed when body is present
  __device__ static __attribute__((always_inline)) void mulAndScale(fComplex &a, const fComplex &b, const float &c)
                                                        ^

"/artifact/datasets/gpuverify-cav14/pug/CUDA50/3_Imaging/convolutionFFT2D/common.h", line 18: error: 
          identifier "c" is undefined
      fComplex t = {c *(a.x * b.x - a.y * b.y), c *(a.y * b.x + a.x * b.y)};
                    ^

"/artifact/datasets/gpuverify-cav14/pug/CUDA50/3_Imaging/convolutionFFT2D/common.h", line 18: error: 
          identifier "a" is undefined
      fComplex t = {c *(a.x * b.x - a.y * b.y), c *(a.y * b.x + a.x * b.y)};
                        ^

"/artifact/datasets/gpuverify-cav14/pug/CUDA50/3_Imaging/convolutionFFT2D/common.h", line 18: error: 
          identifier "b" is undefined
      fComplex t = {c *(a.x * b.x - a.y * b.y), c *(a.y * b.x + a.x * b.y)};
                              ^

"/artifact/datasets/gpuverify-cav14/pug/CUDA50/3_Imaging/convolutionFFT2D/common.h", line 23: error: 
          this declaration has no storage class or type specifier
  texture<fComplex, 1, cudaReadModeElementType> texComplexA;
  ^

"/artifact/datasets/gpuverify-cav14/pug/CUDA50/3_Imaging/convolutionFFT2D/common.h", line 23: error: 
          expected a ";"
  texture<fComplex, 1, cudaReadModeElementType> texComplexA;
         ^

"/artifact/datasets/gpuverify-cav14/pug/CUDA50/3_Imaging/convolutionFFT2D/common.h", line 24: error: 
          this declaration has no storage class or type specifier
  texture<fComplex, 1, cudaReadModeElementType> texComplexB;
  ^

"/artifact/datasets/gpuverify-cav14/pug/CUDA50/3_Imaging/convolutionFFT2D/common.h", line 24: error: 
          expected a ";"
  texture<fComplex, 1, cudaReadModeElementType> texComplexB;
         ^

"/artifact/datasets/gpuverify-cav14/pug/CUDA50/3_Imaging/convolutionFFT2D/common.h", line 42: warning: 
          attribute "always_inline" ignored
  __device__ static __attribute__((always_inline)) void spPostprocessC2C(fComplex &D1, fComplex &D2, const fComplex &twiddle)
                                   ^

"/artifact/datasets/gpuverify-cav14/pug/CUDA50/3_Imaging/convolutionFFT2D/common.h", line 42: error: 
          expected a ")"
  __device__ static __attribute__((always_inline)) void spPostprocessC2C(fComplex &D1, fComplex &D2, const fComplex &twiddle)
                                                                                  ^

"/artifact/datasets/gpuverify-cav14/pug/CUDA50/3_Imaging/convolutionFFT2D/common.h", line 42: error: 
          unnamed prototyped parameters not allowed when body is present
  __device__ static __attribute__((always_inline)) void spPostprocessC2C(fComplex &D1, fComplex &D2, const fComplex &twiddle)
                                                        ^

"/artifact/datasets/gpuverify-cav14/pug/CUDA50/3_Imaging/convolutionFFT2D/common.h", line 44: error: 
          identifier "D1" is undefined
      float A1 = 0.5f * (D1.x + D2.x);
                         ^

"/artifact/datasets/gpuverify-cav14/pug/CUDA50/3_Imaging/convolutionFFT2D/common.h", line 44: error: 
          identifier "D2" is undefined
      float A1 = 0.5f * (D1.x + D2.x);
                                ^

"/artifact/datasets/gpuverify-cav14/pug/CUDA50/3_Imaging/convolutionFFT2D/common.h", line 49: error: 
          identifier "twiddle" is undefined
      D1.x = A1 + (A2 * twiddle.x + B2 * twiddle.y);
                        ^

"/artifact/datasets/gpuverify-cav14/pug/CUDA50/3_Imaging/convolutionFFT2D/common.h", line 55: warning: 
          attribute "always_inline" ignored
  __device__ static __attribute__((always_inline)) void spPreprocessC2C(fComplex &D1, fComplex &D2, const fComplex &twiddle)
                                   ^

"/artifact/datasets/gpuverify-cav14/pug/CUDA50/3_Imaging/convolutionFFT2D/common.h", line 55: error: 
          expected a ")"
  __device__ static __attribute__((always_inline)) void spPreprocessC2C(fComplex &D1, fComplex &D2, const fComplex &twiddle)
                                                                                 ^

"/artifact/datasets/gpuverify-cav14/pug/CUDA50/3_Imaging/convolutionFFT2D/common.h", line 55: error: 
          unnamed prototyped parameters not allowed when body is present
  __device__ static __attribute__((always_inline)) void spPreprocessC2C(fComplex &D1, fComplex &D2, const fComplex &twiddle)
                                                        ^

"/artifact/datasets/gpuverify-cav14/pug/CUDA50/3_Imaging/convolutionFFT2D/common.h", line 57: error: 
          identifier "D1" is undefined
      float A1 = /* 0.5f * */ (D1.x + D2.x);
                               ^

"/artifact/datasets/gpuverify-cav14/pug/CUDA50/3_Imaging/convolutionFFT2D/common.h", line 57: error: 
          identifier "D2" is undefined
      float A1 = /* 0.5f * */ (D1.x + D2.x);
                                      ^

"/artifact/datasets/gpuverify-cav14/pug/CUDA50/3_Imaging/convolutionFFT2D/common.h", line 62: error: 
          identifier "twiddle" is undefined
      D1.x = A1 - (A2 * twiddle.x - B2 * twiddle.y);
                        ^

"/artifact/datasets/gpuverify-cav14/pug/CUDA50/3_Imaging/convolutionFFT2D/common.h", line 68: warning: 
          attribute "always_inline" ignored
  __device__ static __attribute__((always_inline)) void getTwiddle(fComplex &twiddle, float phase)
                                   ^

"/artifact/datasets/gpuverify-cav14/pug/CUDA50/3_Imaging/convolutionFFT2D/common.h", line 68: error: 
          expected a ")"
  __device__ static __attribute__((always_inline)) void getTwiddle(fComplex &twiddle, float phase)
                                                                            ^

"/artifact/datasets/gpuverify-cav14/pug/CUDA50/3_Imaging/convolutionFFT2D/common.h", line 68: error: 
          unnamed prototyped parameters not allowed when body is present
  __device__ static __attribute__((always_inline)) void getTwiddle(fComplex &twiddle, float phase)
                                                        ^

"/artifact/datasets/gpuverify-cav14/pug/CUDA50/3_Imaging/convolutionFFT2D/common.h", line 70: error: 
          identifier "phase" is undefined
      __sincosf(phase, &twiddle.y, &twiddle.x);
                ^

"/artifact/datasets/gpuverify-cav14/pug/CUDA50/3_Imaging/convolutionFFT2D/common.h", line 70: error: 
          identifier "twiddle" is undefined
      __sincosf(phase, &twiddle.y, &twiddle.x);
                        ^

"/artifact/datasets/gpuverify-cav14/pug/CUDA50/3_Imaging/convolutionFFT2D/common.h", line 73: warning: 
          attribute "always_inline" ignored
  __device__ static __attribute__((always_inline)) uint mod(uint a, uint DA)
                                   ^

"/artifact/datasets/gpuverify-cav14/pug/CUDA50/3_Imaging/convolutionFFT2D/common.h", line 73: warning: 
          type qualifier on return type is meaningless
  __device__ static __attribute__((always_inline)) uint mod(uint a, uint DA)
                                                        ^

"/artifact/datasets/gpuverify-cav14/pug/CUDA50/3_Imaging/convolutionFFT2D/common.h", line 79: warning: 
          attribute "always_inline" ignored
  __device__ static __attribute__((always_inline)) void udivmod(uint &dividend, uint divisor, uint &rem)
                                   ^

"/artifact/datasets/gpuverify-cav14/pug/CUDA50/3_Imaging/convolutionFFT2D/common.h", line 79: error: 
          expected a ")"
  __device__ static __attribute__((always_inline)) void udivmod(uint &dividend, uint divisor, uint &rem)
                                                                     ^

"/artifact/datasets/gpuverify-cav14/pug/CUDA50/3_Imaging/convolutionFFT2D/common.h", line 79: error: 
          unnamed prototyped parameters not allowed when body is present
  __device__ static __attribute__((always_inline)) void udivmod(uint &dividend, uint divisor, uint &rem)
                                                        ^

"/artifact/datasets/gpuverify-cav14/pug/CUDA50/3_Imaging/convolutionFFT2D/common.h", line 85: error: 
          identifier "rem" is undefined
      rem = dividend & (divisor - 1);
      ^

"/artifact/datasets/gpuverify-cav14/pug/CUDA50/3_Imaging/convolutionFFT2D/common.h", line 85: error: 
          identifier "dividend" is undefined
      rem = dividend & (divisor - 1);
            ^

"/artifact/datasets/gpuverify-cav14/pug/CUDA50/3_Imaging/convolutionFFT2D/common.h", line 85: error: 
          identifier "divisor" is undefined
      rem = dividend & (divisor - 1);
                        ^

"/artifact/datasets/gpuverify-cav14/pug/CUDA50/3_Imaging/convolutionFFT2D/spPreprocess2D_kernel.c", line 122: error: 
          too many arguments in function call
      udivmod(i, DX / 2, x);
                 ^

"/artifact/datasets/gpuverify-cav14/pug/CUDA50/3_Imaging/convolutionFFT2D/spPreprocess2D_kernel.c", line 122: warning: 
          variable "x" is used before its value is set
      udivmod(i, DX / 2, x);
                         ^

"/artifact/datasets/gpuverify-cav14/pug/CUDA50/3_Imaging/convolutionFFT2D/spPreprocess2D_kernel.c", line 123: error: 
          too many arguments in function call
      udivmod(i, DY, y);
                 ^

"/artifact/datasets/gpuverify-cav14/pug/CUDA50/3_Imaging/convolutionFFT2D/spPreprocess2D_kernel.c", line 123: warning: 
          variable "y" is used before its value is set
      udivmod(i, DY, y);
                     ^

"/artifact/datasets/gpuverify-cav14/pug/CUDA50/3_Imaging/convolutionFFT2D/spPreprocess2D_kernel.c", line 141: error: 
          identifier "texComplexA" is undefined
          fComplex D1 = LOAD_FCOMPLEX(loadPos1);
                        ^

"/artifact/datasets/gpuverify-cav14/pug/CUDA50/3_Imaging/convolutionFFT2D/spPreprocess2D_kernel.c", line 141: error: 
          a value of type "int" cannot be used to initialize an entity of type
          "fComplex"
          fComplex D1 = LOAD_FCOMPLEX(loadPos1);
                        ^

"/artifact/datasets/gpuverify-cav14/pug/CUDA50/3_Imaging/convolutionFFT2D/spPreprocess2D_kernel.c", line 142: error: 
          a value of type "int" cannot be used to initialize an entity of type
          "fComplex"
          fComplex D2 = LOAD_FCOMPLEX(loadPos2);
                        ^

"/artifact/datasets/gpuverify-cav14/pug/CUDA50/3_Imaging/convolutionFFT2D/spPreprocess2D_kernel.c", line 145: error: 
          too many arguments in function call
          getTwiddle(twiddle, phaseBase * (float)x);
                              ^

"/artifact/datasets/gpuverify-cav14/pug/CUDA50/3_Imaging/convolutionFFT2D/spPreprocess2D_kernel.c", line 145: warning: 
          variable "twiddle" is used before its value is set
          getTwiddle(twiddle, phaseBase * (float)x);
                     ^

"/artifact/datasets/gpuverify-cav14/pug/CUDA50/3_Imaging/convolutionFFT2D/spPreprocess2D_kernel.c", line 146: error: 
          too many arguments in function call
          spPreprocessC2C(D1, D2, twiddle);
                              ^

"/artifact/datasets/gpuverify-cav14/pug/CUDA50/3_Imaging/convolutionFFT2D/spPreprocess2D_kernel.c", line 160: error: 
          identifier "texComplexA" is undefined
          fComplex D1 = LOAD_FCOMPLEX(loadPos1);
                        ^

"/artifact/datasets/gpuverify-cav14/pug/CUDA50/3_Imaging/convolutionFFT2D/spPreprocess2D_kernel.c", line 160: error: 
          a value of type "int" cannot be used to initialize an entity of type
          "fComplex"
          fComplex D1 = LOAD_FCOMPLEX(loadPos1);
                        ^

"/artifact/datasets/gpuverify-cav14/pug/CUDA50/3_Imaging/convolutionFFT2D/spPreprocess2D_kernel.c", line 161: error: 
          a value of type "int" cannot be used to initialize an entity of type
          "fComplex"
          fComplex D2 = LOAD_FCOMPLEX(loadPos2);
                        ^

"/artifact/datasets/gpuverify-cav14/pug/CUDA50/3_Imaging/convolutionFFT2D/spPreprocess2D_kernel.c", line 165: error: 
          too many arguments in function call
          spPreprocessC2C(D1, D2, twiddle);
                              ^

"/artifact/datasets/gpuverify-cav14/pug/CUDA50/3_Imaging/convolutionFFT2D/spPreprocess2D_kernel.c", line 85: warning: 
          function "kernel" was declared but never referenced
  __global__ void kernel (fComplex* d_Dst, fComplex* d_Src, uint DY,uint DX,uint threadCount,uint padding,float phaseBase) {
                  ^

terminate called after throwing an instance of 'rose_exception'
  what():  Errors in Processing: (frontend_failed)
/artifact/tools/pug-v0.2_x64/pug: line 3: 40325 Aborted                 (core dumped) LD_LIBRARY_PATH="$PREFIX/lib" "$PREFIX/bin/pug" "$@"
